%!PS-Adobe-3.0
%%DocumentNeededResources: font Helvetica
%%+ font Helvetica-Bold
%%+ font Helvetica-Oblique
%%+ font Helvetica-BoldOblique
%%+ font Symbol
%%DocumentMedia: a4 595 841 0 () ()
%%Title: R Graphics Output
%%Creator: R Software
%%Pages: (atend)
%%Orientation: Landscape
%%BoundingBox: 18 18 577 824
%%EndComments
%%BeginProlog
/bp  { gs sRGB 595.00 0 translate 90 rotate gs } def
% begin .ps.prolog
/gs  { gsave } bind def
/gr  { grestore } bind def
/ep  { showpage gr gr } bind def
/m   { moveto } bind def
/l  { rlineto } bind def
/np  { newpath } bind def
/cp  { closepath } bind def
/f   { fill } bind def
/o   { stroke } bind def
/c   { newpath 0 360 arc } bind def
/r   { 4 2 roll moveto 1 copy 3 -1 roll exch 0 exch rlineto 0 rlineto -1 mul 0 exch rlineto closepath } bind def
/p1  { stroke } bind def
/p2  { gsave bg fill grestore newpath } bind def
/p3  { gsave bg fill grestore stroke } bind def
/p6  { gsave bg eofill grestore newpath } bind def
/p7  { gsave bg eofill grestore stroke } bind def
/t   { 5 -2 roll moveto gsave rotate
       1 index stringwidth pop
       mul neg 0 rmoveto show grestore } bind def
/ta  { 4 -2 roll moveto gsave rotate show } bind def
/tb  { 2 -1 roll 0 rmoveto show } bind def
/cl  { grestore gsave newpath 3 index 3 index moveto 1 index
       4 -1 roll lineto  exch 1 index lineto lineto
       closepath clip newpath } bind def
/rgb { setrgbcolor } bind def
/s   { scalefont setfont } bind def
% end   .ps.prolog
/sRGB { [ /CIEBasedABC
          << /DecodeLMN
               [ { dup 0.03928 le
                        {12.92321 div}
                        {0.055 add 1.055 div 2.4 exp }
                     ifelse
                 } bind dup dup
               ]
             /MatrixLMN [0.412457 0.212673 0.019334
                         0.357576 0.715152 0.119192
                         0.180437 0.072175 0.950301]
             /WhitePoint [0.9505 1.0 1.0890]
           >>
         ] setcolorspace } bind def
/srgb { setcolor } bind def
%%IncludeResource: font Helvetica
/Helvetica findfont
dup length dict begin
  {1 index /FID ne {def} {pop pop} ifelse} forall
  /Encoding ISOLatin1Encoding def
  currentdict
  end
/Font1 exch definefont pop
%%IncludeResource: font Helvetica-Bold
/Helvetica-Bold findfont
dup length dict begin
  {1 index /FID ne {def} {pop pop} ifelse} forall
  /Encoding ISOLatin1Encoding def
  currentdict
  end
/Font2 exch definefont pop
%%IncludeResource: font Helvetica-Oblique
/Helvetica-Oblique findfont
dup length dict begin
  {1 index /FID ne {def} {pop pop} ifelse} forall
  /Encoding ISOLatin1Encoding def
  currentdict
  end
/Font3 exch definefont pop
%%IncludeResource: font Helvetica-BoldOblique
/Helvetica-BoldOblique findfont
dup length dict begin
  {1 index /FID ne {def} {pop pop} ifelse} forall
  /Encoding ISOLatin1Encoding def
  currentdict
  end
/Font4 exch definefont pop
%%IncludeResource: font Symbol
/Symbol findfont
dup length dict begin
  {1 index /FID ne {def} {pop pop} ifelse} forall
  currentdict
  end
/Font5 exch definefont pop
%%EndProlog
%%Page: 1 1
bp
18.00 18.00 823.89 577.28 cl
18.00 18.00 823.89 577.28 cl
18.00 18.00 823.89 577.28 cl
18.00 18.00 823.89 577.28 cl
18.00 18.00 823.89 577.28 cl
18.00 18.00 823.89 577.28 cl
18.00 18.00 823.89 577.28 cl
18.00 18.00 823.89 577.28 cl
18.00 18.00 823.89 577.28 cl
18.00 18.00 823.89 577.28 cl
/bg { 1 1 1 srgb } def
1 1 1 srgb
1.07 setlinewidth
[] 0 setdash
1 setlinecap
1 setlinejoin
10.00 setmiterlimit
18.00 18.00 805.89 559.28 r p3
18.00 18.00 823.89 577.28 cl
93.33 73.43 818.41 566.81 cl
/bg { 1 1 1 srgb } def
93.33 73.43 725.08 493.39 r p2
0.9216 0.9216 0.9216 srgb
0.53 setlinewidth
[] 0 setdash
0 setlinecap
1 setlinejoin
10.00 setmiterlimit
np
93.33 85.17 m
725.08 0 l
o
np
93.33 191.97 m
725.08 0 l
o
np
93.33 298.76 m
725.08 0 l
o
np
93.33 405.56 m
725.08 0 l
o
np
93.33 512.35 m
725.08 0 l
o
1.07 setlinewidth
[] 0 setdash
np
93.33 138.57 m
725.08 0 l
o
np
93.33 245.36 m
725.08 0 l
o
np
93.33 352.16 m
725.08 0 l
o
np
93.33 458.95 m
725.08 0 l
o
np
93.33 565.75 m
725.08 0 l
o
np
126.29 73.43 m
0 493.38 l
o
np
181.22 73.43 m
0 493.38 l
o
np
236.15 73.43 m
0 493.38 l
o
np
291.08 73.43 m
0 493.38 l
o
np
346.01 73.43 m
0 493.38 l
o
np
400.94 73.43 m
0 493.38 l
o
np
455.87 73.43 m
0 493.38 l
o
np
510.80 73.43 m
0 493.38 l
o
np
565.73 73.43 m
0 493.38 l
o
np
620.66 73.43 m
0 493.38 l
o
np
675.59 73.43 m
0 493.38 l
o
np
730.52 73.43 m
0 493.38 l
o
np
785.45 73.43 m
0 493.38 l
o
/bg { 0.2000 0.2000 0.2000 srgb } def
0.2000 0.2000 0.2000 srgb
0.71 setlinewidth
[] 0 setdash
1 setlinecap
126.29 247.81 1.95 c p3
126.29 242.88 1.95 c p3
126.29 269.33 1.95 c p3
1.07 setlinewidth
[] 0 setdash
0 setlinecap
np
126.29 194.20 m
0 45.80 l
o
np
126.29 163.15 m
0 -27.50 l
o
/bg { 1 1 1 srgb } def
1 setlinecap
np
 105.69 194.20 m
0 -31.05 l
41.20 0 l
0 31.05 l
-41.20 0 l
cp p3
2.13 setlinewidth
[] 0 setdash
0 setlinecap
np
105.69 178.06 m
41.20 0 l
o
/bg { 0.2000 0.2000 0.2000 srgb } def
0.71 setlinewidth
[] 0 setdash
1 setlinecap
181.22 310.16 1.95 c p3
181.22 320.86 1.95 c p3
181.22 182.60 1.95 c p3
1.07 setlinewidth
[] 0 setdash
0 setlinecap
np
181.22 263.96 m
0 43.25 l
o
np
181.22 233.36 m
0 -39.62 l
o
/bg { 1 1 1 srgb } def
1 setlinecap
np
 160.62 263.96 m
0 -30.60 l
41.20 0 l
0 30.60 l
-41.20 0 l
cp p3
2.13 setlinewidth
[] 0 setdash
0 setlinecap
np
160.62 247.89 m
41.20 0 l
o
/bg { 0.2000 0.2000 0.2000 srgb } def
0.71 setlinewidth
[] 0 setdash
1 setlinecap
236.15 227.44 1.95 c p3
236.15 220.80 1.95 c p3
1.07 setlinewidth
[] 0 setdash
0 setlinecap
np
236.15 316.96 m
0 43.40 l
o
np
236.15 285.61 m
0 -46.53 l
o
/bg { 1 1 1 srgb } def
1 setlinecap
np
 215.55 316.96 m
0 -31.35 l
41.20 0 l
0 31.35 l
-41.20 0 l
cp p3
2.13 setlinewidth
[] 0 setdash
0 setlinecap
np
215.55 301.29 m
41.20 0 l
o
/bg { 0.2000 0.2000 0.2000 srgb } def
0.71 setlinewidth
[] 0 setdash
1 setlinecap
291.08 270.57 1.95 c p3
291.08 252.66 1.95 c p3
291.08 251.43 1.95 c p3
1.07 setlinewidth
[] 0 setdash
0 setlinecap
np
291.08 357.96 m
0 45.67 l
o
np
291.08 323.55 m
0 -47.79 l
o
/bg { 1 1 1 srgb } def
1 setlinecap
np
 270.48 357.96 m
0 -34.41 l
41.20 0 l
0 34.41 l
-41.20 0 l
cp p3
2.13 setlinewidth
[] 0 setdash
0 setlinecap
np
270.48 341.29 m
41.20 0 l
o
/bg { 0.2000 0.2000 0.2000 srgb } def
0.71 setlinewidth
[] 0 setdash
1 setlinecap
346.01 294.71 1.95 c p3
346.01 293.64 1.95 c p3
346.01 271.32 1.95 c p3
1.07 setlinewidth
[] 0 setdash
0 setlinecap
np
346.01 389.00 m
0 44.88 l
o
np
346.01 352.98 m
0 -52.96 l
o
/bg { 1 1 1 srgb } def
1 setlinecap
np
 325.41 389.00 m
0 -36.02 l
41.20 0 l
0 36.02 l
-41.20 0 l
cp p3
2.13 setlinewidth
[] 0 setdash
0 setlinecap
np
325.41 371.34 m
41.20 0 l
o
1.07 setlinewidth
[] 0 setdash
np
400.94 412.45 m
0 44.83 l
o
np
400.94 380.77 m
0 -43.84 l
o
1 setlinecap
np
 380.34 412.45 m
0 -31.68 l
41.20 0 l
0 31.68 l
-41.20 0 l
cp p3
2.13 setlinewidth
[] 0 setdash
0 setlinecap
np
380.34 395.68 m
41.20 0 l
o
/bg { 0.2000 0.2000 0.2000 srgb } def
0.71 setlinewidth
[] 0 setdash
1 setlinecap
455.87 483.59 1.95 c p3
455.87 347.26 1.95 c p3
1.07 setlinewidth
[] 0 setdash
0 setlinecap
np
455.87 432.49 m
0 43.16 l
o
np
455.87 401.23 m
0 -45.91 l
o
/bg { 1 1 1 srgb } def
1 setlinecap
np
 435.27 432.49 m
0 -31.26 l
41.20 0 l
0 31.26 l
-41.20 0 l
cp p3
2.13 setlinewidth
[] 0 setdash
0 setlinecap
np
435.27 415.27 m
41.20 0 l
o
/bg { 0.2000 0.2000 0.2000 srgb } def
0.71 setlinewidth
[] 0 setdash
1 setlinecap
510.80 503.65 1.95 c p3
1.07 setlinewidth
[] 0 setdash
0 setlinecap
np
510.80 450.63 m
0 40.62 l
o
np
510.80 420.94 m
0 -42.38 l
o
/bg { 1 1 1 srgb } def
1 setlinecap
np
 490.20 450.63 m
0 -29.69 l
41.20 0 l
0 29.69 l
-41.20 0 l
cp p3
2.13 setlinewidth
[] 0 setdash
0 setlinecap
np
490.20 438.31 m
41.20 0 l
o
/bg { 0.2000 0.2000 0.2000 srgb } def
0.71 setlinewidth
[] 0 setdash
1 setlinecap
565.73 519.56 1.95 c p3
1.07 setlinewidth
[] 0 setdash
0 setlinecap
np
565.73 472.72 m
0 30.70 l
o
np
565.73 442.10 m
0 -37.32 l
o
/bg { 1 1 1 srgb } def
1 setlinecap
np
 545.13 472.72 m
0 -30.62 l
41.20 0 l
0 30.62 l
-41.20 0 l
cp p3
2.13 setlinewidth
[] 0 setdash
0 setlinecap
np
545.13 454.66 m
41.20 0 l
o
/bg { 0.2000 0.2000 0.2000 srgb } def
0.71 setlinewidth
[] 0 setdash
1 setlinecap
620.66 531.96 1.95 c p3
1.07 setlinewidth
[] 0 setdash
0 setlinecap
np
620.66 486.34 m
0 32.04 l
o
np
620.66 462.06 m
0 -33.18 l
o
/bg { 1 1 1 srgb } def
1 setlinecap
np
 600.06 486.34 m
0 -24.28 l
41.20 0 l
0 24.28 l
-41.20 0 l
cp p3
2.13 setlinewidth
[] 0 setdash
0 setlinecap
np
600.06 475.91 m
41.20 0 l
o
/bg { 0.2000 0.2000 0.2000 srgb } def
0.71 setlinewidth
[] 0 setdash
1 setlinecap
675.59 541.49 1.95 c p3
1.07 setlinewidth
[] 0 setdash
0 setlinecap
np
675.59 498.70 m
0 31.85 l
o
np
675.59 473.07 m
0 -36.00 l
o
/bg { 1 1 1 srgb } def
1 setlinecap
np
 654.99 498.70 m
0 -25.63 l
41.20 0 l
0 25.63 l
-41.20 0 l
cp p3
2.13 setlinewidth
[] 0 setdash
0 setlinecap
np
654.99 479.98 m
41.20 0 l
o
1.07 setlinewidth
[] 0 setdash
np
730.52 527.80 m
0 12.78 l
o
np
730.52 499.83 m
0 -15.19 l
o
1 setlinecap
np
 709.92 527.80 m
0 -27.97 l
41.20 0 l
0 27.97 l
-41.20 0 l
cp p3
2.13 setlinewidth
[] 0 setdash
0 setlinecap
np
709.92 515.02 m
41.20 0 l
o
1.07 setlinewidth
[] 0 setdash
1 setlinecap
93.33 73.43 725.08 493.39 r p1
18.00 18.00 823.89 577.28 cl
18.00 18.00 823.89 577.28 cl
18.00 18.00 823.89 577.28 cl
18.00 18.00 823.89 577.28 cl
18.00 18.00 823.89 577.28 cl
18.00 18.00 823.89 577.28 cl
18.00 18.00 823.89 577.28 cl
18.00 18.00 823.89 577.28 cl
18.00 18.00 823.89 577.28 cl
18.00 18.00 823.89 577.28 cl
18.00 18.00 823.89 577.28 cl
18.00 18.00 823.89 577.28 cl
18.00 18.00 823.89 577.28 cl
18.00 18.00 823.89 577.28 cl
18.00 18.00 823.89 577.28 cl
18.00 18.00 823.89 577.28 cl
/Font1 findfont 22 s
0.3020 0.3020 0.3020 srgb
88.40 130.67 (25) 1 0 t
88.40 237.47 (50) 1 0 t
88.40 344.26 (75) 1 0 t
88.40 451.05 (100) 1 0 t
88.40 557.85 (125) 1 0 t
18.00 18.00 823.89 577.28 cl
18.00 18.00 823.89 577.28 cl
0.2000 0.2000 0.2000 srgb
1.07 setlinewidth
[] 0 setdash
0 setlinecap
1 setlinejoin
10.00 setmiterlimit
np
90.59 138.57 m
2.74 0 l
o
np
90.59 245.36 m
2.74 0 l
o
np
90.59 352.16 m
2.74 0 l
o
np
90.59 458.95 m
2.74 0 l
o
np
90.59 565.75 m
2.74 0 l
o
18.00 18.00 823.89 577.28 cl
18.00 18.00 823.89 577.28 cl
18.00 18.00 823.89 577.28 cl
18.00 18.00 823.89 577.28 cl
18.00 18.00 823.89 577.28 cl
18.00 18.00 823.89 577.28 cl
18.00 18.00 823.89 577.28 cl
18.00 18.00 823.89 577.28 cl
18.00 18.00 823.89 577.28 cl
18.00 18.00 823.89 577.28 cl
0.2000 0.2000 0.2000 srgb
1.07 setlinewidth
[] 0 setdash
0 setlinecap
1 setlinejoin
10.00 setmiterlimit
np
126.29 70.69 m
0 2.74 l
o
np
181.22 70.69 m
0 2.74 l
o
np
236.15 70.69 m
0 2.74 l
o
np
291.08 70.69 m
0 2.74 l
o
np
346.01 70.69 m
0 2.74 l
o
np
400.94 70.69 m
0 2.74 l
o
np
455.87 70.69 m
0 2.74 l
o
np
510.80 70.69 m
0 2.74 l
o
np
565.73 70.69 m
0 2.74 l
o
np
620.66 70.69 m
0 2.74 l
o
np
675.59 70.69 m
0 2.74 l
o
np
730.52 70.69 m
0 2.74 l
o
np
785.45 70.69 m
0 2.74 l
o
18.00 18.00 823.89 577.28 cl
18.00 18.00 823.89 577.28 cl
/Font1 findfont 22 s
0.3020 0.3020 0.3020 srgb
126.29 52.70 (1) .5 0 t
181.22 52.70 (2) .5 0 t
236.15 52.70 (3) .5 0 t
291.08 52.70 (4) .5 0 t
346.01 52.70 (5) .5 0 t
400.94 52.70 (6) .5 0 t
455.87 52.70 (7) .5 0 t
510.80 52.70 (8) .5 0 t
565.73 52.70 (9) .5 0 t
620.66 52.70 (10) .5 0 t
675.59 52.70 (11) .5 0 t
730.52 52.70 (12) .5 0 t
785.45 52.70 (13) .5 0 t
18.00 18.00 823.89 577.28 cl
18.00 18.00 823.89 577.28 cl
18.00 18.00 823.89 577.28 cl
18.00 18.00 823.89 577.28 cl
18.00 18.00 823.89 577.28 cl
18.00 18.00 823.89 577.28 cl
/Font1 findfont 28 s
0 0 0 srgb
455.87 27.12 (Age) .5 0 t
18.00 18.00 823.89 577.28 cl
18.00 18.00 823.89 577.28 cl
/Font1 findfont 28 s
0 0 0 srgb
43.58 320.12 (Length) .5 90 t
18.00 18.00 823.89 577.28 cl
18.00 18.00 823.89 577.28 cl
18.00 18.00 823.89 577.28 cl
18.00 18.00 823.89 577.28 cl
18.00 18.00 823.89 577.28 cl
18.00 18.00 823.89 577.28 cl
18.00 18.00 823.89 577.28 cl
18.00 18.00 823.89 577.28 cl
18.00 18.00 823.89 577.28 cl
18.00 18.00 823.89 577.28 cl
ep
%%Trailer
%%Pages: 1
%%EOF
