%!PS-Adobe-3.0
%%DocumentNeededResources: font Helvetica
%%+ font Helvetica-Bold
%%+ font Helvetica-Oblique
%%+ font Helvetica-BoldOblique
%%+ font Symbol
%%DocumentMedia: a4 595 841 0 () ()
%%Title: R Graphics Output
%%Creator: R Software
%%Pages: (atend)
%%Orientation: Landscape
%%BoundingBox: 18 18 577 824
%%EndComments
%%BeginProlog
/bp  { gs sRGB 595.00 0 translate 90 rotate gs } def
% begin .ps.prolog
/gs  { gsave } bind def
/gr  { grestore } bind def
/ep  { showpage gr gr } bind def
/m   { moveto } bind def
/l  { rlineto } bind def
/np  { newpath } bind def
/cp  { closepath } bind def
/f   { fill } bind def
/o   { stroke } bind def
/c   { newpath 0 360 arc } bind def
/r   { 4 2 roll moveto 1 copy 3 -1 roll exch 0 exch rlineto 0 rlineto -1 mul 0 exch rlineto closepath } bind def
/p1  { stroke } bind def
/p2  { gsave bg fill grestore newpath } bind def
/p3  { gsave bg fill grestore stroke } bind def
/p6  { gsave bg eofill grestore newpath } bind def
/p7  { gsave bg eofill grestore stroke } bind def
/t   { 5 -2 roll moveto gsave rotate
       1 index stringwidth pop
       mul neg 0 rmoveto show grestore } bind def
/ta  { 4 -2 roll moveto gsave rotate show } bind def
/tb  { 2 -1 roll 0 rmoveto show } bind def
/cl  { grestore gsave newpath 3 index 3 index moveto 1 index
       4 -1 roll lineto  exch 1 index lineto lineto
       closepath clip newpath } bind def
/rgb { setrgbcolor } bind def
/s   { scalefont setfont } bind def
% end   .ps.prolog
/sRGB { [ /CIEBasedABC
          << /DecodeLMN
               [ { dup 0.03928 le
                        {12.92321 div}
                        {0.055 add 1.055 div 2.4 exp }
                     ifelse
                 } bind dup dup
               ]
             /MatrixLMN [0.412457 0.212673 0.019334
                         0.357576 0.715152 0.119192
                         0.180437 0.072175 0.950301]
             /WhitePoint [0.9505 1.0 1.0890]
           >>
         ] setcolorspace } bind def
/srgb { setcolor } bind def
%%IncludeResource: font Helvetica
/Helvetica findfont
dup length dict begin
  {1 index /FID ne {def} {pop pop} ifelse} forall
  /Encoding ISOLatin1Encoding def
  currentdict
  end
/Font1 exch definefont pop
%%IncludeResource: font Helvetica-Bold
/Helvetica-Bold findfont
dup length dict begin
  {1 index /FID ne {def} {pop pop} ifelse} forall
  /Encoding ISOLatin1Encoding def
  currentdict
  end
/Font2 exch definefont pop
%%IncludeResource: font Helvetica-Oblique
/Helvetica-Oblique findfont
dup length dict begin
  {1 index /FID ne {def} {pop pop} ifelse} forall
  /Encoding ISOLatin1Encoding def
  currentdict
  end
/Font3 exch definefont pop
%%IncludeResource: font Helvetica-BoldOblique
/Helvetica-BoldOblique findfont
dup length dict begin
  {1 index /FID ne {def} {pop pop} ifelse} forall
  /Encoding ISOLatin1Encoding def
  currentdict
  end
/Font4 exch definefont pop
%%IncludeResource: font Symbol
/Symbol findfont
dup length dict begin
  {1 index /FID ne {def} {pop pop} ifelse} forall
  currentdict
  end
/Font5 exch definefont pop
%%EndProlog
%%Page: 1 1
bp
18.00 18.00 823.89 577.28 cl
18.00 18.00 823.89 577.28 cl
18.00 18.00 823.89 577.28 cl
18.00 18.00 823.89 577.28 cl
18.00 18.00 823.89 577.28 cl
18.00 18.00 823.89 577.28 cl
18.00 18.00 823.89 577.28 cl
18.00 18.00 823.89 577.28 cl
18.00 18.00 823.89 577.28 cl
18.00 18.00 823.89 577.28 cl
/bg { 1 1 1 srgb } def
1 1 1 srgb
1.07 setlinewidth
[] 0 setdash
1 setlinecap
1 setlinejoin
10.00 setmiterlimit
18.00 18.00 805.89 559.28 r p3
18.00 18.00 823.89 577.28 cl
93.33 73.43 818.41 566.81 cl
/bg { 1 1 1 srgb } def
93.33 73.43 725.08 493.39 r p2
0.9216 0.9216 0.9216 srgb
0.53 setlinewidth
[] 0 setdash
0 setlinecap
1 setlinejoin
10.00 setmiterlimit
np
93.33 85.17 m
725.08 0 l
o
np
93.33 191.97 m
725.08 0 l
o
np
93.33 298.76 m
725.08 0 l
o
np
93.33 405.56 m
725.08 0 l
o
np
93.33 512.35 m
725.08 0 l
o
1.07 setlinewidth
[] 0 setdash
np
93.33 138.57 m
725.08 0 l
o
np
93.33 245.36 m
725.08 0 l
o
np
93.33 352.16 m
725.08 0 l
o
np
93.33 458.95 m
725.08 0 l
o
np
93.33 565.75 m
725.08 0 l
o
np
128.99 73.43 m
0 493.38 l
o
np
188.42 73.43 m
0 493.38 l
o
np
247.86 73.43 m
0 493.38 l
o
np
307.29 73.43 m
0 493.38 l
o
np
366.72 73.43 m
0 493.38 l
o
np
426.15 73.43 m
0 493.38 l
o
np
485.59 73.43 m
0 493.38 l
o
np
545.02 73.43 m
0 493.38 l
o
np
604.45 73.43 m
0 493.38 l
o
np
663.89 73.43 m
0 493.38 l
o
np
723.32 73.43 m
0 493.38 l
o
np
782.75 73.43 m
0 493.38 l
o
/bg { 0.2000 0.2000 0.2000 srgb } def
0.2000 0.2000 0.2000 srgb
0.71 setlinewidth
[] 0 setdash
1 setlinecap
128.99 240.73 1.95 c p3
128.99 238.40 1.95 c p3
128.99 106.49 1.95 c p3
1.07 setlinewidth
[] 0 setdash
0 setlinecap
np
128.99 193.05 m
0 38.50 l
o
np
128.99 162.84 m
0 -35.55 l
o
/bg { 1 1 1 srgb } def
1 setlinecap
np
 106.70 193.05 m
0 -30.21 l
44.58 0 l
0 30.21 l
-44.58 0 l
cp p3
2.13 setlinewidth
[] 0 setdash
0 setlinecap
np
106.70 177.08 m
44.58 0 l
o
/bg { 0.2000 0.2000 0.2000 srgb } def
0.71 setlinewidth
[] 0 setdash
1 setlinecap
188.42 185.27 1.95 c p3
188.42 319.16 1.95 c p3
188.42 154.11 1.95 c p3
1.07 setlinewidth
[] 0 setdash
0 setlinecap
np
188.42 259.79 m
0 34.04 l
o
np
188.42 233.18 m
0 -37.35 l
o
/bg { 1 1 1 srgb } def
1 setlinecap
np
 166.14 259.79 m
0 -26.61 l
44.57 0 l
0 26.61 l
-44.57 0 l
cp p3
2.13 setlinewidth
[] 0 setdash
0 setlinecap
np
166.14 245.42 m
44.57 0 l
o
/bg { 0.2000 0.2000 0.2000 srgb } def
0.71 setlinewidth
[] 0 setdash
1 setlinecap
247.86 219.44 1.95 c p3
247.86 373.37 1.95 c p3
247.86 237.78 1.95 c p3
247.86 190.61 1.95 c p3
1.07 setlinewidth
[] 0 setdash
0 setlinecap
np
247.86 308.18 m
0 36.90 l
o
np
247.86 280.22 m
0 -38.95 l
o
/bg { 1 1 1 srgb } def
1 setlinecap
np
 225.57 308.18 m
0 -27.96 l
44.57 0 l
0 27.96 l
-44.57 0 l
cp p3
2.13 setlinewidth
[] 0 setdash
0 setlinecap
np
225.57 294.97 m
44.57 0 l
o
/bg { 0.2000 0.2000 0.2000 srgb } def
0.71 setlinewidth
[] 0 setdash
1 setlinecap
307.29 243.97 1.95 c p3
307.29 398.28 1.95 c p3
307.29 219.12 1.95 c p3
1.07 setlinewidth
[] 0 setdash
0 setlinecap
np
307.29 343.26 m
0 35.71 l
o
np
307.29 312.55 m
0 -44.10 l
o
/bg { 1 1 1 srgb } def
1 setlinecap
np
 285.00 343.26 m
0 -30.71 l
44.58 0 l
0 30.71 l
-44.58 0 l
cp p3
2.13 setlinewidth
[] 0 setdash
0 setlinecap
np
285.00 329.16 m
44.58 0 l
o
/bg { 0.2000 0.2000 0.2000 srgb } def
0.71 setlinewidth
[] 0 setdash
1 setlinecap
366.72 287.49 1.95 c p3
366.72 240.90 1.95 c p3
1.07 setlinewidth
[] 0 setdash
0 setlinecap
np
366.72 367.13 m
0 42.88 l
o
np
366.72 336.51 m
0 -42.00 l
o
/bg { 1 1 1 srgb } def
1 setlinecap
np
 344.43 367.13 m
0 -30.62 l
44.58 0 l
0 30.62 l
-44.58 0 l
cp p3
2.13 setlinewidth
[] 0 setdash
0 setlinecap
np
344.43 354.74 m
44.58 0 l
o
1.07 setlinewidth
[] 0 setdash
np
426.15 386.14 m
0 38.08 l
o
np
426.15 355.04 m
0 -46.01 l
o
1 setlinecap
np
 403.87 386.14 m
0 -31.10 l
44.57 0 l
0 31.10 l
-44.57 0 l
cp p3
2.13 setlinewidth
[] 0 setdash
0 setlinecap
np
403.87 372.49 m
44.57 0 l
o
1.07 setlinewidth
[] 0 setdash
np
485.59 406.97 m
0 36.46 l
o
np
485.59 377.15 m
0 -29.93 l
o
1 setlinecap
np
 463.30 406.97 m
0 -29.82 l
44.57 0 l
0 29.82 l
-44.57 0 l
cp p3
2.13 setlinewidth
[] 0 setdash
0 setlinecap
np
463.30 393.93 m
44.57 0 l
o
1.07 setlinewidth
[] 0 setdash
np
545.02 431.66 m
0 27.42 l
o
np
545.02 405.38 m
0 -36.17 l
o
1 setlinecap
np
 522.73 431.66 m
0 -26.28 l
44.58 0 l
0 26.28 l
-44.58 0 l
cp p3
2.13 setlinewidth
[] 0 setdash
0 setlinecap
np
522.73 414.76 m
44.58 0 l
o
/bg { 0.2000 0.2000 0.2000 srgb } def
0.71 setlinewidth
[] 0 setdash
1 setlinecap
604.45 383.97 1.95 c p3
1.07 setlinewidth
[] 0 setdash
0 setlinecap
np
604.45 445.84 m
0 25.87 l
o
np
604.45 423.00 m
0 -13.00 l
o
/bg { 1 1 1 srgb } def
1 setlinecap
np
 582.17 445.84 m
0 -22.84 l
44.57 0 l
0 22.84 l
-44.57 0 l
cp p3
2.13 setlinewidth
[] 0 setdash
0 setlinecap
np
582.17 432.03 m
44.57 0 l
o
/bg { 0.2000 0.2000 0.2000 srgb } def
0.71 setlinewidth
[] 0 setdash
1 setlinecap
663.89 481.70 1.95 c p3
1.07 setlinewidth
[] 0 setdash
0 setlinecap
np
663.89 462.45 m
0 10.82 l
o
np
663.89 451.96 m
0 -15.70 l
o
/bg { 1 1 1 srgb } def
1 setlinecap
np
 641.60 462.45 m
0 -10.49 l
44.57 0 l
0 10.49 l
-44.57 0 l
cp p3
2.13 setlinewidth
[] 0 setdash
0 setlinecap
np
641.60 457.71 m
44.57 0 l
o
1.07 setlinewidth
[] 0 setdash
np
723.32 479.05 m
0 10.91 l
o
np
723.32 465.15 m
0 -20.66 l
o
1 setlinecap
np
 701.03 479.05 m
0 -13.90 l
44.58 0 l
0 13.90 l
-44.58 0 l
cp p3
2.13 setlinewidth
[] 0 setdash
0 setlinecap
np
701.03 467.79 m
44.58 0 l
o
1.07 setlinewidth
[] 0 setdash
np
782.75 469.75 m
0 0 l
o
np
782.75 469.75 m
0 0 l
o
1 setlinecap
np
 760.46 469.75 m
0 0 l
44.58 0 l
0 0 l
-44.58 0 l
cp p3
2.13 setlinewidth
[] 0 setdash
0 setlinecap
np
760.46 469.75 m
44.58 0 l
o
1.07 setlinewidth
[] 0 setdash
1 setlinecap
93.33 73.43 725.08 493.39 r p1
18.00 18.00 823.89 577.28 cl
18.00 18.00 823.89 577.28 cl
18.00 18.00 823.89 577.28 cl
18.00 18.00 823.89 577.28 cl
18.00 18.00 823.89 577.28 cl
18.00 18.00 823.89 577.28 cl
18.00 18.00 823.89 577.28 cl
18.00 18.00 823.89 577.28 cl
18.00 18.00 823.89 577.28 cl
18.00 18.00 823.89 577.28 cl
18.00 18.00 823.89 577.28 cl
18.00 18.00 823.89 577.28 cl
18.00 18.00 823.89 577.28 cl
18.00 18.00 823.89 577.28 cl
18.00 18.00 823.89 577.28 cl
18.00 18.00 823.89 577.28 cl
/Font1 findfont 22 s
0.3020 0.3020 0.3020 srgb
88.40 130.67 (25) 1 0 t
88.40 237.47 (50) 1 0 t
88.40 344.26 (75) 1 0 t
88.40 451.05 (100) 1 0 t
88.40 557.85 (125) 1 0 t
18.00 18.00 823.89 577.28 cl
18.00 18.00 823.89 577.28 cl
0.2000 0.2000 0.2000 srgb
1.07 setlinewidth
[] 0 setdash
0 setlinecap
1 setlinejoin
10.00 setmiterlimit
np
90.59 138.57 m
2.74 0 l
o
np
90.59 245.36 m
2.74 0 l
o
np
90.59 352.16 m
2.74 0 l
o
np
90.59 458.95 m
2.74 0 l
o
np
90.59 565.75 m
2.74 0 l
o
18.00 18.00 823.89 577.28 cl
18.00 18.00 823.89 577.28 cl
18.00 18.00 823.89 577.28 cl
18.00 18.00 823.89 577.28 cl
18.00 18.00 823.89 577.28 cl
18.00 18.00 823.89 577.28 cl
18.00 18.00 823.89 577.28 cl
18.00 18.00 823.89 577.28 cl
18.00 18.00 823.89 577.28 cl
18.00 18.00 823.89 577.28 cl
0.2000 0.2000 0.2000 srgb
1.07 setlinewidth
[] 0 setdash
0 setlinecap
1 setlinejoin
10.00 setmiterlimit
np
128.99 70.69 m
0 2.74 l
o
np
188.42 70.69 m
0 2.74 l
o
np
247.86 70.69 m
0 2.74 l
o
np
307.29 70.69 m
0 2.74 l
o
np
366.72 70.69 m
0 2.74 l
o
np
426.15 70.69 m
0 2.74 l
o
np
485.59 70.69 m
0 2.74 l
o
np
545.02 70.69 m
0 2.74 l
o
np
604.45 70.69 m
0 2.74 l
o
np
663.89 70.69 m
0 2.74 l
o
np
723.32 70.69 m
0 2.74 l
o
np
782.75 70.69 m
0 2.74 l
o
18.00 18.00 823.89 577.28 cl
18.00 18.00 823.89 577.28 cl
/Font1 findfont 22 s
0.3020 0.3020 0.3020 srgb
128.99 52.70 (1) .5 0 t
188.42 52.70 (2) .5 0 t
247.86 52.70 (3) .5 0 t
307.29 52.70 (4) .5 0 t
366.72 52.70 (5) .5 0 t
426.15 52.70 (6) .5 0 t
485.59 52.70 (7) .5 0 t
545.02 52.70 (8) .5 0 t
604.45 52.70 (9) .5 0 t
663.89 52.70 (10) .5 0 t
723.32 52.70 (11) .5 0 t
782.75 52.70 (12) .5 0 t
18.00 18.00 823.89 577.28 cl
18.00 18.00 823.89 577.28 cl
18.00 18.00 823.89 577.28 cl
18.00 18.00 823.89 577.28 cl
18.00 18.00 823.89 577.28 cl
18.00 18.00 823.89 577.28 cl
/Font1 findfont 28 s
0 0 0 srgb
455.87 27.12 (Age) .5 0 t
18.00 18.00 823.89 577.28 cl
18.00 18.00 823.89 577.28 cl
/Font1 findfont 28 s
0 0 0 srgb
43.58 320.12 (Length) .5 90 t
18.00 18.00 823.89 577.28 cl
18.00 18.00 823.89 577.28 cl
18.00 18.00 823.89 577.28 cl
18.00 18.00 823.89 577.28 cl
18.00 18.00 823.89 577.28 cl
18.00 18.00 823.89 577.28 cl
18.00 18.00 823.89 577.28 cl
18.00 18.00 823.89 577.28 cl
18.00 18.00 823.89 577.28 cl
18.00 18.00 823.89 577.28 cl
ep
%%Trailer
%%Pages: 1
%%EOF
