%!PS-Adobe-3.0
%%DocumentNeededResources: font Helvetica
%%+ font Helvetica-Bold
%%+ font Helvetica-Oblique
%%+ font Helvetica-BoldOblique
%%+ font Symbol
%%DocumentMedia: a4 595 841 0 () ()
%%Title: R Graphics Output
%%Creator: R Software
%%Pages: (atend)
%%Orientation: Landscape
%%BoundingBox: 18 18 577 824
%%EndComments
%%BeginProlog
/bp  { gs sRGB 595.00 0 translate 90 rotate gs } def
% begin .ps.prolog
/gs  { gsave } bind def
/gr  { grestore } bind def
/ep  { showpage gr gr } bind def
/m   { moveto } bind def
/l  { rlineto } bind def
/np  { newpath } bind def
/cp  { closepath } bind def
/f   { fill } bind def
/o   { stroke } bind def
/c   { newpath 0 360 arc } bind def
/r   { 4 2 roll moveto 1 copy 3 -1 roll exch 0 exch rlineto 0 rlineto -1 mul 0 exch rlineto closepath } bind def
/p1  { stroke } bind def
/p2  { gsave bg fill grestore newpath } bind def
/p3  { gsave bg fill grestore stroke } bind def
/p6  { gsave bg eofill grestore newpath } bind def
/p7  { gsave bg eofill grestore stroke } bind def
/t   { 5 -2 roll moveto gsave rotate
       1 index stringwidth pop
       mul neg 0 rmoveto show grestore } bind def
/ta  { 4 -2 roll moveto gsave rotate show } bind def
/tb  { 2 -1 roll 0 rmoveto show } bind def
/cl  { grestore gsave newpath 3 index 3 index moveto 1 index
       4 -1 roll lineto  exch 1 index lineto lineto
       closepath clip newpath } bind def
/rgb { setrgbcolor } bind def
/s   { scalefont setfont } bind def
% end   .ps.prolog
/sRGB { [ /CIEBasedABC
          << /DecodeLMN
               [ { dup 0.03928 le
                        {12.92321 div}
                        {0.055 add 1.055 div 2.4 exp }
                     ifelse
                 } bind dup dup
               ]
             /MatrixLMN [0.412457 0.212673 0.019334
                         0.357576 0.715152 0.119192
                         0.180437 0.072175 0.950301]
             /WhitePoint [0.9505 1.0 1.0890]
           >>
         ] setcolorspace } bind def
/srgb { setcolor } bind def
%%IncludeResource: font Helvetica
/Helvetica findfont
dup length dict begin
  {1 index /FID ne {def} {pop pop} ifelse} forall
  /Encoding ISOLatin1Encoding def
  currentdict
  end
/Font1 exch definefont pop
%%IncludeResource: font Helvetica-Bold
/Helvetica-Bold findfont
dup length dict begin
  {1 index /FID ne {def} {pop pop} ifelse} forall
  /Encoding ISOLatin1Encoding def
  currentdict
  end
/Font2 exch definefont pop
%%IncludeResource: font Helvetica-Oblique
/Helvetica-Oblique findfont
dup length dict begin
  {1 index /FID ne {def} {pop pop} ifelse} forall
  /Encoding ISOLatin1Encoding def
  currentdict
  end
/Font3 exch definefont pop
%%IncludeResource: font Helvetica-BoldOblique
/Helvetica-BoldOblique findfont
dup length dict begin
  {1 index /FID ne {def} {pop pop} ifelse} forall
  /Encoding ISOLatin1Encoding def
  currentdict
  end
/Font4 exch definefont pop
%%IncludeResource: font Symbol
/Symbol findfont
dup length dict begin
  {1 index /FID ne {def} {pop pop} ifelse} forall
  currentdict
  end
/Font5 exch definefont pop
%%EndProlog
%%Page: 1 1
bp
18.00 18.00 823.89 577.28 cl
18.00 18.00 823.89 577.28 cl
18.00 18.00 823.89 577.28 cl
18.00 18.00 823.89 577.28 cl
18.00 18.00 823.89 577.28 cl
18.00 18.00 823.89 577.28 cl
18.00 18.00 823.89 577.28 cl
18.00 18.00 823.89 577.28 cl
18.00 18.00 823.89 577.28 cl
18.00 18.00 823.89 577.28 cl
/bg { 1 1 1 srgb } def
1 1 1 srgb
1.07 setlinewidth
[] 0 setdash
1 setlinecap
1 setlinejoin
10.00 setmiterlimit
18.00 18.00 805.89 559.28 r p3
18.00 18.00 823.89 577.28 cl
93.33 73.43 818.41 566.81 cl
/bg { 1 1 1 srgb } def
93.33 73.43 725.08 493.39 r p2
0.9216 0.9216 0.9216 srgb
0.53 setlinewidth
[] 0 setdash
0 setlinecap
1 setlinejoin
10.00 setmiterlimit
np
93.33 85.17 m
725.08 0 l
o
np
93.33 191.97 m
725.08 0 l
o
np
93.33 298.76 m
725.08 0 l
o
np
93.33 405.56 m
725.08 0 l
o
np
93.33 512.35 m
725.08 0 l
o
np
173.37 73.43 m
0 493.38 l
o
np
361.70 73.43 m
0 493.38 l
o
np
550.04 73.43 m
0 493.38 l
o
np
738.37 73.43 m
0 493.38 l
o
1.07 setlinewidth
[] 0 setdash
np
93.33 138.57 m
725.08 0 l
o
np
93.33 245.36 m
725.08 0 l
o
np
93.33 352.16 m
725.08 0 l
o
np
93.33 458.95 m
725.08 0 l
o
np
93.33 565.75 m
725.08 0 l
o
np
267.54 73.43 m
0 493.38 l
o
np
455.87 73.43 m
0 493.38 l
o
np
644.20 73.43 m
0 493.38 l
o
0.7451 0.7451 0.7451 srgb
1.00 setmiterlimit
np
126.29 180.69 m
47.08 67.49 l
47.08 54.00 l
47.09 27.00 l
47.08 26.99 l
47.08 20.25 l
47.09 20.25 l
o
np
126.29 176.54 m
47.08 70.62 l
47.08 51.35 l
47.09 44.94 l
47.08 32.10 l
47.08 25.68 l
47.09 19.25 l
o
np
126.29 136.68 m
47.08 94.32 l
47.08 72.12 l
47.09 22.19 l
47.08 22.19 l
47.08 22.19 l
47.09 11.10 l
o
np
126.29 173.06 m
47.08 59.54 l
47.08 65.48 l
47.09 59.53 l
47.08 41.67 l
47.08 17.86 l
o
np
126.29 226.47 m
47.08 67.13 l
47.08 40.27 l
47.09 33.56 l
47.08 26.85 l
47.08 26.85 l
47.09 20.13 l
47.08 20.14 l
47.08 13.42 l
47.09 6.71 l
47.08 13.43 l
o
np
126.29 184.81 m
47.08 33.86 l
47.08 33.87 l
o
np
126.29 174.23 m
47.08 44.11 l
47.08 27.57 l
o
np
126.29 150.95 m
47.08 50.34 l
47.08 40.27 l
47.09 15.10 l
o
np
126.29 178.51 m
47.08 87.71 l
47.08 32.90 l
47.09 16.44 l
o
np
126.29 194.83 m
47.08 74.79 l
47.08 40.27 l
47.09 23.01 l
47.08 28.77 l
47.08 17.26 l
47.09 17.26 l
o
np
126.29 198.85 m
47.08 64.40 l
47.08 52.68 l
47.09 35.12 l
47.08 29.27 l
47.08 23.42 l
47.09 29.27 l
47.08 17.56 l
47.08 11.71 l
47.09 11.70 l
47.08 11.71 l
o
np
126.29 151.97 m
47.08 60.58 l
47.08 38.56 l
47.09 22.03 l
47.08 38.56 l
47.08 22.03 l
47.09 22.03 l
o
np
126.29 125.61 m
47.08 93.43 l
47.08 46.72 l
47.09 41.52 l
47.08 15.57 l
47.08 15.57 l
o
np
126.29 143.20 m
47.08 103.64 l
47.08 51.82 l
47.09 34.55 l
47.08 11.52 l
47.08 11.51 l
47.09 11.52 l
o
np
126.29 164.42 m
47.08 77.67 l
47.08 33.29 l
47.09 38.83 l
47.08 16.65 l
47.08 16.64 l
47.09 22.19 l
o
np
126.29 191.10 m
47.08 55.07 l
47.08 48.96 l
47.09 36.71 l
47.08 24.48 l
47.08 18.35 l
47.09 12.24 l
o
np
126.29 174.24 m
47.08 59.87 l
47.08 35.92 l
47.09 23.94 l
47.08 23.95 l
47.08 17.96 l
47.09 17.96 l
47.08 17.96 l
o
np
126.29 177.65 m
47.08 74.82 l
47.08 40.29 l
47.09 34.54 l
47.08 23.02 l
47.08 23.02 l
47.09 11.51 l
o
np
126.29 205.86 m
47.08 84.73 l
47.08 32.59 l
47.09 32.59 l
47.08 19.55 l
47.08 13.04 l
o
np
126.29 183.76 m
47.08 56.33 l
47.08 50.08 l
47.09 43.81 l
47.08 18.77 l
47.08 12.52 l
o
np
126.29 172.33 m
47.08 63.89 l
47.08 47.91 l
47.09 37.27 l
47.08 31.94 l
47.08 21.29 l
47.09 10.65 l
o
np
126.29 165.25 m
47.08 70.46 l
47.08 37.95 l
47.09 48.78 l
47.08 32.52 l
47.08 16.26 l
o
np
126.29 157.32 m
47.08 77.04 l
47.08 51.37 l
47.09 44.94 l
47.08 25.68 l
47.08 19.27 l
47.09 12.84 l
o
np
126.29 156.47 m
47.08 92.98 l
47.08 34.86 l
47.09 29.06 l
o
np
126.29 216.51 m
47.08 58.56 l
47.08 40.99 l
47.09 23.43 l
47.08 17.56 l
47.08 11.72 l
47.09 11.71 l
o
np
126.29 161.27 m
47.08 76.45 l
47.08 54.60 l
47.09 32.76 l
47.08 21.84 l
47.08 16.38 l
47.09 16.38 l
o
np
126.29 163.18 m
47.08 66.16 l
47.08 48.12 l
47.09 36.08 l
47.08 18.05 l
o
np
126.29 161.35 m
47.08 79.89 l
47.08 43.02 l
47.09 49.16 l
47.08 30.73 l
47.08 18.44 l
o
np
126.29 228.00 m
47.08 65.83 l
47.08 46.08 l
47.09 19.74 l
47.08 19.75 l
47.08 13.17 l
o
np
126.29 141.05 m
47.08 88.18 l
47.08 52.90 l
47.09 47.03 l
47.08 29.39 l
47.08 17.63 l
o
np
126.29 203.37 m
47.08 70.96 l
47.08 70.95 l
47.09 32.25 l
47.08 19.35 l
o
np
126.29 217.16 m
94.16 105.68 l
47.09 35.23 l
47.08 23.48 l
47.08 29.36 l
47.09 17.61 l
47.08 11.75 l
o
np
126.29 161.53 m
47.08 71.58 l
47.08 53.68 l
47.09 47.71 l
47.08 29.83 l
47.08 23.86 l
47.09 17.89 l
47.08 17.89 l
47.08 11.93 l
o
np
173.37 234.98 m
47.08 59.46 l
47.09 32.43 l
47.08 27.03 l
47.08 21.62 l
o
np
126.29 138.06 m
47.08 92.10 l
47.08 48.76 l
47.09 32.50 l
o
np
126.29 213.96 m
47.08 57.97 l
47.08 46.37 l
47.09 28.98 l
47.08 17.39 l
47.08 11.59 l
o
np
126.29 159.06 m
47.08 80.03 l
47.08 51.45 l
47.09 34.30 l
47.08 22.86 l
47.08 17.15 l
47.09 17.15 l
o
np
126.29 138.19 m
47.08 98.31 l
47.08 52.05 l
47.09 34.69 l
47.08 17.35 l
o
np
126.29 156.05 m
47.08 80.24 l
47.08 49.38 l
47.09 43.21 l
47.08 24.69 l
47.08 18.52 l
47.09 12.34 l
o
np
126.29 185.44 m
94.16 147.15 l
47.09 46.83 l
47.08 26.75 l
47.08 26.76 l
47.09 20.06 l
47.08 20.07 l
o
np
220.45 354.75 m
47.09 32.51 l
47.08 32.50 l
47.08 19.50 l
47.09 13.01 l
o
np
126.29 172.51 m
47.08 59.37 l
47.08 65.31 l
47.09 53.44 l
47.08 35.62 l
o
np
126.29 151.45 m
94.16 126.17 l
47.09 35.33 l
47.08 30.29 l
47.08 15.14 l
o
np
126.29 148.76 m
47.08 55.77 l
47.08 44.62 l
47.09 50.20 l
47.08 33.47 l
47.08 16.73 l
o
np
126.29 196.03 m
94.16 101.56 l
47.09 45.14 l
47.08 28.21 l
47.08 11.28 l
47.09 11.29 l
o
np
126.29 245.86 m
47.08 70.29 l
47.08 25.56 l
47.09 38.34 l
47.08 25.56 l
o
np
126.29 158.42 m
47.08 85.47 l
47.08 51.28 l
47.09 34.18 l
47.08 22.79 l
47.08 22.79 l
47.09 17.09 l
o
np
126.29 165.97 m
47.08 82.87 l
47.08 47.36 l
47.09 47.35 l
47.08 29.60 l
47.08 17.76 l
47.09 17.76 l
o
np
126.29 196.80 m
94.16 113.08 l
47.09 41.66 l
47.08 23.80 l
47.08 11.91 l
o
np
126.29 157.66 m
47.08 82.70 l
47.08 49.62 l
47.09 44.11 l
47.08 27.56 l
47.08 27.57 l
47.09 27.56 l
o
np
173.37 299.03 m
47.08 46.81 l
47.09 40.12 l
47.08 26.74 l
47.08 20.06 l
o
np
126.29 208.94 m
47.08 67.84 l
47.08 94.98 l
47.09 33.92 l
o
np
126.29 216.91 m
47.08 63.05 l
47.08 56.75 l
47.09 37.83 l
47.08 25.22 l
47.08 18.92 l
47.09 12.61 l
o
np
126.29 194.15 m
47.08 72.45 l
47.08 48.30 l
47.09 30.19 l
47.08 18.12 l
o
np
126.29 202.61 m
47.08 71.37 l
47.08 47.58 l
47.09 41.64 l
47.08 47.58 l
47.08 29.74 l
47.09 17.84 l
47.08 17.84 l
47.08 17.85 l
o
np
126.29 185.02 m
47.08 55.07 l
94.17 93.64 l
47.08 16.52 l
47.08 16.52 l
o
np
220.45 308.84 m
47.09 40.15 l
47.08 28.68 l
o
np
126.29 199.83 m
47.08 76.42 l
47.08 47.03 l
47.09 23.51 l
47.08 17.64 l
o
np
173.37 256.79 m
47.08 41.72 l
47.09 29.81 l
o
np
126.29 157.74 m
47.08 76.20 l
47.08 35.56 l
47.09 50.79 l
47.08 30.48 l
47.08 20.32 l
47.09 10.16 l
o
np
126.29 185.39 m
47.08 75.66 l
47.08 50.44 l
47.09 31.53 l
47.08 31.52 l
47.08 25.22 l
47.09 18.92 l
o
np
126.29 218.64 m
47.08 72.56 l
47.08 50.79 l
47.09 36.27 l
o
np
173.37 246.51 m
47.08 52.83 l
47.09 46.97 l
47.08 23.48 l
47.08 17.62 l
o
np
126.29 171.60 m
47.08 68.96 l
47.08 68.97 l
47.09 28.73 l
47.08 28.74 l
47.08 34.48 l
47.09 22.99 l
47.08 11.49 l
47.08 11.50 l
o
np
126.29 164.07 m
47.08 84.59 l
47.08 78.54 l
47.09 30.20 l
47.08 30.21 l
47.08 30.21 l
47.09 12.08 l
47.08 18.13 l
47.08 18.12 l
47.09 18.13 l
47.08 12.08 l
47.08 12.08 l
o
np
126.29 178.27 m
47.08 79.32 l
47.08 48.82 l
47.09 36.61 l
47.08 36.61 l
47.08 24.41 l
47.09 24.41 l
47.08 18.30 l
47.08 18.31 l
47.09 18.30 l
47.08 12.21 l
o
np
126.29 159.66 m
47.08 76.80 l
47.08 64.98 l
47.09 59.08 l
47.08 29.54 l
47.08 23.63 l
47.09 35.45 l
47.08 11.81 l
47.08 11.82 l
o
np
126.29 132.80 m
47.08 84.05 l
47.08 49.44 l
47.09 24.72 l
o
np
126.29 167.51 m
47.08 106.74 l
47.08 48.04 l
47.09 21.35 l
47.08 21.34 l
47.08 10.68 l
47.09 5.34 l
o
np
126.29 182.17 m
47.08 82.28 l
47.08 52.90 l
47.09 41.14 l
47.08 17.63 l
47.08 23.51 l
47.09 17.64 l
47.08 17.63 l
47.08 17.63 l
47.09 11.76 l
o
np
126.29 189.85 m
47.08 59.25 l
47.08 59.24 l
47.09 35.55 l
47.08 11.85 l
47.08 11.85 l
o
np
126.29 185.52 m
47.08 64.95 l
47.08 45.46 l
47.09 32.47 l
47.08 12.99 l
o
np
126.29 186.48 m
47.08 76.04 l
47.08 44.36 l
47.09 38.02 l
47.08 31.68 l
47.08 19.01 l
47.09 25.34 l
47.08 12.68 l
47.08 12.67 l
47.09 6.34 l
o
np
126.29 193.09 m
47.08 61.72 l
47.08 67.90 l
47.09 37.03 l
47.08 12.35 l
47.08 12.34 l
o
np
126.29 158.44 m
47.08 76.32 l
47.08 35.23 l
47.09 46.97 l
47.08 35.22 l
47.08 23.48 l
47.09 11.75 l
o
np
126.29 139.87 m
47.08 76.64 l
47.08 49.27 l
47.09 49.26 l
47.08 16.42 l
o
np
126.29 177.65 m
47.08 68.90 l
47.08 43.84 l
47.09 37.58 l
47.08 25.06 l
47.08 18.78 l
o
np
126.29 165.15 m
47.08 70.43 l
47.08 32.50 l
47.09 27.09 l
47.08 16.25 l
o
np
126.29 135.66 m
47.08 52.61 l
47.08 39.45 l
o
np
126.29 141.81 m
47.08 67.72 l
47.08 62.51 l
47.09 15.63 l
47.08 15.62 l
o
np
126.29 188.99 m
47.08 69.01 l
47.08 51.76 l
47.09 23.00 l
47.08 23.01 l
47.08 28.75 l
47.09 11.50 l
47.08 17.26 l
o
np
126.29 177.85 m
47.08 69.13 l
47.08 40.32 l
47.09 28.81 l
47.08 28.80 l
o
np
126.29 158.06 m
141.25 187.49 l
47.08 41.01 l
47.08 35.16 l
47.09 23.44 l
47.08 11.71 l
47.08 11.72 l
47.09 5.86 l
o
np
126.29 160.24 m
47.08 68.70 l
47.08 26.42 l
47.09 26.42 l
o
np
126.29 191.92 m
47.08 56.81 l
47.08 56.80 l
47.09 34.09 l
47.08 28.40 l
47.08 22.72 l
47.09 22.72 l
47.08 17.04 l
o
np
126.29 155.36 m
47.08 72.90 l
47.08 44.86 l
47.09 28.04 l
o
np
126.29 180.47 m
47.08 61.65 l
47.08 49.31 l
47.09 18.50 l
o
np
126.29 169.20 m
47.08 113.61 l
47.08 34.08 l
47.09 28.41 l
47.08 22.72 l
47.08 22.72 l
47.09 17.04 l
47.08 11.36 l
47.08 11.36 l
o
np
126.29 174.02 m
47.08 83.73 l
47.08 55.82 l
47.09 34.89 l
47.08 34.88 l
47.08 20.93 l
47.09 13.96 l
47.08 13.95 l
47.08 6.98 l
o
np
126.29 173.95 m
47.08 84.83 l
47.08 50.90 l
47.09 16.97 l
47.08 11.31 l
o
np
126.29 222.51 m
47.08 69.67 l
47.08 48.78 l
o
np
126.29 213.98 m
47.08 70.31 l
47.08 63.92 l
47.09 25.56 l
47.08 25.57 l
47.08 25.57 l
47.09 19.17 l
47.08 12.78 l
47.08 6.40 l
o
np
126.29 117.90 m
47.08 71.49 l
47.08 51.06 l
47.09 40.86 l
o
np
126.29 148.96 m
47.08 83.21 l
47.08 65.38 l
47.09 29.71 l
47.08 29.72 l
47.08 29.72 l
47.09 23.78 l
47.08 17.83 l
o
np
126.29 145.25 m
47.08 56.75 l
47.08 67.06 l
47.09 25.79 l
o
np
126.29 151.59 m
47.08 58.40 l
47.08 58.40 l
47.09 35.05 l
47.08 35.04 l
47.08 17.52 l
o
np
126.29 175.04 m
47.08 71.95 l
47.08 38.75 l
47.09 22.14 l
47.08 16.60 l
47.08 16.61 l
o
np
126.29 161.58 m
47.08 69.17 l
47.08 37.25 l
47.09 31.92 l
47.08 15.97 l
o
np
126.29 147.18 m
47.08 70.64 l
47.08 70.63 l
47.09 35.32 l
47.08 23.55 l
47.08 11.77 l
o
np
126.29 174.14 m
47.08 55.11 l
47.08 38.58 l
47.09 16.53 l
o
np
126.29 175.47 m
47.08 59.44 l
47.08 43.24 l
47.09 16.21 l
o
np
126.29 194.81 m
47.08 42.81 l
47.08 53.51 l
47.09 26.76 l
47.08 21.41 l
47.08 10.70 l
o
np
126.29 192.70 m
47.08 72.00 l
47.08 42.00 l
47.09 24.00 l
47.08 12.00 l
47.08 12.00 l
o
np
126.29 164.51 m
47.08 87.41 l
47.08 74.93 l
47.09 24.97 l
47.08 31.22 l
47.08 12.49 l
47.09 12.49 l
o
np
126.29 184.70 m
47.08 55.00 l
47.08 55.00 l
47.09 27.50 l
47.08 16.50 l
47.08 11.00 l
o
np
126.29 198.58 m
47.08 56.89 l
47.08 56.89 l
47.09 18.96 l
47.08 12.64 l
47.08 12.64 l
o
np
126.29 148.49 m
47.08 63.17 l
47.08 40.21 l
47.09 28.71 l
47.08 34.46 l
o
np
126.29 190.63 m
47.08 91.44 l
47.08 26.90 l
47.09 26.89 l
47.08 21.52 l
47.08 10.76 l
o
np
126.29 172.89 m
47.08 57.83 l
47.08 52.04 l
47.09 23.14 l
47.08 23.13 l
47.08 11.56 l
o
np
126.29 180.05 m
47.08 53.84 l
47.08 26.92 l
47.09 26.92 l
47.08 21.54 l
47.08 16.15 l
o
np
126.29 153.35 m
47.08 64.84 l
47.08 41.27 l
47.09 35.37 l
47.08 23.58 l
47.08 17.69 l
o
np
126.29 142.80 m
47.08 70.16 l
47.08 86.35 l
47.09 16.20 l
47.08 16.19 l
o
np
126.29 132.72 m
47.08 74.12 l
47.08 44.48 l
47.09 24.71 l
47.08 29.64 l
47.08 29.65 l
47.09 19.77 l
o
np
126.29 211.19 m
47.08 60.12 l
47.08 30.06 l
47.09 30.06 l
47.08 12.03 l
47.08 12.02 l
47.09 12.03 l
o
np
126.29 172.27 m
47.08 90.82 l
47.08 38.92 l
47.09 32.43 l
47.08 19.46 l
47.08 12.97 l
47.09 6.49 l
47.08 6.49 l
o
np
126.29 140.12 m
47.08 79.23 l
47.08 73.56 l
o
np
126.29 178.67 m
47.08 100.30 l
47.08 53.50 l
47.09 26.74 l
47.08 40.12 l
47.08 20.06 l
47.09 13.37 l
o
np
126.29 173.41 m
47.08 64.21 l
47.08 48.16 l
47.09 32.11 l
47.08 21.41 l
47.08 10.70 l
o
np
126.29 201.32 m
47.08 59.15 l
47.08 29.57 l
47.09 29.58 l
47.08 23.66 l
47.08 17.75 l
47.09 11.83 l
o
np
126.29 211.30 m
47.08 64.59 l
47.08 29.35 l
47.09 29.36 l
47.08 29.36 l
47.08 23.48 l
47.09 17.62 l
47.08 29.35 l
47.08 17.62 l
47.09 11.74 l
47.08 17.61 l
o
np
126.29 148.49 m
47.08 80.40 l
47.08 51.69 l
47.09 22.98 l
47.08 11.48 l
o
np
126.29 183.67 m
47.08 48.65 l
47.08 36.50 l
47.09 24.33 l
47.08 18.24 l
47.08 18.25 l
o
np
126.29 155.99 m
47.08 57.97 l
47.08 52.17 l
47.09 28.98 l
47.08 34.78 l
47.08 17.39 l
47.09 23.19 l
o
np
126.29 159.01 m
47.08 94.21 l
47.08 41.21 l
o
np
126.29 143.05 m
47.08 67.48 l
47.08 28.92 l
o
np
126.29 194.64 m
47.08 89.42 l
47.08 25.55 l
47.09 19.16 l
47.08 19.16 l
47.08 6.39 l
o
np
126.29 179.59 m
47.08 73.38 l
47.08 47.17 l
47.09 20.97 l
47.08 15.72 l
47.08 15.72 l
47.09 10.49 l
o
np
126.29 197.70 m
47.08 65.71 l
47.08 47.80 l
47.09 17.92 l
47.08 11.95 l
47.08 11.95 l
47.09 5.97 l
o
np
126.29 193.09 m
47.08 67.89 l
47.08 49.38 l
47.09 30.86 l
47.08 18.52 l
47.08 12.35 l
47.09 12.34 l
o
np
126.29 194.92 m
47.08 57.55 l
47.08 40.29 l
47.09 23.02 l
47.08 17.27 l
47.08 17.27 l
47.09 23.02 l
47.08 11.51 l
o
np
126.29 172.20 m
47.08 57.63 l
47.08 57.64 l
47.09 28.82 l
47.08 17.29 l
o
np
126.29 156.72 m
47.08 74.33 l
47.08 43.36 l
47.09 43.36 l
47.08 24.78 l
47.08 24.77 l
o
np
126.29 173.84 m
47.08 59.75 l
47.08 47.81 l
47.09 53.77 l
47.08 41.83 l
47.08 29.88 l
47.09 23.90 l
47.08 17.93 l
o
np
126.29 161.50 m
47.08 89.45 l
47.08 47.71 l
47.09 41.74 l
47.08 35.78 l
47.08 17.89 l
47.09 11.93 l
o
np
126.29 135.49 m
47.08 64.04 l
47.08 58.71 l
47.09 58.71 l
47.08 21.35 l
47.08 21.35 l
47.09 16.01 l
o
np
126.29 165.83 m
47.08 60.95 l
47.08 54.85 l
47.09 42.67 l
47.08 36.56 l
47.08 24.38 l
47.09 24.38 l
47.08 18.29 l
47.08 18.28 l
47.09 18.29 l
47.08 18.28 l
o
np
126.29 165.59 m
47.08 80.35 l
47.08 73.66 l
47.09 40.18 l
47.08 26.78 l
47.08 26.79 l
47.09 26.78 l
47.08 26.79 l
o
np
126.29 226.27 m
47.08 60.83 l
47.08 54.74 l
47.09 30.42 l
47.08 36.49 l
47.08 24.34 l
47.09 18.24 l
47.08 18.25 l
47.08 18.25 l
47.09 12.17 l
47.08 12.16 l
47.08 12.17 l
47.09 12.16 l
o
np
126.29 177.42 m
47.08 81.33 l
47.08 50.05 l
47.09 31.28 l
47.08 31.28 l
47.08 18.77 l
47.09 18.77 l
47.08 18.77 l
47.08 18.77 l
o
np
126.29 171.38 m
47.08 110.23 l
47.08 34.45 l
47.09 13.78 l
o
np
126.29 190.17 m
47.08 55.00 l
47.08 65.99 l
47.09 38.49 l
47.08 22.00 l
47.08 16.50 l
o
np
126.29 192.75 m
47.08 95.02 l
47.08 44.34 l
47.09 38.01 l
47.08 31.67 l
47.08 19.01 l
47.09 12.67 l
47.08 6.33 l
o
np
173.37 249.15 m
47.08 33.47 l
47.09 33.46 l
47.08 27.89 l
o
np
126.29 166.29 m
47.08 69.29 l
47.08 62.99 l
47.09 44.10 l
47.08 25.20 l
47.08 25.20 l
47.09 12.59 l
o
np
126.29 180.61 m
47.08 83.96 l
47.08 35.99 l
47.09 41.98 l
47.08 23.99 l
47.08 29.99 l
47.09 17.99 l
o
np
126.29 205.41 m
47.08 67.90 l
47.08 37.03 l
47.09 49.37 l
47.08 30.86 l
47.08 24.69 l
47.09 24.69 l
47.08 18.52 l
47.08 18.51 l
47.09 12.35 l
o
np
126.29 168.23 m
47.08 65.84 l
47.08 53.88 l
47.09 35.91 l
47.08 29.93 l
47.08 29.93 l
47.09 23.94 l
47.08 11.98 l
47.08 11.97 l
o
np
126.29 172.44 m
47.08 65.60 l
47.08 54.67 l
47.09 32.80 l
47.08 21.87 l
47.08 16.40 l
o
np
126.29 137.91 m
47.08 86.60 l
47.08 43.30 l
47.09 48.72 l
47.08 27.06 l
47.08 32.47 l
47.09 27.07 l
47.08 16.24 l
o
np
126.29 177.49 m
47.08 51.90 l
47.08 51.90 l
47.09 46.71 l
47.08 36.34 l
47.08 25.95 l
47.09 15.57 l
o
np
126.29 132.34 m
47.08 96.52 l
47.08 60.96 l
47.09 40.63 l
47.08 25.40 l
47.08 20.32 l
o
np
126.29 185.85 m
47.08 64.73 l
47.08 37.76 l
47.09 37.75 l
47.08 21.58 l
47.08 16.18 l
o
np
126.29 230.13 m
47.08 53.09 l
47.08 53.08 l
47.09 35.39 l
47.08 17.70 l
47.08 17.69 l
47.09 5.90 l
47.08 5.90 l
o
np
126.29 160.17 m
47.08 77.00 l
47.08 53.31 l
47.09 53.31 l
47.08 35.54 l
47.08 35.54 l
47.09 17.77 l
47.08 11.85 l
o
np
126.29 168.73 m
47.08 75.79 l
47.08 40.80 l
47.09 29.15 l
47.08 17.49 l
o
np
126.29 148.10 m
47.08 80.90 l
47.08 64.73 l
47.09 32.36 l
47.08 26.97 l
47.08 10.79 l
o
np
126.29 150.58 m
47.08 53.11 l
47.08 42.48 l
47.09 37.18 l
47.08 37.18 l
47.08 42.48 l
47.09 26.56 l
o
np
126.29 163.12 m
47.08 68.20 l
47.08 43.41 l
47.09 62.00 l
47.08 24.80 l
47.08 18.60 l
o
np
126.29 163.90 m
47.08 59.22 l
47.08 43.07 l
47.09 37.69 l
47.08 21.54 l
o
np
126.29 133.97 m
47.08 81.91 l
47.08 54.60 l
47.09 49.14 l
47.08 27.30 l
47.08 21.84 l
47.09 16.38 l
o
np
126.29 185.03 m
47.08 67.79 l
47.08 62.14 l
47.09 45.20 l
47.08 33.89 l
47.08 33.90 l
47.09 16.95 l
47.08 11.30 l
o
np
126.29 210.72 m
47.08 61.51 l
47.08 36.90 l
47.09 30.75 l
47.08 30.75 l
47.08 24.60 l
47.09 30.76 l
47.08 24.60 l
47.08 24.60 l
47.09 12.30 l
o
np
126.29 176.10 m
47.08 78.52 l
47.08 60.41 l
47.09 36.24 l
47.08 36.24 l
47.08 24.16 l
47.09 18.12 l
o
np
126.29 161.72 m
47.08 65.67 l
47.08 45.47 l
47.09 45.46 l
47.08 30.31 l
47.08 25.26 l
47.09 20.21 l
o
np
126.29 194.74 m
47.08 72.94 l
47.08 39.27 l
47.09 28.06 l
47.08 33.66 l
47.08 22.44 l
47.09 16.84 l
47.08 11.22 l
o
np
126.29 187.87 m
47.08 85.32 l
47.08 65.64 l
47.09 45.94 l
47.08 26.26 l
47.08 13.12 l
47.09 13.13 l
o
np
126.29 232.01 m
47.08 57.28 l
47.08 70.01 l
47.09 25.46 l
47.08 25.46 l
47.08 25.45 l
47.09 12.73 l
47.08 12.73 l
o
np
126.29 185.85 m
47.08 73.71 l
47.08 47.39 l
47.09 36.86 l
47.08 26.33 l
47.08 31.59 l
47.09 21.06 l
o
np
126.29 165.16 m
47.08 80.19 l
47.08 66.82 l
47.09 53.45 l
47.08 33.41 l
47.08 26.73 l
47.09 26.73 l
47.08 13.36 l
47.08 20.05 l
47.09 6.68 l
47.08 6.68 l
o
np
126.29 153.32 m
47.08 79.09 l
47.08 48.68 l
47.09 42.59 l
47.08 36.50 l
47.08 18.26 l
o
np
126.29 222.97 m
47.08 54.06 l
47.08 42.04 l
47.09 36.04 l
47.08 36.04 l
47.08 30.03 l
47.09 18.02 l
47.08 12.01 l
o
np
126.29 190.05 m
47.08 81.94 l
47.08 68.29 l
47.09 40.97 l
47.08 27.31 l
47.08 13.66 l
o
np
126.29 204.70 m
47.08 80.00 l
47.08 51.43 l
47.09 39.99 l
47.08 28.58 l
47.08 17.14 l
47.09 11.43 l
47.08 11.43 l
o
np
126.29 205.69 m
47.08 67.97 l
47.08 30.89 l
47.09 43.26 l
47.08 18.54 l
47.08 18.53 l
47.09 12.36 l
o
np
126.29 212.12 m
47.08 55.67 l
47.08 30.92 l
47.09 30.93 l
47.08 30.93 l
47.08 24.74 l
47.09 18.55 l
o
np
126.29 173.68 m
47.08 71.49 l
47.08 38.49 l
47.09 38.50 l
47.08 38.49 l
47.08 22.00 l
47.09 11.00 l
o
np
126.29 192.84 m
47.08 58.49 l
47.08 64.35 l
47.09 29.24 l
47.08 23.40 l
47.08 17.55 l
o
np
126.29 182.81 m
47.08 62.31 l
47.08 49.85 l
47.09 31.16 l
47.08 43.62 l
47.08 18.70 l
47.09 18.69 l
47.08 18.70 l
47.08 18.69 l
o
np
126.29 186.04 m
47.08 86.07 l
47.08 43.04 l
47.09 55.33 l
47.08 36.89 l
47.08 12.30 l
47.09 12.29 l
47.08 12.30 l
o
np
126.29 195.09 m
47.08 52.66 l
47.08 59.24 l
47.09 46.08 l
47.08 19.75 l
47.08 13.16 l
o
np
126.29 152.58 m
47.08 88.07 l
47.08 82.19 l
47.09 29.36 l
47.08 29.35 l
47.08 17.62 l
47.09 17.61 l
47.08 11.74 l
47.08 11.75 l
o
np
126.29 166.82 m
47.08 85.75 l
47.08 61.24 l
47.09 42.88 l
47.08 30.62 l
47.08 24.50 l
47.09 24.50 l
47.08 12.25 l
o
np
126.29 190.19 m
47.08 79.22 l
47.08 54.85 l
47.09 36.56 l
47.08 30.47 l
47.08 24.38 l
47.09 18.28 l
o
np
126.29 158.71 m
47.08 72.06 l
47.08 72.06 l
47.09 27.72 l
47.08 38.80 l
47.08 27.71 l
47.09 11.09 l
47.08 11.09 l
o
np
126.29 182.55 m
47.08 68.79 l
47.08 51.59 l
47.09 40.13 l
47.08 40.13 l
47.08 22.93 l
47.09 17.20 l
o
np
126.29 205.52 m
47.08 60.20 l
47.08 30.11 l
47.09 36.12 l
47.08 36.12 l
47.08 24.08 l
47.09 18.06 l
o
np
126.29 196.88 m
47.08 70.94 l
47.08 51.59 l
47.09 38.70 l
47.08 25.80 l
47.08 12.89 l
47.09 19.35 l
o
np
126.29 194.86 m
47.08 63.93 l
47.08 63.93 l
47.09 38.36 l
47.08 51.14 l
47.08 38.36 l
47.09 19.18 l
47.08 12.79 l
47.08 12.79 l
47.09 12.78 l
47.08 12.79 l
o
np
126.29 160.69 m
47.08 63.41 l
47.08 57.65 l
47.09 51.88 l
47.08 34.58 l
47.08 28.83 l
47.09 23.05 l
47.08 17.30 l
47.08 5.76 l
o
np
126.29 198.64 m
47.08 80.03 l
47.08 30.78 l
47.09 55.40 l
47.08 18.47 l
47.08 36.94 l
47.09 24.62 l
47.08 24.63 l
47.08 18.47 l
47.09 12.31 l
47.08 6.16 l
o
np
126.29 189.00 m
47.08 61.68 l
47.08 50.47 l
47.09 44.86 l
47.08 28.04 l
47.08 16.82 l
o
np
267.54 340.47 m
47.08 29.82 l
47.08 29.82 l
47.09 23.86 l
o
np
126.29 172.95 m
47.08 107.27 l
47.08 69.42 l
47.09 37.86 l
47.08 25.24 l
47.08 18.93 l
47.09 18.93 l
o
np
126.29 153.31 m
47.08 80.83 l
47.08 53.88 l
47.09 53.89 l
47.08 26.94 l
47.08 16.17 l
47.09 16.17 l
o
np
173.37 220.03 m
47.08 40.85 l
47.09 25.53 l
o
np
126.29 163.97 m
47.08 88.56 l
47.08 44.28 l
47.09 27.67 l
47.08 16.61 l
o
np
126.29 186.61 m
47.08 61.03 l
47.08 49.93 l
47.09 33.29 l
47.08 22.19 l
47.08 16.64 l
o
np
126.29 164.11 m
141.25 199.40 l
47.08 34.19 l
47.08 22.79 l
47.09 17.09 l
47.08 17.09 l
47.08 11.40 l
47.09 11.39 l
o
np
126.29 154.34 m
47.08 97.88 l
47.08 55.06 l
47.09 55.06 l
47.08 30.59 l
47.08 18.35 l
47.09 18.35 l
o
np
220.45 357.57 m
47.09 39.95 l
47.08 33.29 l
47.08 26.64 l
o
np
126.29 157.39 m
47.08 55.05 l
47.08 49.55 l
47.09 49.55 l
47.08 38.54 l
47.08 38.54 l
47.09 27.52 l
47.08 22.03 l
o
np
126.29 173.68 m
47.08 63.33 l
47.08 56.99 l
47.09 50.66 l
47.08 38.00 l
47.08 25.33 l
o
np
173.37 246.49 m
94.17 95.93 l
47.08 35.97 l
47.08 23.98 l
47.09 23.98 l
47.08 17.99 l
47.08 11.99 l
47.09 11.99 l
o
np
126.29 209.29 m
47.08 65.62 l
141.25 107.38 l
47.08 23.86 l
47.09 17.89 l
47.08 17.90 l
47.08 17.90 l
o
np
220.45 293.49 m
47.09 46.97 l
47.08 35.22 l
47.08 29.36 l
47.09 17.61 l
o
np
126.29 214.63 m
47.08 62.49 l
47.08 31.24 l
47.09 31.24 l
47.08 31.24 l
47.08 18.74 l
47.09 18.75 l
47.08 12.50 l
o
np
126.29 178.80 m
47.08 61.97 l
o
np
126.29 170.43 m
47.08 64.65 l
47.08 64.66 l
47.09 47.02 l
47.08 29.39 l
47.08 29.39 l
47.09 17.63 l
o
np
126.29 182.96 m
47.08 84.88 l
47.08 42.44 l
47.09 48.50 l
47.08 24.25 l
47.08 18.19 l
47.09 18.19 l
47.08 12.12 l
o
np
126.29 178.66 m
47.08 64.69 l
47.08 44.78 l
47.09 14.93 l
47.08 9.95 l
o
np
126.29 173.64 m
47.08 61.46 l
47.08 55.31 l
47.09 49.16 l
47.08 24.58 l
47.08 18.44 l
o
np
126.29 181.66 m
47.08 54.24 l
47.08 42.19 l
47.09 36.15 l
47.08 24.11 l
o
np
126.29 147.33 m
47.08 69.83 l
47.08 37.59 l
47.09 26.86 l
o
np
126.29 132.11 m
47.08 81.01 l
47.08 37.80 l
47.09 37.81 l
47.08 21.60 l
o
np
126.29 137.32 m
47.08 81.23 l
47.08 66.00 l
47.09 35.54 l
47.08 20.30 l
47.08 15.24 l
o
np
126.29 155.36 m
47.08 100.93 l
47.08 33.65 l
47.09 28.03 l
47.08 28.04 l
47.08 16.82 l
47.09 22.43 l
o
np
126.29 194.61 m
47.08 84.11 l
47.08 39.25 l
47.09 22.43 l
47.08 22.43 l
47.08 16.82 l
47.09 11.22 l
o
np
126.29 193.48 m
47.08 65.36 l
47.08 52.30 l
47.09 32.68 l
47.08 32.68 l
47.08 19.61 l
47.09 13.07 l
47.08 13.08 l
47.08 13.07 l
o
np
126.29 164.12 m
47.08 56.98 l
47.08 51.27 l
47.09 39.89 l
47.08 28.49 l
47.08 22.79 l
47.09 17.09 l
o
np
126.29 171.03 m
47.08 97.44 l
47.08 57.31 l
47.09 28.66 l
47.08 22.92 l
47.08 17.20 l
47.09 11.46 l
47.08 11.46 l
47.08 11.46 l
o
np
126.29 225.41 m
47.08 74.49 l
47.08 49.66 l
47.09 18.62 l
47.08 18.62 l
47.08 12.42 l
47.09 18.62 l
47.08 12.41 l
47.08 12.42 l
47.09 18.62 l
o
np
126.29 155.08 m
47.08 71.39 l
47.08 41.64 l
47.09 47.59 l
47.08 23.80 l
47.08 11.90 l
o
np
126.29 165.15 m
47.08 54.17 l
47.08 43.34 l
47.09 27.09 l
47.08 21.67 l
o
np
126.29 196.88 m
47.08 126.03 l
47.08 53.07 l
47.09 19.90 l
47.08 13.27 l
47.08 6.63 l
o
np
126.29 187.84 m
47.08 51.49 l
47.08 34.33 l
47.09 22.89 l
o
np
126.29 160.31 m
47.08 69.04 l
47.08 74.79 l
47.09 34.51 l
47.08 28.77 l
47.08 11.51 l
47.09 11.50 l
o
np
126.29 187.32 m
47.08 92.75 l
47.08 43.29 l
47.09 30.92 l
47.08 24.73 l
47.08 18.55 l
47.09 18.55 l
47.08 12.37 l
47.08 6.19 l
47.09 12.36 l
47.08 12.37 l
o
np
126.29 205.33 m
47.08 60.16 l
47.08 42.11 l
47.09 24.06 l
47.08 24.07 l
47.08 30.07 l
47.09 24.07 l
47.08 24.06 l
47.08 12.03 l
47.09 12.03 l
47.08 12.03 l
o
np
126.29 156.47 m
47.08 82.92 l
47.08 46.65 l
47.09 41.46 l
47.08 15.55 l
47.08 15.55 l
47.09 20.73 l
o
np
126.29 138.34 m
47.08 75.97 l
47.08 65.11 l
47.09 37.99 l
47.08 37.98 l
47.08 21.71 l
47.09 21.70 l
47.08 10.85 l
o
np
126.29 190.92 m
47.08 62.21 l
47.08 33.93 l
47.09 28.28 l
47.08 16.96 l
47.08 5.66 l
o
np
126.29 188.71 m
47.08 56.00 l
47.08 39.20 l
47.09 44.81 l
47.08 16.80 l
47.08 16.80 l
o
np
126.29 179.41 m
47.08 73.61 l
47.08 67.47 l
47.09 24.54 l
47.08 24.54 l
47.08 24.54 l
47.09 12.27 l
47.08 12.26 l
o
np
126.29 175.33 m
47.08 95.13 l
47.08 67.94 l
47.09 27.18 l
47.08 20.38 l
47.08 27.18 l
47.09 20.38 l
47.08 13.59 l
47.08 6.80 l
o
np
126.29 196.66 m
47.08 70.88 l
47.08 57.99 l
47.09 45.10 l
47.08 25.78 l
47.08 12.88 l
47.09 19.33 l
47.08 12.89 l
47.08 12.89 l
47.09 12.88 l
47.08 12.89 l
o
np
126.29 171.08 m
47.08 36.12 l
47.08 108.34 l
47.09 25.80 l
47.08 25.80 l
47.08 20.64 l
47.09 10.31 l
47.08 15.48 l
47.08 5.16 l
o
np
126.29 179.88 m
47.08 60.69 l
47.08 38.62 l
47.09 33.10 l
47.08 16.55 l
47.08 11.04 l
47.09 11.03 l
o
np
126.29 140.07 m
47.08 80.17 l
47.08 40.09 l
47.09 45.09 l
47.08 20.05 l
47.08 20.04 l
47.09 20.04 l
47.08 15.03 l
o
np
126.29 182.50 m
47.08 64.75 l
47.08 47.09 l
47.09 29.43 l
47.08 23.55 l
47.08 11.77 l
o
np
126.29 176.17 m
47.08 81.34 l
47.08 59.64 l
47.09 43.38 l
47.08 21.69 l
47.08 16.27 l
47.09 21.69 l
47.08 10.84 l
o
np
126.29 173.93 m
47.08 59.01 l
47.08 37.55 l
47.09 42.92 l
47.08 26.83 l
47.08 16.09 l
47.09 10.73 l
o
np
126.29 197.85 m
47.08 58.29 l
47.08 34.98 l
47.09 23.31 l
47.08 29.14 l
47.08 34.98 l
47.09 17.48 l
o
np
126.29 158.63 m
47.08 99.58 l
47.08 31.45 l
47.09 31.45 l
47.08 15.72 l
47.08 26.21 l
o
np
126.29 117.85 m
47.08 62.21 l
47.08 47.86 l
47.09 23.93 l
o
np
126.29 185.66 m
47.08 63.96 l
47.08 46.52 l
47.09 34.89 l
47.08 29.07 l
47.08 23.26 l
47.09 17.45 l
47.08 17.44 l
47.08 11.63 l
47.09 17.44 l
o
np
126.29 149.70 m
47.08 52.86 l
47.08 84.57 l
47.09 37.00 l
47.08 26.43 l
47.08 15.86 l
47.09 15.86 l
47.08 10.57 l
o
np
126.29 180.39 m
47.08 84.96 l
47.08 39.22 l
47.09 52.29 l
47.08 32.67 l
47.08 32.68 l
47.09 19.61 l
47.08 19.61 l
47.08 13.07 l
47.09 13.07 l
o
np
126.29 208.39 m
47.08 54.84 l
47.08 36.55 l
47.09 30.46 l
47.08 12.19 l
47.08 12.18 l
o
np
126.29 162.55 m
47.08 101.93 l
47.08 71.94 l
47.09 47.96 l
47.08 17.99 l
47.08 11.99 l
o
1 0 0 srgb
1.49 setlinewidth
[] 0 setdash
np
126.29 181.22 m
47.08 60.50 l
47.08 49.61 l
47.09 40.67 l
47.08 33.35 l
47.08 27.34 l
47.09 22.43 l
47.08 18.38 l
47.08 15.07 l
47.09 12.36 l
47.08 10.13 l
47.08 8.31 l
47.09 6.81 l
47.08 5.59 l
47.08 4.58 l
o
0 0.8039 0 srgb
np
126.29 181.36 m
47.08 67.94 l
47.08 49.55 l
47.09 36.14 l
47.08 26.36 l
47.08 19.22 l
47.09 14.03 l
47.08 10.22 l
47.08 7.46 l
47.09 5.44 l
47.08 3.97 l
47.08 2.89 l
47.09 2.11 l
47.08 1.54 l
47.08 1.12 l
o
0 0 1 srgb
np
126.29 180.26 m
47.08 61.23 l
47.08 49.91 l
47.09 40.68 l
47.08 33.16 l
47.08 27.02 l
47.09 22.02 l
47.08 17.95 l
47.08 14.63 l
47.09 11.92 l
47.08 9.71 l
47.08 7.92 l
47.09 6.46 l
47.08 5.26 l
47.08 4.29 l
o
0 1 1 srgb
np
126.29 182.21 m
47.08 69.55 l
47.08 50.86 l
47.09 37.19 l
47.08 27.20 l
47.08 19.89 l
47.09 14.54 l
47.08 10.63 l
47.08 7.78 l
47.09 5.68 l
47.08 4.16 l
47.08 3.04 l
47.09 2.22 l
47.08 1.63 l
47.08 1.19 l
o
1 0 1 srgb
np
126.29 179.91 m
47.08 63.31 l
47.08 50.46 l
47.09 40.23 l
47.08 32.06 l
47.08 25.56 l
47.09 20.37 l
47.08 16.24 l
47.08 12.95 l
47.09 10.32 l
47.08 8.22 l
47.08 6.56 l
47.09 5.23 l
47.08 4.16 l
47.08 3.32 l
o
0 0 0 srgb
np
126.29 178.34 m
47.08 68.92 l
47.08 50.75 l
47.09 37.37 l
47.08 27.51 l
47.08 20.26 l
47.09 14.92 l
47.08 10.98 l
47.08 8.09 l
47.09 5.95 l
47.08 4.39 l
47.08 3.23 l
47.09 2.37 l
47.08 1.75 l
47.08 1.29 l
o
0.2000 0.2000 0.2000 srgb
1.07 setlinewidth
[] 0 setdash
1 setlinecap
10.00 setmiterlimit
93.33 73.43 725.08 493.39 r p1
18.00 18.00 823.89 577.28 cl
18.00 18.00 823.89 577.28 cl
18.00 18.00 823.89 577.28 cl
18.00 18.00 823.89 577.28 cl
18.00 18.00 823.89 577.28 cl
18.00 18.00 823.89 577.28 cl
18.00 18.00 823.89 577.28 cl
18.00 18.00 823.89 577.28 cl
18.00 18.00 823.89 577.28 cl
18.00 18.00 823.89 577.28 cl
18.00 18.00 823.89 577.28 cl
18.00 18.00 823.89 577.28 cl
18.00 18.00 823.89 577.28 cl
18.00 18.00 823.89 577.28 cl
18.00 18.00 823.89 577.28 cl
18.00 18.00 823.89 577.28 cl
/Font1 findfont 22 s
0.3020 0.3020 0.3020 srgb
88.40 130.67 (25) 1 0 t
88.40 237.47 (50) 1 0 t
88.40 344.26 (75) 1 0 t
88.40 451.05 (100) 1 0 t
88.40 557.85 (125) 1 0 t
18.00 18.00 823.89 577.28 cl
18.00 18.00 823.89 577.28 cl
0.2000 0.2000 0.2000 srgb
1.07 setlinewidth
[] 0 setdash
0 setlinecap
1 setlinejoin
10.00 setmiterlimit
np
90.59 138.57 m
2.74 0 l
o
np
90.59 245.36 m
2.74 0 l
o
np
90.59 352.16 m
2.74 0 l
o
np
90.59 458.95 m
2.74 0 l
o
np
90.59 565.75 m
2.74 0 l
o
18.00 18.00 823.89 577.28 cl
18.00 18.00 823.89 577.28 cl
18.00 18.00 823.89 577.28 cl
18.00 18.00 823.89 577.28 cl
18.00 18.00 823.89 577.28 cl
18.00 18.00 823.89 577.28 cl
18.00 18.00 823.89 577.28 cl
18.00 18.00 823.89 577.28 cl
18.00 18.00 823.89 577.28 cl
18.00 18.00 823.89 577.28 cl
0.2000 0.2000 0.2000 srgb
1.07 setlinewidth
[] 0 setdash
0 setlinecap
1 setlinejoin
10.00 setmiterlimit
np
267.54 70.69 m
0 2.74 l
o
np
455.87 70.69 m
0 2.74 l
o
np
644.20 70.69 m
0 2.74 l
o
18.00 18.00 823.89 577.28 cl
18.00 18.00 823.89 577.28 cl
/Font1 findfont 22 s
0.3020 0.3020 0.3020 srgb
267.54 52.70 (4) .5 0 t
455.87 52.70 (8) .5 0 t
644.20 52.70 (12) .5 0 t
18.00 18.00 823.89 577.28 cl
18.00 18.00 823.89 577.28 cl
18.00 18.00 823.89 577.28 cl
18.00 18.00 823.89 577.28 cl
18.00 18.00 823.89 577.28 cl
18.00 18.00 823.89 577.28 cl
/Font1 findfont 28 s
0 0 0 srgb
455.87 27.12 (Age) .5 0 t
18.00 18.00 823.89 577.28 cl
18.00 18.00 823.89 577.28 cl
/Font1 findfont 28 s
0 0 0 srgb
43.58 320.12 (Length) .5 90 t
18.00 18.00 823.89 577.28 cl
18.00 18.00 823.89 577.28 cl
18.00 18.00 823.89 577.28 cl
18.00 18.00 823.89 577.28 cl
18.00 18.00 823.89 577.28 cl
18.00 18.00 823.89 577.28 cl
18.00 18.00 823.89 577.28 cl
18.00 18.00 823.89 577.28 cl
/bg { 1 1 1 srgb } def
608.93 211.11 128.94 119.34 r p2
18.00 18.00 823.89 577.28 cl
18.00 18.00 823.89 577.28 cl
18.00 18.00 823.89 577.28 cl
18.00 18.00 823.89 577.28 cl
/bg { 1 1 1 srgb } def
614.59 303.18 43.20 17.28 r p2
18.00 18.00 823.89 577.28 cl
18.00 18.00 823.89 577.28 cl
1 0 0 srgb
1.49 setlinewidth
[] 0 setdash
0 setlinecap
1 setlinejoin
10.00 setmiterlimit
np
618.91 311.82 m
34.56 0 l
o
18.00 18.00 823.89 577.28 cl
18.00 18.00 823.89 577.28 cl
1 0 0 srgb
1.49 setlinewidth
[] 0 setdash
0 setlinecap
1 setlinejoin
10.00 setmiterlimit
np
618.91 311.82 m
34.56 0 l
o
18.00 18.00 823.89 577.28 cl
18.00 18.00 823.89 577.28 cl
1 0 0 srgb
1.49 setlinewidth
[] 0 setdash
0 setlinecap
1 setlinejoin
10.00 setmiterlimit
np
618.91 311.82 m
34.56 0 l
o
18.00 18.00 823.89 577.28 cl
18.00 18.00 823.89 577.28 cl
1 0 0 srgb
1.49 setlinewidth
[] 0 setdash
0 setlinecap
1 setlinejoin
10.00 setmiterlimit
np
618.91 311.82 m
34.56 0 l
o
18.00 18.00 823.89 577.28 cl
18.00 18.00 823.89 577.28 cl
1 0 0 srgb
1.49 setlinewidth
[] 0 setdash
0 setlinecap
1 setlinejoin
10.00 setmiterlimit
np
618.91 311.82 m
34.56 0 l
o
18.00 18.00 823.89 577.28 cl
18.00 18.00 823.89 577.28 cl
1 0 0 srgb
1.49 setlinewidth
[] 0 setdash
0 setlinecap
1 setlinejoin
10.00 setmiterlimit
np
618.91 311.82 m
34.56 0 l
o
18.00 18.00 823.89 577.28 cl
18.00 18.00 823.89 577.28 cl
/bg { 1 1 1 srgb } def
614.59 285.90 43.20 17.28 r p2
18.00 18.00 823.89 577.28 cl
18.00 18.00 823.89 577.28 cl
0 0.8039 0 srgb
1.49 setlinewidth
[] 0 setdash
0 setlinecap
1 setlinejoin
10.00 setmiterlimit
np
618.91 294.54 m
34.56 0 l
o
18.00 18.00 823.89 577.28 cl
18.00 18.00 823.89 577.28 cl
0 0.8039 0 srgb
1.49 setlinewidth
[] 0 setdash
0 setlinecap
1 setlinejoin
10.00 setmiterlimit
np
618.91 294.54 m
34.56 0 l
o
18.00 18.00 823.89 577.28 cl
18.00 18.00 823.89 577.28 cl
0 0.8039 0 srgb
1.49 setlinewidth
[] 0 setdash
0 setlinecap
1 setlinejoin
10.00 setmiterlimit
np
618.91 294.54 m
34.56 0 l
o
18.00 18.00 823.89 577.28 cl
18.00 18.00 823.89 577.28 cl
0 0.8039 0 srgb
1.49 setlinewidth
[] 0 setdash
0 setlinecap
1 setlinejoin
10.00 setmiterlimit
np
618.91 294.54 m
34.56 0 l
o
18.00 18.00 823.89 577.28 cl
18.00 18.00 823.89 577.28 cl
0 0.8039 0 srgb
1.49 setlinewidth
[] 0 setdash
0 setlinecap
1 setlinejoin
10.00 setmiterlimit
np
618.91 294.54 m
34.56 0 l
o
18.00 18.00 823.89 577.28 cl
18.00 18.00 823.89 577.28 cl
0 0.8039 0 srgb
1.49 setlinewidth
[] 0 setdash
0 setlinecap
1 setlinejoin
10.00 setmiterlimit
np
618.91 294.54 m
34.56 0 l
o
18.00 18.00 823.89 577.28 cl
18.00 18.00 823.89 577.28 cl
/bg { 1 1 1 srgb } def
614.59 268.62 43.20 17.28 r p2
18.00 18.00 823.89 577.28 cl
18.00 18.00 823.89 577.28 cl
0 0 1 srgb
1.49 setlinewidth
[] 0 setdash
0 setlinecap
1 setlinejoin
10.00 setmiterlimit
np
618.91 277.26 m
34.56 0 l
o
18.00 18.00 823.89 577.28 cl
18.00 18.00 823.89 577.28 cl
0 0 1 srgb
1.49 setlinewidth
[] 0 setdash
0 setlinecap
1 setlinejoin
10.00 setmiterlimit
np
618.91 277.26 m
34.56 0 l
o
18.00 18.00 823.89 577.28 cl
18.00 18.00 823.89 577.28 cl
0 0 1 srgb
1.49 setlinewidth
[] 0 setdash
0 setlinecap
1 setlinejoin
10.00 setmiterlimit
np
618.91 277.26 m
34.56 0 l
o
18.00 18.00 823.89 577.28 cl
18.00 18.00 823.89 577.28 cl
0 0 1 srgb
1.49 setlinewidth
[] 0 setdash
0 setlinecap
1 setlinejoin
10.00 setmiterlimit
np
618.91 277.26 m
34.56 0 l
o
18.00 18.00 823.89 577.28 cl
18.00 18.00 823.89 577.28 cl
0 0 1 srgb
1.49 setlinewidth
[] 0 setdash
0 setlinecap
1 setlinejoin
10.00 setmiterlimit
np
618.91 277.26 m
34.56 0 l
o
18.00 18.00 823.89 577.28 cl
18.00 18.00 823.89 577.28 cl
0 0 1 srgb
1.49 setlinewidth
[] 0 setdash
0 setlinecap
1 setlinejoin
10.00 setmiterlimit
np
618.91 277.26 m
34.56 0 l
o
18.00 18.00 823.89 577.28 cl
18.00 18.00 823.89 577.28 cl
/bg { 1 1 1 srgb } def
614.59 251.34 43.20 17.28 r p2
18.00 18.00 823.89 577.28 cl
18.00 18.00 823.89 577.28 cl
0 1 1 srgb
1.49 setlinewidth
[] 0 setdash
0 setlinecap
1 setlinejoin
10.00 setmiterlimit
np
618.91 259.98 m
34.56 0 l
o
18.00 18.00 823.89 577.28 cl
18.00 18.00 823.89 577.28 cl
0 1 1 srgb
1.49 setlinewidth
[] 0 setdash
0 setlinecap
1 setlinejoin
10.00 setmiterlimit
np
618.91 259.98 m
34.56 0 l
o
18.00 18.00 823.89 577.28 cl
18.00 18.00 823.89 577.28 cl
0 1 1 srgb
1.49 setlinewidth
[] 0 setdash
0 setlinecap
1 setlinejoin
10.00 setmiterlimit
np
618.91 259.98 m
34.56 0 l
o
18.00 18.00 823.89 577.28 cl
18.00 18.00 823.89 577.28 cl
0 1 1 srgb
1.49 setlinewidth
[] 0 setdash
0 setlinecap
1 setlinejoin
10.00 setmiterlimit
np
618.91 259.98 m
34.56 0 l
o
18.00 18.00 823.89 577.28 cl
18.00 18.00 823.89 577.28 cl
0 1 1 srgb
1.49 setlinewidth
[] 0 setdash
0 setlinecap
1 setlinejoin
10.00 setmiterlimit
np
618.91 259.98 m
34.56 0 l
o
18.00 18.00 823.89 577.28 cl
18.00 18.00 823.89 577.28 cl
0 1 1 srgb
1.49 setlinewidth
[] 0 setdash
0 setlinecap
1 setlinejoin
10.00 setmiterlimit
np
618.91 259.98 m
34.56 0 l
o
18.00 18.00 823.89 577.28 cl
18.00 18.00 823.89 577.28 cl
/bg { 1 1 1 srgb } def
614.59 234.06 43.20 17.28 r p2
18.00 18.00 823.89 577.28 cl
18.00 18.00 823.89 577.28 cl
1 0 1 srgb
1.49 setlinewidth
[] 0 setdash
0 setlinecap
1 setlinejoin
10.00 setmiterlimit
np
618.91 242.70 m
34.56 0 l
o
18.00 18.00 823.89 577.28 cl
18.00 18.00 823.89 577.28 cl
1 0 1 srgb
1.49 setlinewidth
[] 0 setdash
0 setlinecap
1 setlinejoin
10.00 setmiterlimit
np
618.91 242.70 m
34.56 0 l
o
18.00 18.00 823.89 577.28 cl
18.00 18.00 823.89 577.28 cl
1 0 1 srgb
1.49 setlinewidth
[] 0 setdash
0 setlinecap
1 setlinejoin
10.00 setmiterlimit
np
618.91 242.70 m
34.56 0 l
o
18.00 18.00 823.89 577.28 cl
18.00 18.00 823.89 577.28 cl
1 0 1 srgb
1.49 setlinewidth
[] 0 setdash
0 setlinecap
1 setlinejoin
10.00 setmiterlimit
np
618.91 242.70 m
34.56 0 l
o
18.00 18.00 823.89 577.28 cl
18.00 18.00 823.89 577.28 cl
1 0 1 srgb
1.49 setlinewidth
[] 0 setdash
0 setlinecap
1 setlinejoin
10.00 setmiterlimit
np
618.91 242.70 m
34.56 0 l
o
18.00 18.00 823.89 577.28 cl
18.00 18.00 823.89 577.28 cl
1 0 1 srgb
1.49 setlinewidth
[] 0 setdash
0 setlinecap
1 setlinejoin
10.00 setmiterlimit
np
618.91 242.70 m
34.56 0 l
o
18.00 18.00 823.89 577.28 cl
18.00 18.00 823.89 577.28 cl
/bg { 1 1 1 srgb } def
614.59 216.78 43.20 17.28 r p2
18.00 18.00 823.89 577.28 cl
18.00 18.00 823.89 577.28 cl
0 0 0 srgb
1.49 setlinewidth
[] 0 setdash
0 setlinecap
1 setlinejoin
10.00 setmiterlimit
np
618.91 225.42 m
34.56 0 l
o
18.00 18.00 823.89 577.28 cl
18.00 18.00 823.89 577.28 cl
0 0 0 srgb
1.49 setlinewidth
[] 0 setdash
0 setlinecap
1 setlinejoin
10.00 setmiterlimit
np
618.91 225.42 m
34.56 0 l
o
18.00 18.00 823.89 577.28 cl
18.00 18.00 823.89 577.28 cl
0 0 0 srgb
1.49 setlinewidth
[] 0 setdash
0 setlinecap
1 setlinejoin
10.00 setmiterlimit
np
618.91 225.42 m
34.56 0 l
o
18.00 18.00 823.89 577.28 cl
18.00 18.00 823.89 577.28 cl
0 0 0 srgb
1.49 setlinewidth
[] 0 setdash
0 setlinecap
1 setlinejoin
10.00 setmiterlimit
np
618.91 225.42 m
34.56 0 l
o
18.00 18.00 823.89 577.28 cl
18.00 18.00 823.89 577.28 cl
0 0 0 srgb
1.49 setlinewidth
[] 0 setdash
0 setlinecap
1 setlinejoin
10.00 setmiterlimit
np
618.91 225.42 m
34.56 0 l
o
18.00 18.00 823.89 577.28 cl
18.00 18.00 823.89 577.28 cl
0 0 0 srgb
1.49 setlinewidth
[] 0 setdash
0 setlinecap
1 setlinejoin
10.00 setmiterlimit
np
618.91 225.42 m
34.56 0 l
o
18.00 18.00 823.89 577.28 cl
18.00 18.00 823.89 577.28 cl
/Font1 findfont 20 s
0 0 0 srgb
659.95 304.64 (FFR) 0 0 t
18.00 18.00 823.89 577.28 cl
18.00 18.00 823.89 577.28 cl
/Font1 findfont 20 s
0 0 0 srgb
659.95 287.36 (FRE) 0 0 t
18.00 18.00 823.89 577.28 cl
18.00 18.00 823.89 577.28 cl
/Font1 findfont 20 s
0 0 0 srgb
659.95 270.08 (BNRE I) 0 0 t
18.00 18.00 823.89 577.28 cl
18.00 18.00 823.89 577.28 cl
/Font1 findfont 20 s
0 0 0 srgb
659.95 252.80 (BNRE II) 0 0 t
18.00 18.00 823.89 577.28 cl
18.00 18.00 823.89 577.28 cl
/Font1 findfont 20 s
0 0 0 srgb
659.95 235.52 (BTRE I) 0 0 t
18.00 18.00 823.89 577.28 cl
18.00 18.00 823.89 577.28 cl
/Font1 findfont 20 s
0 0 0 srgb
659.95 218.24 (BTRE II) 0 0 t
18.00 18.00 823.89 577.28 cl
18.00 18.00 823.89 577.28 cl
18.00 18.00 823.89 577.28 cl
18.00 18.00 823.89 577.28 cl
18.00 18.00 823.89 577.28 cl
18.00 18.00 823.89 577.28 cl
18.00 18.00 823.89 577.28 cl
18.00 18.00 823.89 577.28 cl
18.00 18.00 823.89 577.28 cl
18.00 18.00 823.89 577.28 cl
ep
%%Trailer
%%Pages: 1
%%EOF
