%!PS-Adobe-3.0
%%DocumentNeededResources: font Helvetica
%%+ font Helvetica-Bold
%%+ font Helvetica-Oblique
%%+ font Helvetica-BoldOblique
%%+ font Symbol
%%DocumentMedia: a4 595 841 0 () ()
%%Title: R Graphics Output
%%Creator: R Software
%%Pages: (atend)
%%Orientation: Landscape
%%BoundingBox: 18 18 577 824
%%EndComments
%%BeginProlog
/bp  { gs sRGB 595.00 0 translate 90 rotate gs } def
% begin .ps.prolog
/gs  { gsave } bind def
/gr  { grestore } bind def
/ep  { showpage gr gr } bind def
/m   { moveto } bind def
/l  { rlineto } bind def
/np  { newpath } bind def
/cp  { closepath } bind def
/f   { fill } bind def
/o   { stroke } bind def
/c   { newpath 0 360 arc } bind def
/r   { 4 2 roll moveto 1 copy 3 -1 roll exch 0 exch rlineto 0 rlineto -1 mul 0 exch rlineto closepath } bind def
/p1  { stroke } bind def
/p2  { gsave bg fill grestore newpath } bind def
/p3  { gsave bg fill grestore stroke } bind def
/p6  { gsave bg eofill grestore newpath } bind def
/p7  { gsave bg eofill grestore stroke } bind def
/t   { 5 -2 roll moveto gsave rotate
       1 index stringwidth pop
       mul neg 0 rmoveto show grestore } bind def
/ta  { 4 -2 roll moveto gsave rotate show } bind def
/tb  { 2 -1 roll 0 rmoveto show } bind def
/cl  { grestore gsave newpath 3 index 3 index moveto 1 index
       4 -1 roll lineto  exch 1 index lineto lineto
       closepath clip newpath } bind def
/rgb { setrgbcolor } bind def
/s   { scalefont setfont } bind def
% end   .ps.prolog
/sRGB { [ /CIEBasedABC
          << /DecodeLMN
               [ { dup 0.03928 le
                        {12.92321 div}
                        {0.055 add 1.055 div 2.4 exp }
                     ifelse
                 } bind dup dup
               ]
             /MatrixLMN [0.412457 0.212673 0.019334
                         0.357576 0.715152 0.119192
                         0.180437 0.072175 0.950301]
             /WhitePoint [0.9505 1.0 1.0890]
           >>
         ] setcolorspace } bind def
/srgb { setcolor } bind def
%%IncludeResource: font Helvetica
/Helvetica findfont
dup length dict begin
  {1 index /FID ne {def} {pop pop} ifelse} forall
  /Encoding ISOLatin1Encoding def
  currentdict
  end
/Font1 exch definefont pop
%%IncludeResource: font Helvetica-Bold
/Helvetica-Bold findfont
dup length dict begin
  {1 index /FID ne {def} {pop pop} ifelse} forall
  /Encoding ISOLatin1Encoding def
  currentdict
  end
/Font2 exch definefont pop
%%IncludeResource: font Helvetica-Oblique
/Helvetica-Oblique findfont
dup length dict begin
  {1 index /FID ne {def} {pop pop} ifelse} forall
  /Encoding ISOLatin1Encoding def
  currentdict
  end
/Font3 exch definefont pop
%%IncludeResource: font Helvetica-BoldOblique
/Helvetica-BoldOblique findfont
dup length dict begin
  {1 index /FID ne {def} {pop pop} ifelse} forall
  /Encoding ISOLatin1Encoding def
  currentdict
  end
/Font4 exch definefont pop
%%IncludeResource: font Symbol
/Symbol findfont
dup length dict begin
  {1 index /FID ne {def} {pop pop} ifelse} forall
  currentdict
  end
/Font5 exch definefont pop
%%EndProlog
%%Page: 1 1
bp
18.00 18.00 823.89 577.28 cl
18.00 18.00 823.89 577.28 cl
18.00 18.00 823.89 577.28 cl
18.00 18.00 823.89 577.28 cl
18.00 18.00 823.89 577.28 cl
18.00 18.00 823.89 577.28 cl
18.00 18.00 823.89 577.28 cl
18.00 18.00 823.89 577.28 cl
18.00 18.00 823.89 577.28 cl
18.00 18.00 823.89 577.28 cl
/bg { 1 1 1 srgb } def
1 1 1 srgb
1.07 setlinewidth
[] 0 setdash
1 setlinecap
1 setlinejoin
10.00 setmiterlimit
18.00 18.00 805.89 559.28 r p3
18.00 18.00 823.89 577.28 cl
93.33 73.43 818.41 566.81 cl
/bg { 1 1 1 srgb } def
93.33 73.43 725.08 493.39 r p2
0.9216 0.9216 0.9216 srgb
0.53 setlinewidth
[] 0 setdash
0 setlinecap
1 setlinejoin
10.00 setmiterlimit
np
93.33 85.17 m
725.08 0 l
o
np
93.33 191.97 m
725.08 0 l
o
np
93.33 298.76 m
725.08 0 l
o
np
93.33 405.56 m
725.08 0 l
o
np
93.33 512.35 m
725.08 0 l
o
np
173.37 73.43 m
0 493.38 l
o
np
361.70 73.43 m
0 493.38 l
o
np
550.04 73.43 m
0 493.38 l
o
np
738.37 73.43 m
0 493.38 l
o
1.07 setlinewidth
[] 0 setdash
np
93.33 138.57 m
725.08 0 l
o
np
93.33 245.36 m
725.08 0 l
o
np
93.33 352.16 m
725.08 0 l
o
np
93.33 458.95 m
725.08 0 l
o
np
93.33 565.75 m
725.08 0 l
o
np
267.54 73.43 m
0 493.38 l
o
np
455.87 73.43 m
0 493.38 l
o
np
644.20 73.43 m
0 493.38 l
o
0.7451 0.7451 0.7451 srgb
1.00 setmiterlimit
np
126.29 198.79 m
47.08 75.73 l
47.08 34.42 l
47.09 27.54 l
47.08 27.54 l
o
np
126.29 167.42 m
47.08 83.47 l
47.08 47.70 l
47.09 35.77 l
47.08 23.85 l
o
np
126.29 199.19 m
47.08 102.94 l
47.08 17.16 l
47.09 17.16 l
o
np
126.29 200.18 m
47.08 72.46 l
47.08 30.19 l
47.09 24.15 l
47.08 18.11 l
47.08 18.12 l
o
np
126.29 151.68 m
47.08 87.99 l
47.08 76.99 l
47.09 27.50 l
47.08 27.49 l
47.08 16.50 l
o
np
126.29 172.41 m
47.08 51.93 l
47.08 51.93 l
47.09 57.69 l
47.08 34.62 l
47.08 23.08 l
47.09 17.31 l
o
np
126.29 143.64 m
47.08 83.87 l
47.08 50.33 l
47.09 39.14 l
o
np
173.37 271.58 m
47.08 61.38 l
47.09 18.41 l
47.08 18.42 l
o
np
126.29 211.27 m
141.25 137.62 l
47.08 22.93 l
47.08 17.21 l
47.09 11.47 l
o
np
126.29 143.77 m
47.08 63.20 l
47.08 52.67 l
47.09 57.93 l
47.08 15.80 l
47.08 15.80 l
o
np
126.29 192.24 m
47.08 43.34 l
47.08 43.34 l
47.09 21.67 l
o
np
126.29 130.95 m
47.08 73.34 l
47.08 48.90 l
47.09 19.55 l
47.08 14.67 l
47.08 19.56 l
o
np
126.29 208.91 m
47.08 90.70 l
47.08 48.85 l
47.09 27.90 l
47.08 20.94 l
47.08 13.95 l
47.09 13.96 l
47.08 6.97 l
o
np
126.29 226.47 m
47.08 67.13 l
47.08 40.27 l
47.09 33.56 l
47.08 26.85 l
47.08 26.85 l
47.09 20.13 l
47.08 20.14 l
47.08 13.42 l
47.09 6.71 l
47.08 13.43 l
o
np
126.29 175.73 m
47.08 61.09 l
47.08 38.87 l
47.09 27.77 l
47.08 16.66 l
47.08 16.66 l
o
np
126.29 169.68 m
47.08 49.69 l
47.08 31.05 l
o
np
126.29 178.95 m
47.08 53.56 l
47.08 47.61 l
47.09 41.66 l
47.08 29.76 l
47.08 23.80 l
47.09 11.91 l
o
np
126.29 155.66 m
47.08 50.26 l
47.08 25.12 l
o
np
126.29 186.06 m
47.08 63.24 l
47.08 52.71 l
47.09 36.89 l
47.08 15.81 l
47.08 15.81 l
o
np
126.29 176.26 m
47.08 87.11 l
47.08 62.22 l
47.09 37.34 l
47.08 37.33 l
47.08 12.45 l
47.09 12.44 l
47.08 6.22 l
o
np
126.29 190.59 m
47.08 77.13 l
47.08 38.57 l
47.09 16.53 l
47.08 11.01 l
o
np
126.29 197.77 m
47.08 48.79 l
47.08 43.36 l
47.09 27.10 l
47.08 16.26 l
47.08 16.26 l
47.09 16.26 l
o
np
126.29 151.07 m
47.08 84.17 l
47.08 48.10 l
47.09 30.06 l
47.08 24.05 l
47.08 18.03 l
o
np
126.29 166.45 m
47.08 72.85 l
47.08 44.83 l
47.09 33.62 l
47.08 39.23 l
47.08 22.42 l
o
np
126.29 194.83 m
47.08 74.79 l
47.08 40.27 l
47.09 23.01 l
47.08 28.77 l
47.08 17.26 l
47.09 17.26 l
o
np
126.29 170.70 m
47.08 72.71 l
47.08 54.53 l
47.09 36.35 l
47.08 24.23 l
47.08 18.18 l
o
np
126.29 167.81 m
47.08 95.58 l
47.08 41.81 l
47.09 17.92 l
o
np
126.29 220.50 m
47.08 53.86 l
47.08 60.58 l
47.09 26.93 l
47.08 13.46 l
o
np
126.29 117.94 m
47.08 86.83 l
47.08 30.65 l
47.09 56.19 l
47.08 20.43 l
47.08 5.11 l
o
np
126.29 198.85 m
47.08 64.40 l
47.08 52.68 l
47.09 35.12 l
47.08 29.27 l
47.08 23.42 l
47.09 29.27 l
47.08 17.56 l
47.08 11.71 l
47.09 11.70 l
47.08 11.71 l
o
np
126.29 210.37 m
47.08 42.99 l
47.08 30.71 l
47.09 30.71 l
47.08 12.28 l
o
np
126.29 171.23 m
47.08 88.51 l
47.08 53.11 l
47.09 35.40 l
47.08 35.41 l
47.08 17.70 l
47.09 11.80 l
47.08 11.80 l
47.08 17.70 l
47.09 17.71 l
47.08 17.70 l
47.08 11.80 l
o
np
126.29 166.35 m
47.08 91.66 l
47.08 48.89 l
47.09 30.55 l
47.08 24.44 l
47.08 12.22 l
o
np
126.29 157.87 m
47.08 82.10 l
47.08 43.46 l
47.09 19.32 l
47.08 14.49 l
47.08 14.49 l
47.09 19.31 l
o
np
126.29 125.61 m
47.08 93.43 l
47.08 46.72 l
47.09 41.52 l
47.08 15.57 l
47.08 15.57 l
o
np
126.29 137.24 m
47.08 49.29 l
47.08 34.51 l
47.09 19.72 l
o
np
126.29 143.48 m
47.08 89.39 l
47.08 59.59 l
47.09 11.92 l
47.08 11.92 l
o
np
126.29 143.20 m
47.08 103.64 l
47.08 51.82 l
47.09 34.55 l
47.08 11.52 l
47.08 11.51 l
47.09 11.52 l
o
np
126.29 195.81 m
47.08 70.62 l
47.08 38.52 l
47.09 38.52 l
47.08 38.52 l
47.08 12.84 l
47.09 12.84 l
o
np
126.29 182.58 m
47.08 61.46 l
47.08 39.10 l
47.09 27.94 l
47.08 22.34 l
47.08 16.76 l
47.09 16.76 l
47.08 11.18 l
47.08 11.17 l
o
np
126.29 141.34 m
47.08 91.16 l
47.08 28.49 l
47.09 28.49 l
47.08 28.49 l
47.08 17.10 l
47.09 11.39 l
o
np
126.29 167.59 m
47.08 92.74 l
47.08 46.37 l
47.09 23.19 l
47.08 28.98 l
47.08 11.60 l
o
np
126.29 196.73 m
47.08 49.72 l
47.08 38.68 l
47.09 22.09 l
47.08 16.58 l
47.08 16.57 l
47.09 22.10 l
o
np
126.29 175.52 m
47.08 78.30 l
47.08 42.16 l
47.09 42.17 l
47.08 18.07 l
47.08 12.04 l
47.09 6.03 l
47.08 6.02 l
o
np
126.29 158.42 m
47.08 68.37 l
47.08 56.98 l
47.09 51.27 l
47.08 28.49 l
47.08 17.09 l
47.09 17.10 l
47.08 11.39 l
o
np
126.29 205.86 m
47.08 84.73 l
47.08 32.59 l
47.09 32.59 l
47.08 19.55 l
47.08 13.04 l
o
np
126.29 180.49 m
47.08 86.32 l
47.08 43.16 l
47.09 30.83 l
47.08 18.49 l
47.08 12.33 l
o
np
126.29 200.18 m
47.08 78.50 l
47.08 48.30 l
47.09 18.11 l
47.08 18.12 l
o
np
126.29 186.37 m
47.08 55.42 l
47.08 55.41 l
47.09 44.34 l
47.08 16.62 l
o
np
126.29 196.32 m
47.08 80.80 l
47.08 37.70 l
47.09 26.93 l
47.08 16.16 l
47.08 16.16 l
47.09 21.55 l
47.08 16.16 l
47.08 16.16 l
o
np
126.29 192.70 m
47.08 66.00 l
47.08 42.00 l
47.09 30.00 l
47.08 18.00 l
o
np
126.29 144.64 m
47.08 81.26 l
47.08 52.24 l
47.09 34.82 l
47.08 34.83 l
47.08 29.02 l
47.09 17.41 l
47.08 23.22 l
o
np
126.29 178.67 m
47.08 75.18 l
47.08 40.48 l
47.09 28.91 l
47.08 17.35 l
o
np
126.29 150.57 m
47.08 87.47 l
47.08 65.60 l
47.09 32.81 l
47.08 16.40 l
47.08 10.93 l
o
np
126.29 208.77 m
47.08 67.12 l
47.08 30.51 l
47.09 30.51 l
47.08 30.51 l
47.08 24.41 l
47.09 12.20 l
o
np
126.29 212.09 m
47.08 63.28 l
47.08 28.77 l
47.09 28.76 l
47.08 17.26 l
47.08 17.26 l
47.09 17.26 l
47.08 11.51 l
o
np
126.29 160.57 m
47.08 71.22 l
47.08 41.55 l
47.09 35.61 l
47.08 23.74 l
47.08 17.81 l
o
np
126.29 165.25 m
47.08 70.46 l
47.08 37.95 l
47.09 48.78 l
47.08 32.52 l
47.08 16.26 l
o
np
126.29 152.02 m
47.08 62.44 l
47.08 45.41 l
47.09 51.09 l
47.08 22.71 l
o
np
126.29 171.25 m
47.08 94.42 l
47.08 70.81 l
47.09 17.70 l
47.08 11.81 l
o
np
126.29 171.06 m
47.08 70.60 l
47.08 48.88 l
47.09 32.58 l
47.08 27.15 l
47.08 21.73 l
47.09 21.72 l
o
np
126.29 173.46 m
47.08 82.24 l
47.08 44.29 l
47.09 31.63 l
47.08 25.30 l
47.08 18.98 l
47.09 12.65 l
o
np
126.29 154.16 m
47.08 85.56 l
47.08 61.11 l
47.09 24.45 l
o
np
126.29 163.59 m
47.08 77.34 l
47.08 49.72 l
47.09 33.15 l
47.08 27.62 l
47.08 11.05 l
o
np
126.29 164.84 m
47.08 82.41 l
47.08 41.20 l
47.09 35.32 l
47.08 23.55 l
47.08 11.77 l
o
np
126.29 196.57 m
47.08 57.97 l
47.08 52.16 l
47.09 28.99 l
47.08 17.39 l
47.08 11.59 l
o
np
126.29 142.41 m
47.08 88.86 l
47.08 49.98 l
47.09 38.87 l
47.08 33.32 l
47.08 27.77 l
47.09 16.66 l
o
np
126.29 156.47 m
47.08 92.98 l
47.08 34.86 l
47.09 29.06 l
o
np
126.29 154.16 m
47.08 70.37 l
47.08 43.30 l
47.09 32.48 l
47.08 21.65 l
47.08 10.83 l
o
np
126.29 161.35 m
47.08 79.89 l
47.08 43.02 l
47.09 49.16 l
47.08 30.73 l
47.08 18.44 l
o
np
126.29 163.47 m
47.08 72.28 l
47.08 48.19 l
47.09 42.16 l
47.08 24.09 l
47.08 24.10 l
o
np
126.29 228.00 m
47.08 65.83 l
47.08 46.08 l
47.09 19.74 l
47.08 19.75 l
47.08 13.17 l
o
np
126.29 202.67 m
47.08 79.32 l
47.08 42.71 l
47.09 24.41 l
47.08 12.20 l
o
np
126.29 186.25 m
47.08 65.87 l
47.08 29.94 l
47.09 29.94 l
o
np
126.29 169.57 m
47.08 80.86 l
47.08 48.53 l
47.09 32.34 l
47.08 21.57 l
47.08 16.17 l
47.09 16.17 l
o
np
126.29 140.35 m
47.08 61.99 l
47.08 51.66 l
47.09 41.33 l
47.08 31.00 l
47.08 15.50 l
o
np
126.29 192.83 m
47.08 86.31 l
47.08 49.33 l
47.09 30.82 l
o
np
126.29 194.15 m
47.08 72.45 l
47.08 42.27 l
47.09 36.22 l
47.08 12.08 l
o
np
126.29 219.76 m
47.08 63.76 l
47.08 40.57 l
47.09 23.19 l
47.08 17.39 l
47.08 11.59 l
o
np
126.29 178.76 m
47.08 53.51 l
47.08 53.51 l
47.09 32.11 l
47.08 26.76 l
o
np
267.54 336.39 m
47.08 30.47 l
47.08 24.37 l
o
np
173.37 231.45 m
47.08 34.05 l
47.09 28.38 l
o
np
126.29 181.22 m
47.08 62.67 l
47.08 56.98 l
94.17 51.28 l
47.08 22.79 l
o
np
126.29 159.91 m
47.08 83.67 l
47.08 61.35 l
47.09 27.89 l
47.08 22.30 l
o
np
126.29 166.38 m
47.08 76.32 l
47.08 54.51 l
47.09 38.15 l
47.08 21.81 l
o
np
126.29 172.27 m
47.08 84.33 l
47.08 58.38 l
47.09 38.92 l
47.08 19.46 l
o
np
126.29 134.68 m
47.08 82.25 l
47.08 49.35 l
47.09 38.38 l
47.08 27.42 l
47.08 21.93 l
o
np
126.29 210.93 m
47.08 50.37 l
47.08 44.77 l
47.09 22.38 l
47.08 16.79 l
o
np
126.29 154.93 m
47.08 54.35 l
47.08 38.05 l
47.09 43.48 l
o
np
220.45 281.98 m
47.09 35.92 l
47.08 41.90 l
47.08 23.95 l
47.09 11.97 l
o
np
126.29 175.07 m
47.08 64.28 l
47.08 58.44 l
47.09 40.91 l
47.08 35.06 l
47.08 17.53 l
47.09 17.53 l
o
np
126.29 190.91 m
47.08 66.21 l
47.08 38.62 l
47.09 27.59 l
o
np
126.29 205.65 m
47.08 67.96 l
47.08 43.25 l
47.09 37.06 l
47.08 37.07 l
o
np
126.29 179.46 m
47.08 69.66 l
47.08 40.63 l
47.09 34.82 l
47.08 40.63 l
47.08 23.22 l
47.09 17.41 l
47.08 11.61 l
o
np
126.29 150.31 m
47.08 95.79 l
47.08 47.90 l
47.09 35.93 l
o
np
126.29 224.27 m
47.08 64.89 l
47.08 38.93 l
47.09 19.47 l
o
np
126.29 188.28 m
47.08 72.51 l
47.08 30.21 l
47.09 30.22 l
o
np
126.29 176.32 m
94.16 135.20 l
47.09 23.51 l
47.08 17.64 l
47.08 17.63 l
o
np
126.29 138.19 m
47.08 98.31 l
47.08 52.05 l
47.09 34.69 l
47.08 17.35 l
o
np
126.29 168.20 m
141.25 143.00 l
47.08 22.00 l
47.08 16.50 l
o
np
126.29 152.21 m
47.08 96.78 l
47.08 54.44 l
47.09 42.34 l
o
np
126.29 170.95 m
47.08 76.61 l
47.08 47.14 l
47.09 29.46 l
47.08 29.47 l
47.08 23.57 l
o
np
126.29 171.22 m
47.08 55.81 l
47.08 33.49 l
47.09 27.91 l
o
np
126.29 177.57 m
47.08 57.53 l
47.08 46.02 l
47.09 46.03 l
47.08 28.76 l
47.08 23.02 l
47.09 17.26 l
o
np
126.29 166.86 m
94.16 160.54 l
47.09 35.67 l
47.08 29.73 l
47.08 29.73 l
47.09 23.78 l
47.08 11.89 l
o
np
126.29 196.03 m
94.16 101.56 l
47.09 45.14 l
47.08 28.21 l
47.08 11.28 l
47.09 11.29 l
o
np
126.29 185.02 m
47.08 55.07 l
94.17 93.64 l
47.08 16.52 l
47.08 16.52 l
o
np
173.37 246.08 m
47.08 53.88 l
47.09 35.92 l
47.08 23.95 l
47.08 11.97 l
o
np
126.29 170.79 m
47.08 72.40 l
47.08 55.70 l
47.09 33.42 l
47.08 27.85 l
47.08 11.14 l
47.09 16.71 l
o
np
126.29 191.25 m
47.08 69.22 l
47.08 56.64 l
47.09 37.76 l
47.08 18.88 l
o
np
126.29 178.89 m
47.08 69.47 l
47.08 52.10 l
47.09 46.31 l
47.08 28.94 l
47.08 17.37 l
47.09 11.58 l
o
np
173.37 242.06 m
47.08 64.91 l
47.09 35.41 l
47.08 23.61 l
o
np
220.45 308.84 m
47.09 40.15 l
47.08 28.68 l
o
np
126.29 160.69 m
47.08 92.24 l
94.17 115.28 l
47.08 23.06 l
47.08 23.06 l
47.09 17.29 l
47.08 11.53 l
o
np
126.29 148.59 m
94.16 122.59 l
47.09 27.86 l
47.08 22.29 l
o
np
126.29 182.20 m
94.16 117.57 l
47.09 29.39 l
47.08 23.51 l
47.08 17.63 l
o
np
126.29 157.74 m
47.08 76.20 l
47.08 35.56 l
47.09 50.79 l
47.08 30.48 l
47.08 20.32 l
47.09 10.16 l
o
np
126.29 210.52 m
47.08 61.45 l
47.08 49.16 l
47.09 24.58 l
47.08 24.59 l
o
np
126.29 138.78 m
47.08 61.44 l
47.08 51.20 l
47.09 20.48 l
47.08 20.48 l
47.08 15.36 l
o
np
126.29 185.39 m
47.08 75.66 l
47.08 50.44 l
47.09 31.53 l
47.08 31.52 l
47.08 25.22 l
47.09 18.92 l
o
np
126.29 195.27 m
47.08 74.78 l
47.08 68.54 l
47.09 31.16 l
47.08 18.70 l
47.08 18.69 l
o
np
126.29 168.16 m
47.08 50.86 l
47.08 45.21 l
47.09 33.91 l
o
np
173.37 223.79 m
94.17 78.85 l
47.08 16.90 l
o
np
126.29 155.26 m
94.16 158.79 l
o
np
126.29 147.28 m
47.08 52.16 l
94.17 83.47 l
47.08 31.30 l
o
np
126.29 186.47 m
47.08 59.50 l
94.17 70.32 l
47.08 21.64 l
47.08 16.23 l
o
np
126.29 167.51 m
47.08 106.74 l
47.08 48.04 l
47.09 21.35 l
47.08 21.34 l
47.08 10.68 l
47.09 5.34 l
o
np
126.29 200.79 m
47.08 90.81 l
47.08 36.32 l
47.09 30.27 l
47.08 24.21 l
47.08 12.11 l
47.09 12.11 l
47.08 12.11 l
o
np
126.29 182.17 m
47.08 82.28 l
47.08 52.90 l
47.09 41.14 l
47.08 17.63 l
47.08 23.51 l
47.09 17.64 l
47.08 17.63 l
47.08 17.63 l
47.09 11.76 l
o
np
126.29 102.85 m
47.08 48.76 l
47.08 48.75 l
47.09 20.32 l
47.08 12.19 l
o
np
126.29 171.59 m
47.08 78.29 l
47.08 33.55 l
47.09 39.14 l
47.08 11.18 l
o
np
126.29 176.35 m
47.08 68.65 l
47.08 45.76 l
47.09 17.16 l
47.08 11.44 l
o
np
126.29 156.73 m
47.08 90.36 l
47.08 50.83 l
47.09 33.89 l
47.08 39.53 l
47.08 22.59 l
47.09 22.59 l
47.08 16.95 l
47.08 11.29 l
o
np
126.29 212.34 m
47.08 54.36 l
47.08 60.41 l
47.09 30.20 l
47.08 18.12 l
47.08 18.12 l
47.09 12.08 l
47.08 12.08 l
47.08 12.08 l
o
np
126.29 157.29 m
47.08 116.72 l
47.08 29.17 l
47.09 11.68 l
o
np
126.29 158.43 m
47.08 87.49 l
47.08 31.25 l
47.09 43.74 l
47.08 12.50 l
o
np
126.29 188.76 m
47.08 49.79 l
47.08 37.34 l
47.09 37.34 l
47.08 31.12 l
47.08 12.45 l
o
np
126.29 158.42 m
47.08 91.16 l
47.08 62.67 l
47.09 34.19 l
47.08 22.79 l
47.08 17.09 l
47.09 22.79 l
o
np
126.29 144.50 m
47.08 100.47 l
47.08 31.73 l
47.09 21.15 l
o
np
126.29 157.78 m
47.08 96.54 l
47.08 39.75 l
47.09 22.71 l
47.08 17.04 l
47.08 17.03 l
47.09 22.72 l
o
np
126.29 166.45 m
47.08 72.85 l
47.08 39.23 l
47.09 44.83 l
47.08 28.02 l
47.08 16.81 l
47.09 11.21 l
o
np
126.29 172.84 m
47.08 65.41 l
47.08 35.68 l
47.09 41.63 l
47.08 11.89 l
o
np
126.29 160.73 m
47.08 72.22 l
47.08 36.11 l
47.09 20.63 l
o
np
126.29 143.31 m
47.08 86.89 l
47.08 38.61 l
47.09 43.45 l
47.08 43.44 l
47.08 19.31 l
47.09 14.48 l
o
np
126.29 186.20 m
47.08 75.77 l
47.08 46.63 l
47.09 23.32 l
47.08 23.31 l
47.08 17.49 l
47.09 17.49 l
o
np
126.29 189.49 m
47.08 63.40 l
47.08 40.34 l
47.09 23.06 l
47.08 11.53 l
o
np
126.29 186.48 m
47.08 76.04 l
47.08 44.36 l
47.09 38.02 l
47.08 31.68 l
47.08 19.01 l
47.09 25.34 l
47.08 12.68 l
47.08 12.67 l
47.09 6.34 l
o
np
126.29 222.42 m
47.08 44.00 l
47.08 31.43 l
47.09 31.42 l
47.08 12.58 l
47.08 12.57 l
o
np
126.29 218.70 m
47.08 76.19 l
47.08 25.40 l
47.09 12.70 l
o
np
126.29 163.04 m
47.08 66.12 l
47.08 44.07 l
47.09 33.06 l
47.08 16.53 l
47.08 11.01 l
o
np
126.29 177.79 m
47.08 68.95 l
47.08 43.87 l
47.09 31.33 l
47.08 25.07 l
47.08 18.81 l
47.09 25.07 l
o
np
126.29 142.37 m
47.08 69.99 l
47.08 53.83 l
47.09 37.69 l
47.08 16.15 l
47.08 5.39 l
o
np
126.29 218.30 m
47.08 55.67 l
47.08 37.11 l
47.09 30.93 l
47.08 24.74 l
47.08 18.56 l
47.09 18.55 l
o
np
126.29 180.47 m
47.08 61.65 l
47.08 49.31 l
47.09 18.50 l
o
np
126.29 163.53 m
47.08 59.11 l
47.08 59.11 l
47.09 43.00 l
47.08 37.61 l
47.08 21.50 l
47.09 16.12 l
47.08 16.12 l
47.08 16.12 l
o
np
126.29 144.15 m
47.08 67.29 l
47.08 50.47 l
47.09 28.04 l
47.08 22.43 l
o
np
126.29 182.02 m
47.08 66.87 l
47.08 27.86 l
47.09 33.43 l
47.08 16.72 l
o
np
126.29 222.51 m
47.08 69.67 l
47.08 48.78 l
o
np
126.29 213.96 m
47.08 68.55 l
47.08 37.39 l
47.09 37.39 l
47.08 18.69 l
47.08 24.93 l
o
np
126.29 160.82 m
47.08 84.05 l
47.08 22.41 l
47.09 11.20 l
47.08 11.21 l
o
np
126.29 192.16 m
47.08 72.12 l
47.08 38.84 l
47.09 16.64 l
47.08 22.19 l
47.08 16.64 l
47.09 16.65 l
o
np
126.29 198.37 m
47.08 75.59 l
47.08 34.36 l
47.09 20.62 l
47.08 13.75 l
o
np
126.29 199.01 m
47.08 50.66 l
47.08 38.00 l
47.09 31.66 l
47.08 25.33 l
47.08 25.34 l
47.09 18.99 l
47.08 19.00 l
47.08 19.00 l
o
np
126.29 142.04 m
47.08 62.59 l
47.08 41.73 l
47.09 20.86 l
47.08 15.65 l
o
np
126.29 213.09 m
47.08 71.90 l
47.08 52.29 l
47.09 19.61 l
o
np
126.29 154.33 m
47.08 88.50 l
47.08 50.56 l
47.09 25.29 l
47.08 25.28 l
47.08 12.64 l
o
np
126.29 192.61 m
47.08 53.97 l
47.08 29.99 l
47.09 47.98 l
47.08 29.99 l
47.08 23.99 l
47.09 17.99 l
47.08 11.99 l
o
np
126.29 164.15 m
47.08 68.38 l
47.08 28.49 l
47.09 17.09 l
o
np
126.29 135.64 m
47.08 56.98 l
47.08 56.98 l
47.09 45.58 l
47.08 28.49 l
47.08 11.40 l
o
np
126.29 175.91 m
47.08 62.12 l
47.08 55.91 l
47.09 31.06 l
47.08 49.69 l
47.08 6.21 l
47.09 18.64 l
o
np
126.29 153.35 m
47.08 64.84 l
47.08 41.27 l
47.09 35.37 l
47.08 23.58 l
47.08 17.69 l
o
np
126.29 184.81 m
47.08 39.51 l
47.08 22.57 l
o
np
126.29 155.95 m
47.08 71.03 l
47.08 43.71 l
47.09 27.33 l
47.08 16.39 l
o
np
126.29 199.28 m
47.08 62.94 l
47.08 22.89 l
47.09 11.44 l
47.08 11.44 l
o
np
126.29 178.67 m
47.08 100.30 l
47.08 53.50 l
47.09 26.74 l
47.08 40.12 l
47.08 20.06 l
47.09 13.37 l
o
np
126.29 181.21 m
47.08 68.37 l
47.08 28.49 l
47.09 34.19 l
47.08 34.18 l
47.08 17.10 l
47.09 17.09 l
47.08 17.09 l
o
np
126.29 190.09 m
47.08 57.79 l
47.08 40.46 l
47.09 28.89 l
47.08 17.34 l
47.08 17.34 l
o
np
126.29 201.03 m
47.08 57.48 l
47.08 25.55 l
47.09 25.55 l
47.08 19.16 l
47.08 19.16 l
o
np
126.29 211.30 m
47.08 64.59 l
47.08 29.35 l
47.09 29.36 l
47.08 29.36 l
47.08 23.48 l
47.09 17.62 l
47.08 29.35 l
47.08 17.62 l
47.09 11.74 l
47.08 17.61 l
o
np
126.29 182.12 m
47.08 93.18 l
47.08 31.06 l
47.09 31.06 l
47.08 31.06 l
47.08 18.64 l
47.09 12.42 l
o
np
126.29 200.41 m
47.08 58.93 l
47.08 35.36 l
47.09 35.36 l
47.08 23.57 l
47.08 11.78 l
47.09 11.79 l
o
np
126.29 139.56 m
47.08 71.03 l
47.08 49.18 l
47.09 32.78 l
47.08 16.39 l
47.08 10.93 l
o
np
126.29 188.37 m
47.08 72.69 l
47.08 39.14 l
47.09 16.78 l
47.08 11.18 l
47.08 5.59 l
o
np
126.29 171.15 m
47.08 100.27 l
47.08 41.29 l
47.09 35.39 l
47.08 17.69 l
47.08 11.80 l
47.09 17.70 l
47.08 11.79 l
47.08 11.80 l
o
np
126.29 175.52 m
47.08 90.35 l
47.08 48.18 l
47.09 30.12 l
47.08 18.07 l
47.08 12.05 l
o
np
126.29 175.52 m
47.08 61.02 l
47.08 66.58 l
47.09 16.64 l
47.08 16.64 l
47.08 16.65 l
47.09 16.64 l
o
np
126.29 194.13 m
47.08 63.09 l
47.08 57.36 l
47.09 28.68 l
47.08 22.94 l
47.08 11.47 l
47.09 11.47 l
o
np
126.29 155.99 m
47.08 57.97 l
47.08 52.17 l
47.09 28.98 l
47.08 34.78 l
47.08 17.39 l
47.09 23.19 l
o
np
126.29 153.20 m
47.08 89.01 l
47.08 47.12 l
47.09 20.94 l
47.08 15.71 l
47.08 10.47 l
o
np
126.29 192.61 m
47.08 56.98 l
47.08 28.49 l
47.09 28.49 l
47.08 22.79 l
47.08 17.09 l
47.09 11.40 l
o
np
126.29 188.18 m
47.08 66.44 l
47.08 54.37 l
47.09 30.20 l
47.08 30.20 l
47.08 24.16 l
47.09 18.12 l
47.08 12.08 l
47.08 12.08 l
o
np
126.29 184.43 m
47.08 53.44 l
47.08 41.57 l
47.09 29.69 l
47.08 17.82 l
47.08 23.75 l
47.09 17.82 l
47.08 11.87 l
o
np
126.29 143.05 m
47.08 67.48 l
47.08 28.92 l
o
np
126.29 166.58 m
47.08 85.64 l
47.08 48.94 l
47.09 36.71 l
47.08 36.70 l
47.08 18.36 l
47.09 18.35 l
47.08 12.23 l
o
np
126.29 240.77 m
47.08 44.94 l
47.08 32.10 l
47.09 19.26 l
47.08 12.84 l
47.08 12.84 l
47.09 19.26 l
o
np
126.29 173.38 m
47.08 76.88 l
47.08 43.93 l
47.09 21.97 l
47.08 16.47 l
o
np
126.29 169.08 m
47.08 56.77 l
47.08 51.10 l
47.09 28.39 l
47.08 22.70 l
47.08 11.36 l
o
np
126.29 193.65 m
47.08 95.39 l
47.08 31.80 l
47.09 25.44 l
47.08 25.44 l
47.08 19.08 l
47.09 12.72 l
47.08 6.36 l
o
np
126.29 193.09 m
47.08 67.89 l
47.08 49.38 l
47.09 30.86 l
47.08 18.52 l
47.08 12.35 l
47.09 12.34 l
o
np
126.29 180.66 m
47.08 66.45 l
47.08 44.30 l
47.09 55.37 l
47.08 27.69 l
47.08 16.61 l
47.09 11.07 l
o
np
126.29 156.72 m
47.08 74.33 l
47.08 43.36 l
47.09 43.36 l
47.08 24.78 l
47.08 24.77 l
o
np
126.29 146.16 m
47.08 53.37 l
47.08 69.39 l
47.09 48.03 l
47.08 37.36 l
47.08 16.01 l
47.09 10.68 l
o
np
126.29 152.08 m
47.08 96.52 l
47.08 56.78 l
47.09 34.07 l
47.08 22.71 l
o
np
126.29 185.66 m
47.08 73.65 l
47.08 55.24 l
47.09 24.55 l
47.08 18.41 l
47.08 12.28 l
o
np
126.29 195.38 m
47.08 81.04 l
47.08 37.41 l
47.09 49.87 l
47.08 18.71 l
47.08 6.23 l
o
np
126.29 169.75 m
47.08 77.58 l
47.08 44.33 l
47.09 33.25 l
47.08 16.63 l
47.08 16.62 l
o
np
126.29 162.70 m
47.08 68.07 l
47.08 61.87 l
47.09 43.31 l
o
np
126.29 196.21 m
47.08 67.02 l
47.08 42.64 l
47.09 24.37 l
47.08 18.28 l
o
np
126.29 173.54 m
47.08 81.21 l
47.08 34.81 l
47.09 34.81 l
47.08 23.20 l
47.08 11.60 l
o
np
126.29 181.94 m
47.08 88.06 l
47.08 46.97 l
47.09 41.10 l
47.08 41.10 l
47.08 17.61 l
47.09 11.74 l
47.08 11.75 l
o
np
126.29 210.13 m
47.08 62.93 l
47.08 50.34 l
47.09 31.47 l
47.08 12.58 l
47.08 6.30 l
o
np
126.29 185.17 m
47.08 90.78 l
47.08 38.90 l
47.09 25.94 l
47.08 25.94 l
47.08 12.97 l
o
np
126.29 167.28 m
47.08 78.78 l
47.08 61.90 l
47.09 50.65 l
47.08 28.13 l
47.08 16.89 l
47.09 11.25 l
o
np
126.29 170.43 m
47.08 64.65 l
47.08 64.66 l
47.09 47.02 l
47.08 29.39 l
47.08 29.39 l
47.09 17.63 l
o
np
126.29 132.11 m
47.08 81.01 l
47.08 37.80 l
47.09 37.81 l
47.08 21.60 l
o
np
126.29 142.82 m
47.08 74.69 l
47.08 57.46 l
47.09 22.98 l
o
np
126.29 203.33 m
47.08 70.94 l
47.08 45.14 l
47.09 32.25 l
47.08 25.80 l
47.08 19.34 l
47.09 12.90 l
o
np
126.29 190.57 m
47.08 63.71 l
47.08 28.96 l
47.09 23.16 l
o
np
126.29 180.83 m
47.08 88.67 l
47.08 33.25 l
47.09 27.70 l
47.08 22.17 l
o
np
126.29 164.64 m
47.08 90.88 l
47.08 66.65 l
47.09 18.18 l
47.08 24.23 l
47.08 12.12 l
o
np
126.29 147.50 m
47.08 134.05 l
47.08 24.38 l
47.09 24.37 l
47.08 42.65 l
47.08 12.19 l
47.09 12.19 l
o
np
126.29 164.90 m
47.08 55.06 l
47.08 45.04 l
47.09 25.03 l
47.08 25.02 l
47.08 10.01 l
o
np
126.29 150.12 m
47.08 73.04 l
47.08 56.19 l
47.09 28.09 l
47.08 22.48 l
47.08 16.85 l
47.09 11.24 l
o
np
126.29 189.96 m
47.08 63.53 l
47.08 40.43 l
47.09 23.10 l
47.08 17.33 l
47.08 17.33 l
47.09 17.33 l
47.08 11.55 l
o
np
126.29 193.48 m
47.08 65.36 l
47.08 52.30 l
47.09 32.68 l
47.08 32.68 l
47.08 19.61 l
47.09 13.07 l
47.08 13.08 l
47.08 13.07 l
o
np
126.29 185.02 m
47.08 55.07 l
47.08 38.56 l
47.09 27.54 l
47.08 22.03 l
47.08 16.52 l
47.09 16.53 l
47.08 11.01 l
o
np
126.29 204.42 m
47.08 35.08 l
47.08 35.08 l
47.09 29.23 l
47.08 17.54 l
47.08 17.54 l
o
np
126.29 231.62 m
47.08 57.20 l
47.08 38.13 l
47.09 19.06 l
47.08 19.07 l
47.08 6.35 l
o
np
126.29 150.34 m
47.08 81.21 l
47.08 46.41 l
47.09 34.80 l
47.08 23.21 l
47.08 17.40 l
o
np
126.29 130.52 m
47.08 93.28 l
47.08 46.64 l
47.09 20.73 l
47.08 15.54 l
o
np
126.29 239.69 m
47.08 48.13 l
47.08 27.50 l
47.09 27.50 l
47.08 27.50 l
47.08 20.62 l
47.09 20.62 l
47.08 20.63 l
47.08 13.75 l
47.09 13.75 l
47.08 13.75 l
o
np
126.29 155.08 m
47.08 71.39 l
47.08 41.64 l
47.09 47.59 l
47.08 23.80 l
47.08 11.90 l
o
np
126.29 180.21 m
47.08 69.72 l
47.08 38.03 l
47.09 38.03 l
47.08 19.01 l
47.08 25.36 l
47.09 19.01 l
47.08 19.02 l
47.08 19.01 l
47.09 19.01 l
47.08 12.68 l
o
np
126.29 198.31 m
47.08 58.40 l
47.08 35.04 l
47.09 23.37 l
47.08 17.52 l
47.08 17.52 l
47.09 11.68 l
o
np
126.29 194.27 m
47.08 57.39 l
47.08 34.43 l
47.09 28.70 l
47.08 17.22 l
47.08 11.48 l
47.09 11.47 l
o
np
126.29 170.56 m
47.08 68.61 l
47.08 34.31 l
47.09 28.59 l
47.08 22.88 l
47.08 17.15 l
47.09 17.16 l
o
np
126.29 190.39 m
47.08 62.06 l
47.08 50.78 l
47.09 28.21 l
47.08 28.21 l
47.08 16.93 l
o
np
126.29 196.88 m
47.08 126.03 l
47.08 53.07 l
47.09 19.90 l
47.08 13.27 l
47.08 6.63 l
o
np
126.29 186.93 m
47.08 59.63 l
47.08 37.94 l
47.09 27.10 l
47.08 27.10 l
47.08 16.26 l
47.09 10.84 l
47.08 10.84 l
o
np
126.29 187.84 m
47.08 51.49 l
47.08 34.33 l
47.09 22.89 l
o
np
126.29 177.89 m
47.08 48.73 l
47.08 42.64 l
47.09 30.45 l
47.08 12.18 l
o
np
126.29 170.44 m
47.08 88.18 l
47.08 47.02 l
47.09 29.39 l
47.08 17.64 l
47.08 11.76 l
47.09 11.75 l
o
np
126.29 189.46 m
47.08 57.80 l
47.08 44.95 l
47.09 25.69 l
47.08 12.84 l
47.08 12.85 l
o
np
126.29 218.92 m
47.08 68.21 l
47.08 31.00 l
47.09 18.60 l
47.08 18.60 l
47.08 12.40 l
47.09 6.20 l
o
np
126.29 188.29 m
47.08 70.28 l
47.08 51.10 l
47.09 19.17 l
47.08 19.16 l
47.08 12.78 l
47.09 12.78 l
o
np
126.29 132.40 m
47.08 76.22 l
47.08 55.90 l
47.09 20.32 l
47.08 15.25 l
o
np
126.29 226.40 m
47.08 54.77 l
47.08 30.43 l
47.09 24.35 l
47.08 30.43 l
47.08 24.34 l
47.09 12.17 l
47.08 12.17 l
o
np
126.29 170.40 m
47.08 66.71 l
47.08 61.15 l
47.09 27.80 l
47.08 11.12 l
47.08 16.68 l
o
np
126.29 185.78 m
47.08 59.75 l
47.08 53.77 l
47.09 35.85 l
47.08 29.88 l
47.08 23.90 l
47.09 17.92 l
47.08 11.95 l
o
np
126.29 174.22 m
47.08 71.84 l
47.08 47.89 l
47.09 35.92 l
47.08 29.93 l
47.08 17.96 l
47.09 11.97 l
47.08 11.98 l
o
1 0 0 srgb
1.49 setlinewidth
[] 0 setdash
np
126.29 181.92 m
47.08 59.69 l
47.08 47.01 l
47.09 37.02 l
47.08 29.17 l
47.08 22.97 l
47.09 18.09 l
47.08 14.25 l
47.08 11.23 l
47.09 8.84 l
47.08 6.96 l
47.08 5.48 l
47.09 4.32 l
47.08 3.41 l
47.08 2.68 l
o
0 0.8039 0 srgb
np
126.29 182.63 m
47.08 66.72 l
47.08 46.16 l
47.09 31.93 l
47.08 22.09 l
47.08 15.28 l
47.09 10.57 l
47.08 7.31 l
47.08 5.06 l
47.09 3.50 l
47.08 2.42 l
47.08 1.68 l
47.09 1.15 l
47.08 0.81 l
47.08 0.55 l
o
0 0 1 srgb
np
126.29 183.41 m
47.08 58.79 l
47.08 46.66 l
47.09 37.04 l
47.08 29.40 l
47.08 23.33 l
47.09 18.52 l
47.08 14.70 l
47.08 11.67 l
47.09 9.26 l
47.08 7.35 l
47.08 5.84 l
47.09 4.63 l
47.08 3.67 l
47.08 2.92 l
o
0 1 1 srgb
np
126.29 182.26 m
47.08 68.43 l
47.08 47.47 l
47.09 32.92 l
47.08 22.84 l
47.08 15.84 l
47.09 10.99 l
47.08 7.62 l
47.08 5.29 l
47.09 3.66 l
47.08 2.55 l
47.08 1.76 l
47.09 1.22 l
47.08 0.85 l
47.08 0.59 l
o
1 0 1 srgb
np
126.29 179.82 m
47.08 64.42 l
47.08 48.13 l
47.09 35.96 l
47.08 26.86 l
47.08 20.07 l
47.09 15.00 l
47.08 11.20 l
47.08 8.37 l
47.09 6.26 l
47.08 4.67 l
47.08 3.49 l
47.09 2.61 l
47.08 1.95 l
47.08 1.45 l
o
0 0 0 srgb
np
126.29 178.11 m
47.08 68.36 l
47.08 47.88 l
47.09 33.53 l
47.08 23.49 l
47.08 16.45 l
47.09 11.52 l
47.08 8.07 l
47.08 5.66 l
47.09 3.95 l
47.08 2.78 l
47.08 1.94 l
47.09 1.36 l
47.08 0.95 l
47.08 0.67 l
o
0.2000 0.2000 0.2000 srgb
1.07 setlinewidth
[] 0 setdash
1 setlinecap
10.00 setmiterlimit
93.33 73.43 725.08 493.39 r p1
18.00 18.00 823.89 577.28 cl
18.00 18.00 823.89 577.28 cl
18.00 18.00 823.89 577.28 cl
18.00 18.00 823.89 577.28 cl
18.00 18.00 823.89 577.28 cl
18.00 18.00 823.89 577.28 cl
18.00 18.00 823.89 577.28 cl
18.00 18.00 823.89 577.28 cl
18.00 18.00 823.89 577.28 cl
18.00 18.00 823.89 577.28 cl
18.00 18.00 823.89 577.28 cl
18.00 18.00 823.89 577.28 cl
18.00 18.00 823.89 577.28 cl
18.00 18.00 823.89 577.28 cl
18.00 18.00 823.89 577.28 cl
18.00 18.00 823.89 577.28 cl
/Font1 findfont 22 s
0.3020 0.3020 0.3020 srgb
88.40 130.67 (25) 1 0 t
88.40 237.47 (50) 1 0 t
88.40 344.26 (75) 1 0 t
88.40 451.05 (100) 1 0 t
88.40 557.85 (125) 1 0 t
18.00 18.00 823.89 577.28 cl
18.00 18.00 823.89 577.28 cl
0.2000 0.2000 0.2000 srgb
1.07 setlinewidth
[] 0 setdash
0 setlinecap
1 setlinejoin
10.00 setmiterlimit
np
90.59 138.57 m
2.74 0 l
o
np
90.59 245.36 m
2.74 0 l
o
np
90.59 352.16 m
2.74 0 l
o
np
90.59 458.95 m
2.74 0 l
o
np
90.59 565.75 m
2.74 0 l
o
18.00 18.00 823.89 577.28 cl
18.00 18.00 823.89 577.28 cl
18.00 18.00 823.89 577.28 cl
18.00 18.00 823.89 577.28 cl
18.00 18.00 823.89 577.28 cl
18.00 18.00 823.89 577.28 cl
18.00 18.00 823.89 577.28 cl
18.00 18.00 823.89 577.28 cl
18.00 18.00 823.89 577.28 cl
18.00 18.00 823.89 577.28 cl
0.2000 0.2000 0.2000 srgb
1.07 setlinewidth
[] 0 setdash
0 setlinecap
1 setlinejoin
10.00 setmiterlimit
np
267.54 70.69 m
0 2.74 l
o
np
455.87 70.69 m
0 2.74 l
o
np
644.20 70.69 m
0 2.74 l
o
18.00 18.00 823.89 577.28 cl
18.00 18.00 823.89 577.28 cl
/Font1 findfont 22 s
0.3020 0.3020 0.3020 srgb
267.54 52.70 (4) .5 0 t
455.87 52.70 (8) .5 0 t
644.20 52.70 (12) .5 0 t
18.00 18.00 823.89 577.28 cl
18.00 18.00 823.89 577.28 cl
18.00 18.00 823.89 577.28 cl
18.00 18.00 823.89 577.28 cl
18.00 18.00 823.89 577.28 cl
18.00 18.00 823.89 577.28 cl
/Font1 findfont 28 s
0 0 0 srgb
455.87 27.12 (Age) .5 0 t
18.00 18.00 823.89 577.28 cl
18.00 18.00 823.89 577.28 cl
/Font1 findfont 28 s
0 0 0 srgb
43.58 320.12 (Length) .5 90 t
18.00 18.00 823.89 577.28 cl
18.00 18.00 823.89 577.28 cl
18.00 18.00 823.89 577.28 cl
18.00 18.00 823.89 577.28 cl
18.00 18.00 823.89 577.28 cl
18.00 18.00 823.89 577.28 cl
18.00 18.00 823.89 577.28 cl
18.00 18.00 823.89 577.28 cl
/bg { 1 1 1 srgb } def
608.93 211.11 128.94 119.34 r p2
18.00 18.00 823.89 577.28 cl
18.00 18.00 823.89 577.28 cl
18.00 18.00 823.89 577.28 cl
18.00 18.00 823.89 577.28 cl
/bg { 1 1 1 srgb } def
614.59 303.18 43.20 17.28 r p2
18.00 18.00 823.89 577.28 cl
18.00 18.00 823.89 577.28 cl
1 0 0 srgb
1.49 setlinewidth
[] 0 setdash
0 setlinecap
1 setlinejoin
10.00 setmiterlimit
np
618.91 311.82 m
34.56 0 l
o
18.00 18.00 823.89 577.28 cl
18.00 18.00 823.89 577.28 cl
1 0 0 srgb
1.49 setlinewidth
[] 0 setdash
0 setlinecap
1 setlinejoin
10.00 setmiterlimit
np
618.91 311.82 m
34.56 0 l
o
18.00 18.00 823.89 577.28 cl
18.00 18.00 823.89 577.28 cl
1 0 0 srgb
1.49 setlinewidth
[] 0 setdash
0 setlinecap
1 setlinejoin
10.00 setmiterlimit
np
618.91 311.82 m
34.56 0 l
o
18.00 18.00 823.89 577.28 cl
18.00 18.00 823.89 577.28 cl
1 0 0 srgb
1.49 setlinewidth
[] 0 setdash
0 setlinecap
1 setlinejoin
10.00 setmiterlimit
np
618.91 311.82 m
34.56 0 l
o
18.00 18.00 823.89 577.28 cl
18.00 18.00 823.89 577.28 cl
1 0 0 srgb
1.49 setlinewidth
[] 0 setdash
0 setlinecap
1 setlinejoin
10.00 setmiterlimit
np
618.91 311.82 m
34.56 0 l
o
18.00 18.00 823.89 577.28 cl
18.00 18.00 823.89 577.28 cl
1 0 0 srgb
1.49 setlinewidth
[] 0 setdash
0 setlinecap
1 setlinejoin
10.00 setmiterlimit
np
618.91 311.82 m
34.56 0 l
o
18.00 18.00 823.89 577.28 cl
18.00 18.00 823.89 577.28 cl
/bg { 1 1 1 srgb } def
614.59 285.90 43.20 17.28 r p2
18.00 18.00 823.89 577.28 cl
18.00 18.00 823.89 577.28 cl
0 0.8039 0 srgb
1.49 setlinewidth
[] 0 setdash
0 setlinecap
1 setlinejoin
10.00 setmiterlimit
np
618.91 294.54 m
34.56 0 l
o
18.00 18.00 823.89 577.28 cl
18.00 18.00 823.89 577.28 cl
0 0.8039 0 srgb
1.49 setlinewidth
[] 0 setdash
0 setlinecap
1 setlinejoin
10.00 setmiterlimit
np
618.91 294.54 m
34.56 0 l
o
18.00 18.00 823.89 577.28 cl
18.00 18.00 823.89 577.28 cl
0 0.8039 0 srgb
1.49 setlinewidth
[] 0 setdash
0 setlinecap
1 setlinejoin
10.00 setmiterlimit
np
618.91 294.54 m
34.56 0 l
o
18.00 18.00 823.89 577.28 cl
18.00 18.00 823.89 577.28 cl
0 0.8039 0 srgb
1.49 setlinewidth
[] 0 setdash
0 setlinecap
1 setlinejoin
10.00 setmiterlimit
np
618.91 294.54 m
34.56 0 l
o
18.00 18.00 823.89 577.28 cl
18.00 18.00 823.89 577.28 cl
0 0.8039 0 srgb
1.49 setlinewidth
[] 0 setdash
0 setlinecap
1 setlinejoin
10.00 setmiterlimit
np
618.91 294.54 m
34.56 0 l
o
18.00 18.00 823.89 577.28 cl
18.00 18.00 823.89 577.28 cl
0 0.8039 0 srgb
1.49 setlinewidth
[] 0 setdash
0 setlinecap
1 setlinejoin
10.00 setmiterlimit
np
618.91 294.54 m
34.56 0 l
o
18.00 18.00 823.89 577.28 cl
18.00 18.00 823.89 577.28 cl
/bg { 1 1 1 srgb } def
614.59 268.62 43.20 17.28 r p2
18.00 18.00 823.89 577.28 cl
18.00 18.00 823.89 577.28 cl
0 0 1 srgb
1.49 setlinewidth
[] 0 setdash
0 setlinecap
1 setlinejoin
10.00 setmiterlimit
np
618.91 277.26 m
34.56 0 l
o
18.00 18.00 823.89 577.28 cl
18.00 18.00 823.89 577.28 cl
0 0 1 srgb
1.49 setlinewidth
[] 0 setdash
0 setlinecap
1 setlinejoin
10.00 setmiterlimit
np
618.91 277.26 m
34.56 0 l
o
18.00 18.00 823.89 577.28 cl
18.00 18.00 823.89 577.28 cl
0 0 1 srgb
1.49 setlinewidth
[] 0 setdash
0 setlinecap
1 setlinejoin
10.00 setmiterlimit
np
618.91 277.26 m
34.56 0 l
o
18.00 18.00 823.89 577.28 cl
18.00 18.00 823.89 577.28 cl
0 0 1 srgb
1.49 setlinewidth
[] 0 setdash
0 setlinecap
1 setlinejoin
10.00 setmiterlimit
np
618.91 277.26 m
34.56 0 l
o
18.00 18.00 823.89 577.28 cl
18.00 18.00 823.89 577.28 cl
0 0 1 srgb
1.49 setlinewidth
[] 0 setdash
0 setlinecap
1 setlinejoin
10.00 setmiterlimit
np
618.91 277.26 m
34.56 0 l
o
18.00 18.00 823.89 577.28 cl
18.00 18.00 823.89 577.28 cl
0 0 1 srgb
1.49 setlinewidth
[] 0 setdash
0 setlinecap
1 setlinejoin
10.00 setmiterlimit
np
618.91 277.26 m
34.56 0 l
o
18.00 18.00 823.89 577.28 cl
18.00 18.00 823.89 577.28 cl
/bg { 1 1 1 srgb } def
614.59 251.34 43.20 17.28 r p2
18.00 18.00 823.89 577.28 cl
18.00 18.00 823.89 577.28 cl
0 1 1 srgb
1.49 setlinewidth
[] 0 setdash
0 setlinecap
1 setlinejoin
10.00 setmiterlimit
np
618.91 259.98 m
34.56 0 l
o
18.00 18.00 823.89 577.28 cl
18.00 18.00 823.89 577.28 cl
0 1 1 srgb
1.49 setlinewidth
[] 0 setdash
0 setlinecap
1 setlinejoin
10.00 setmiterlimit
np
618.91 259.98 m
34.56 0 l
o
18.00 18.00 823.89 577.28 cl
18.00 18.00 823.89 577.28 cl
0 1 1 srgb
1.49 setlinewidth
[] 0 setdash
0 setlinecap
1 setlinejoin
10.00 setmiterlimit
np
618.91 259.98 m
34.56 0 l
o
18.00 18.00 823.89 577.28 cl
18.00 18.00 823.89 577.28 cl
0 1 1 srgb
1.49 setlinewidth
[] 0 setdash
0 setlinecap
1 setlinejoin
10.00 setmiterlimit
np
618.91 259.98 m
34.56 0 l
o
18.00 18.00 823.89 577.28 cl
18.00 18.00 823.89 577.28 cl
0 1 1 srgb
1.49 setlinewidth
[] 0 setdash
0 setlinecap
1 setlinejoin
10.00 setmiterlimit
np
618.91 259.98 m
34.56 0 l
o
18.00 18.00 823.89 577.28 cl
18.00 18.00 823.89 577.28 cl
0 1 1 srgb
1.49 setlinewidth
[] 0 setdash
0 setlinecap
1 setlinejoin
10.00 setmiterlimit
np
618.91 259.98 m
34.56 0 l
o
18.00 18.00 823.89 577.28 cl
18.00 18.00 823.89 577.28 cl
/bg { 1 1 1 srgb } def
614.59 234.06 43.20 17.28 r p2
18.00 18.00 823.89 577.28 cl
18.00 18.00 823.89 577.28 cl
1 0 1 srgb
1.49 setlinewidth
[] 0 setdash
0 setlinecap
1 setlinejoin
10.00 setmiterlimit
np
618.91 242.70 m
34.56 0 l
o
18.00 18.00 823.89 577.28 cl
18.00 18.00 823.89 577.28 cl
1 0 1 srgb
1.49 setlinewidth
[] 0 setdash
0 setlinecap
1 setlinejoin
10.00 setmiterlimit
np
618.91 242.70 m
34.56 0 l
o
18.00 18.00 823.89 577.28 cl
18.00 18.00 823.89 577.28 cl
1 0 1 srgb
1.49 setlinewidth
[] 0 setdash
0 setlinecap
1 setlinejoin
10.00 setmiterlimit
np
618.91 242.70 m
34.56 0 l
o
18.00 18.00 823.89 577.28 cl
18.00 18.00 823.89 577.28 cl
1 0 1 srgb
1.49 setlinewidth
[] 0 setdash
0 setlinecap
1 setlinejoin
10.00 setmiterlimit
np
618.91 242.70 m
34.56 0 l
o
18.00 18.00 823.89 577.28 cl
18.00 18.00 823.89 577.28 cl
1 0 1 srgb
1.49 setlinewidth
[] 0 setdash
0 setlinecap
1 setlinejoin
10.00 setmiterlimit
np
618.91 242.70 m
34.56 0 l
o
18.00 18.00 823.89 577.28 cl
18.00 18.00 823.89 577.28 cl
1 0 1 srgb
1.49 setlinewidth
[] 0 setdash
0 setlinecap
1 setlinejoin
10.00 setmiterlimit
np
618.91 242.70 m
34.56 0 l
o
18.00 18.00 823.89 577.28 cl
18.00 18.00 823.89 577.28 cl
/bg { 1 1 1 srgb } def
614.59 216.78 43.20 17.28 r p2
18.00 18.00 823.89 577.28 cl
18.00 18.00 823.89 577.28 cl
0 0 0 srgb
1.49 setlinewidth
[] 0 setdash
0 setlinecap
1 setlinejoin
10.00 setmiterlimit
np
618.91 225.42 m
34.56 0 l
o
18.00 18.00 823.89 577.28 cl
18.00 18.00 823.89 577.28 cl
0 0 0 srgb
1.49 setlinewidth
[] 0 setdash
0 setlinecap
1 setlinejoin
10.00 setmiterlimit
np
618.91 225.42 m
34.56 0 l
o
18.00 18.00 823.89 577.28 cl
18.00 18.00 823.89 577.28 cl
0 0 0 srgb
1.49 setlinewidth
[] 0 setdash
0 setlinecap
1 setlinejoin
10.00 setmiterlimit
np
618.91 225.42 m
34.56 0 l
o
18.00 18.00 823.89 577.28 cl
18.00 18.00 823.89 577.28 cl
0 0 0 srgb
1.49 setlinewidth
[] 0 setdash
0 setlinecap
1 setlinejoin
10.00 setmiterlimit
np
618.91 225.42 m
34.56 0 l
o
18.00 18.00 823.89 577.28 cl
18.00 18.00 823.89 577.28 cl
0 0 0 srgb
1.49 setlinewidth
[] 0 setdash
0 setlinecap
1 setlinejoin
10.00 setmiterlimit
np
618.91 225.42 m
34.56 0 l
o
18.00 18.00 823.89 577.28 cl
18.00 18.00 823.89 577.28 cl
0 0 0 srgb
1.49 setlinewidth
[] 0 setdash
0 setlinecap
1 setlinejoin
10.00 setmiterlimit
np
618.91 225.42 m
34.56 0 l
o
18.00 18.00 823.89 577.28 cl
18.00 18.00 823.89 577.28 cl
/Font1 findfont 20 s
0 0 0 srgb
659.95 304.64 (FFR) 0 0 t
18.00 18.00 823.89 577.28 cl
18.00 18.00 823.89 577.28 cl
/Font1 findfont 20 s
0 0 0 srgb
659.95 287.36 (FRE) 0 0 t
18.00 18.00 823.89 577.28 cl
18.00 18.00 823.89 577.28 cl
/Font1 findfont 20 s
0 0 0 srgb
659.95 270.08 (BNRE I) 0 0 t
18.00 18.00 823.89 577.28 cl
18.00 18.00 823.89 577.28 cl
/Font1 findfont 20 s
0 0 0 srgb
659.95 252.80 (BNRE II) 0 0 t
18.00 18.00 823.89 577.28 cl
18.00 18.00 823.89 577.28 cl
/Font1 findfont 20 s
0 0 0 srgb
659.95 235.52 (BTRE I) 0 0 t
18.00 18.00 823.89 577.28 cl
18.00 18.00 823.89 577.28 cl
/Font1 findfont 20 s
0 0 0 srgb
659.95 218.24 (BTRE II) 0 0 t
18.00 18.00 823.89 577.28 cl
18.00 18.00 823.89 577.28 cl
18.00 18.00 823.89 577.28 cl
18.00 18.00 823.89 577.28 cl
18.00 18.00 823.89 577.28 cl
18.00 18.00 823.89 577.28 cl
18.00 18.00 823.89 577.28 cl
18.00 18.00 823.89 577.28 cl
18.00 18.00 823.89 577.28 cl
18.00 18.00 823.89 577.28 cl
ep
%%Trailer
%%Pages: 1
%%EOF
