%!PS-Adobe-3.0
%%DocumentNeededResources: font Helvetica
%%+ font Helvetica-Bold
%%+ font Helvetica-Oblique
%%+ font Helvetica-BoldOblique
%%+ font Symbol
%%DocumentMedia: a4 595 841 0 () ()
%%Title: R Graphics Output
%%Creator: R Software
%%Pages: (atend)
%%Orientation: Landscape
%%BoundingBox: 18 18 577 824
%%EndComments
%%BeginProlog
/bp  { gs sRGB 595.00 0 translate 90 rotate gs } def
% begin .ps.prolog
/gs  { gsave } bind def
/gr  { grestore } bind def
/ep  { showpage gr gr } bind def
/m   { moveto } bind def
/l  { rlineto } bind def
/np  { newpath } bind def
/cp  { closepath } bind def
/f   { fill } bind def
/o   { stroke } bind def
/c   { newpath 0 360 arc } bind def
/r   { 4 2 roll moveto 1 copy 3 -1 roll exch 0 exch rlineto 0 rlineto -1 mul 0 exch rlineto closepath } bind def
/p1  { stroke } bind def
/p2  { gsave bg fill grestore newpath } bind def
/p3  { gsave bg fill grestore stroke } bind def
/p6  { gsave bg eofill grestore newpath } bind def
/p7  { gsave bg eofill grestore stroke } bind def
/t   { 5 -2 roll moveto gsave rotate
       1 index stringwidth pop
       mul neg 0 rmoveto show grestore } bind def
/ta  { 4 -2 roll moveto gsave rotate show } bind def
/tb  { 2 -1 roll 0 rmoveto show } bind def
/cl  { grestore gsave newpath 3 index 3 index moveto 1 index
       4 -1 roll lineto  exch 1 index lineto lineto
       closepath clip newpath } bind def
/rgb { setrgbcolor } bind def
/s   { scalefont setfont } bind def
% end   .ps.prolog
/sRGB { [ /CIEBasedABC
          << /DecodeLMN
               [ { dup 0.03928 le
                        {12.92321 div}
                        {0.055 add 1.055 div 2.4 exp }
                     ifelse
                 } bind dup dup
               ]
             /MatrixLMN [0.412457 0.212673 0.019334
                         0.357576 0.715152 0.119192
                         0.180437 0.072175 0.950301]
             /WhitePoint [0.9505 1.0 1.0890]
           >>
         ] setcolorspace } bind def
/srgb { setcolor } bind def
%%IncludeResource: font Helvetica
/Helvetica findfont
dup length dict begin
  {1 index /FID ne {def} {pop pop} ifelse} forall
  /Encoding ISOLatin1Encoding def
  currentdict
  end
/Font1 exch definefont pop
%%IncludeResource: font Helvetica-Bold
/Helvetica-Bold findfont
dup length dict begin
  {1 index /FID ne {def} {pop pop} ifelse} forall
  /Encoding ISOLatin1Encoding def
  currentdict
  end
/Font2 exch definefont pop
%%IncludeResource: font Helvetica-Oblique
/Helvetica-Oblique findfont
dup length dict begin
  {1 index /FID ne {def} {pop pop} ifelse} forall
  /Encoding ISOLatin1Encoding def
  currentdict
  end
/Font3 exch definefont pop
%%IncludeResource: font Helvetica-BoldOblique
/Helvetica-BoldOblique findfont
dup length dict begin
  {1 index /FID ne {def} {pop pop} ifelse} forall
  /Encoding ISOLatin1Encoding def
  currentdict
  end
/Font4 exch definefont pop
%%IncludeResource: font Symbol
/Symbol findfont
dup length dict begin
  {1 index /FID ne {def} {pop pop} ifelse} forall
  currentdict
  end
/Font5 exch definefont pop
%%EndProlog
%%Page: 1 1
bp
18.00 18.00 823.89 577.28 cl
18.00 18.00 823.89 577.28 cl
18.00 18.00 823.89 577.28 cl
18.00 18.00 823.89 577.28 cl
18.00 18.00 823.89 577.28 cl
18.00 18.00 823.89 577.28 cl
18.00 18.00 823.89 577.28 cl
18.00 18.00 823.89 577.28 cl
18.00 18.00 823.89 577.28 cl
18.00 18.00 823.89 577.28 cl
/bg { 1 1 1 srgb } def
1 1 1 srgb
1.07 setlinewidth
[] 0 setdash
1 setlinecap
1 setlinejoin
10.00 setmiterlimit
18.00 18.00 805.89 559.28 r p3
18.00 18.00 823.89 577.28 cl
93.33 73.43 818.41 566.81 cl
/bg { 1 1 1 srgb } def
93.33 73.43 725.08 493.39 r p2
0.9216 0.9216 0.9216 srgb
0.53 setlinewidth
[] 0 setdash
0 setlinecap
1 setlinejoin
10.00 setmiterlimit
np
93.33 85.17 m
725.08 0 l
o
np
93.33 191.97 m
725.08 0 l
o
np
93.33 298.76 m
725.08 0 l
o
np
93.33 405.56 m
725.08 0 l
o
np
93.33 512.35 m
725.08 0 l
o
np
173.37 73.43 m
0 493.38 l
o
np
361.70 73.43 m
0 493.38 l
o
np
550.04 73.43 m
0 493.38 l
o
np
738.37 73.43 m
0 493.38 l
o
1.07 setlinewidth
[] 0 setdash
np
93.33 138.57 m
725.08 0 l
o
np
93.33 245.36 m
725.08 0 l
o
np
93.33 352.16 m
725.08 0 l
o
np
93.33 458.95 m
725.08 0 l
o
np
93.33 565.75 m
725.08 0 l
o
np
267.54 73.43 m
0 493.38 l
o
np
455.87 73.43 m
0 493.38 l
o
np
644.20 73.43 m
0 493.38 l
o
0.7451 0.7451 0.7451 srgb
1.00 setmiterlimit
np
126.29 136.68 m
47.08 94.32 l
47.08 72.12 l
47.09 22.19 l
47.08 22.19 l
47.08 22.19 l
47.09 11.10 l
o
np
126.29 199.54 m
47.08 52.84 l
47.08 46.96 l
47.09 35.23 l
47.08 29.35 l
47.08 23.49 l
o
np
126.29 151.68 m
47.08 82.49 l
47.08 54.99 l
94.17 76.99 l
47.08 16.50 l
o
np
126.29 167.06 m
47.08 94.85 l
47.08 50.59 l
47.09 31.62 l
47.08 25.29 l
o
np
126.29 221.48 m
47.08 64.20 l
47.08 32.09 l
47.09 32.10 l
47.08 25.68 l
47.08 25.68 l
47.09 19.25 l
o
np
126.29 191.40 m
47.08 79.65 l
47.08 42.88 l
47.09 42.89 l
47.08 24.51 l
47.08 18.38 l
o
np
126.29 192.23 m
47.08 71.51 l
47.08 65.01 l
47.09 58.51 l
47.08 32.50 l
47.08 19.50 l
47.09 19.51 l
o
np
126.29 177.09 m
94.16 145.65 l
47.09 42.47 l
47.08 24.28 l
o
np
173.37 242.73 m
47.08 54.40 l
47.09 42.30 l
47.08 30.23 l
47.08 24.17 l
o
np
173.37 260.78 m
47.08 50.39 l
47.09 31.50 l
47.08 31.50 l
47.08 18.90 l
o
np
267.54 328.79 m
47.08 33.61 l
47.08 28.01 l
47.09 22.40 l
47.08 16.81 l
47.08 16.80 l
o
np
126.29 144.64 m
47.08 87.06 l
47.08 63.85 l
47.09 52.24 l
47.08 29.02 l
47.08 17.41 l
47.09 17.42 l
o
np
126.29 172.51 m
47.08 59.37 l
47.08 65.31 l
47.09 53.44 l
47.08 35.62 l
o
np
126.29 165.97 m
47.08 82.87 l
47.08 47.36 l
47.09 47.35 l
47.08 29.60 l
47.08 17.76 l
47.09 17.76 l
o
np
126.29 163.47 m
47.08 96.37 l
47.08 54.21 l
47.09 36.14 l
47.08 24.10 l
o
np
126.29 162.86 m
47.08 79.26 l
47.08 50.95 l
47.09 45.29 l
47.08 28.31 l
47.08 22.65 l
47.09 11.32 l
o
np
173.37 299.03 m
47.08 46.81 l
47.09 40.12 l
47.08 26.74 l
47.08 20.06 l
o
np
126.29 193.25 m
47.08 71.82 l
47.08 78.36 l
47.09 45.71 l
47.08 32.65 l
47.08 19.59 l
47.09 13.06 l
o
np
126.29 198.33 m
47.08 67.63 l
94.17 98.37 l
47.08 24.60 l
47.08 18.44 l
47.09 12.30 l
47.08 12.29 l
47.08 12.30 l
o
np
126.29 208.94 m
47.08 67.84 l
47.08 94.98 l
47.09 33.92 l
o
np
126.29 243.17 m
47.08 51.81 l
47.08 58.29 l
47.09 25.90 l
47.08 25.91 l
47.08 19.43 l
o
np
126.29 194.15 m
47.08 72.45 l
47.08 48.30 l
47.09 30.19 l
47.08 18.12 l
o
np
126.29 202.61 m
47.08 71.37 l
47.08 47.58 l
47.09 41.64 l
47.08 47.58 l
47.08 29.74 l
47.09 17.84 l
47.08 17.84 l
47.08 17.85 l
o
np
126.29 191.88 m
47.08 56.79 l
47.08 50.48 l
47.09 44.18 l
47.08 31.55 l
47.08 25.24 l
47.09 18.93 l
47.08 12.62 l
47.08 12.62 l
o
np
126.29 166.49 m
47.08 83.08 l
47.08 59.35 l
47.09 53.41 l
47.08 29.68 l
47.08 29.67 l
47.09 11.87 l
47.08 11.87 l
47.08 11.87 l
o
np
126.29 221.43 m
47.08 55.51 l
47.08 76.33 l
47.09 41.63 l
47.08 13.88 l
47.08 13.87 l
o
np
126.29 155.94 m
47.08 95.62 l
47.08 47.81 l
47.09 59.76 l
47.08 35.85 l
47.08 35.86 l
47.09 29.88 l
47.08 23.91 l
47.08 23.90 l
47.09 11.95 l
47.08 11.96 l
47.08 5.97 l
o
np
126.29 217.56 m
47.08 88.49 l
47.08 37.93 l
47.09 31.61 l
47.08 31.61 l
47.08 18.96 l
47.09 18.96 l
47.08 18.97 l
47.08 18.96 l
47.09 18.97 l
47.08 12.64 l
o
np
126.29 174.36 m
47.08 81.54 l
47.08 34.94 l
47.09 58.24 l
47.08 34.94 l
47.08 34.95 l
47.09 11.65 l
47.08 17.47 l
47.08 11.65 l
47.09 11.64 l
47.08 11.65 l
o
np
126.29 158.98 m
47.08 97.14 l
47.08 72.85 l
47.09 48.57 l
47.08 42.50 l
47.08 36.43 l
47.09 24.28 l
47.08 24.29 l
47.08 18.21 l
47.09 12.14 l
47.08 6.07 l
o
np
126.29 170.68 m
47.08 88.27 l
47.08 52.97 l
47.09 29.42 l
47.08 11.77 l
47.08 23.54 l
47.09 17.66 l
o
np
126.29 204.22 m
47.08 55.27 l
47.08 61.42 l
47.09 30.70 l
47.08 30.71 l
47.08 18.43 l
47.09 12.28 l
47.08 12.28 l
o
np
126.29 153.81 m
47.08 71.56 l
47.08 30.67 l
47.09 35.77 l
47.08 30.67 l
47.08 25.56 l
47.09 25.55 l
47.08 15.34 l
o
np
126.29 204.60 m
47.08 65.97 l
47.08 41.98 l
47.09 29.99 l
47.08 29.99 l
47.08 17.99 l
47.09 11.99 l
o
np
126.29 150.27 m
47.08 68.92 l
47.08 47.72 l
47.09 47.71 l
47.08 26.51 l
47.08 37.11 l
47.09 15.91 l
47.08 21.21 l
47.08 21.20 l
o
np
126.29 243.66 m
47.08 69.74 l
47.08 44.38 l
47.09 25.36 l
47.08 31.70 l
47.08 31.70 l
47.09 12.68 l
47.08 12.68 l
47.08 6.34 l
o
np
126.29 207.21 m
47.08 66.69 l
47.08 36.38 l
47.09 36.37 l
47.08 18.19 l
47.08 18.19 l
47.09 12.13 l
47.08 18.18 l
47.08 12.13 l
o
np
126.29 179.74 m
47.08 51.20 l
47.08 40.96 l
47.09 25.60 l
o
np
126.29 165.15 m
47.08 70.43 l
47.08 32.50 l
47.09 27.09 l
47.08 16.25 l
o
np
126.29 198.14 m
47.08 95.77 l
47.08 41.90 l
47.09 35.92 l
47.08 23.94 l
47.08 17.96 l
47.09 17.95 l
47.08 11.97 l
47.08 11.98 l
o
np
126.29 152.74 m
47.08 45.58 l
47.08 68.38 l
47.09 34.19 l
o
np
126.29 169.81 m
47.08 79.77 l
47.08 79.76 l
47.09 34.19 l
47.08 22.79 l
47.08 11.39 l
47.09 17.09 l
47.08 11.40 l
o
np
126.29 139.84 m
47.08 37.87 l
47.08 47.34 l
47.09 23.66 l
o
np
126.29 158.06 m
141.25 187.49 l
47.08 41.01 l
47.08 35.16 l
47.09 23.44 l
47.08 11.71 l
47.08 11.72 l
47.09 5.86 l
o
np
126.29 136.47 m
47.08 69.78 l
47.08 59.04 l
47.09 32.21 l
47.08 21.47 l
o
np
126.29 149.25 m
47.08 98.03 l
47.08 51.91 l
47.09 28.83 l
47.08 28.84 l
47.08 23.06 l
47.09 23.07 l
47.08 11.54 l
47.08 17.30 l
o
np
126.29 134.18 m
47.08 67.79 l
47.08 45.19 l
47.09 22.60 l
47.08 16.95 l
o
np
126.29 174.86 m
47.08 68.16 l
47.08 45.44 l
47.09 56.80 l
47.08 28.40 l
47.08 22.72 l
47.09 17.04 l
o
np
126.29 193.03 m
47.08 65.24 l
47.08 58.72 l
47.09 39.14 l
47.08 26.09 l
47.08 26.10 l
47.09 19.57 l
47.08 19.57 l
47.08 13.05 l
47.09 13.05 l
47.08 13.04 l
o
np
126.29 170.43 m
47.08 50.18 l
47.08 30.11 l
47.09 25.09 l
47.08 15.05 l
o
np
126.29 142.98 m
47.08 62.64 l
47.08 48.19 l
47.09 19.27 l
o
np
126.29 174.84 m
47.08 73.83 l
47.08 62.47 l
47.09 28.40 l
47.08 22.72 l
47.08 22.71 l
47.09 17.04 l
o
np
126.29 147.18 m
47.08 70.64 l
47.08 70.63 l
47.09 35.32 l
47.08 23.55 l
47.08 11.77 l
o
np
126.29 157.74 m
47.08 52.64 l
47.08 46.80 l
47.09 40.95 l
47.08 46.79 l
47.08 23.40 l
47.09 17.55 l
o
np
126.29 152.55 m
47.08 66.00 l
47.08 76.15 l
47.09 25.39 l
47.08 15.23 l
47.08 10.15 l
o
np
126.29 146.40 m
47.08 56.78 l
47.08 45.42 l
47.09 68.14 l
47.08 28.39 l
47.08 17.03 l
o
np
126.29 176.54 m
47.08 52.96 l
47.08 52.96 l
47.09 26.48 l
47.08 21.19 l
47.08 15.88 l
47.09 15.89 l
o
np
126.29 167.44 m
47.08 52.14 l
47.08 63.72 l
47.09 40.54 l
47.08 23.17 l
47.08 23.18 l
47.09 17.37 l
o
np
126.29 194.81 m
47.08 42.81 l
47.08 53.51 l
47.09 26.76 l
47.08 21.41 l
47.08 10.70 l
o
np
126.29 178.71 m
47.08 80.25 l
47.08 48.16 l
47.09 37.45 l
47.08 21.40 l
47.08 16.05 l
47.09 10.70 l
o
np
126.29 199.11 m
47.08 51.45 l
47.08 57.18 l
47.09 34.30 l
47.08 11.44 l
47.08 11.43 l
47.09 11.43 l
o
np
126.29 150.33 m
47.08 58.34 l
47.08 47.73 l
47.09 26.52 l
47.08 15.91 l
o
np
126.29 175.63 m
47.08 84.38 l
47.08 36.15 l
47.09 24.11 l
47.08 18.08 l
47.08 12.05 l
o
np
126.29 166.30 m
47.08 91.05 l
47.08 39.02 l
47.09 45.52 l
47.08 32.52 l
47.08 26.01 l
47.09 19.51 l
47.08 19.51 l
47.08 13.01 l
o
np
126.29 148.36 m
47.08 47.22 l
47.08 31.49 l
47.09 26.23 l
47.08 15.74 l
o
np
126.29 147.02 m
47.08 52.09 l
47.08 57.30 l
47.09 20.84 l
47.08 20.84 l
o
np
126.29 179.41 m
47.08 73.61 l
47.08 55.21 l
47.09 36.80 l
47.08 24.54 l
47.08 12.27 l
47.09 12.27 l
47.08 12.27 l
47.08 12.26 l
o
np
126.29 198.96 m
47.08 74.28 l
47.08 39.99 l
47.09 28.57 l
47.08 34.28 l
47.08 22.85 l
47.09 22.86 l
47.08 17.14 l
47.08 17.14 l
47.09 5.71 l
o
np
126.29 176.42 m
47.08 72.59 l
47.08 60.49 l
47.09 42.35 l
47.08 42.34 l
47.08 24.20 l
47.09 12.09 l
47.08 12.10 l
o
np
126.29 215.34 m
47.08 40.80 l
47.08 34.98 l
47.09 29.14 l
47.08 29.14 l
47.08 29.15 l
47.09 17.48 l
o
np
126.29 165.83 m
47.08 60.95 l
47.08 54.85 l
47.09 42.67 l
47.08 36.56 l
47.08 24.38 l
47.09 24.38 l
47.08 18.29 l
47.08 18.28 l
47.09 18.29 l
47.08 18.28 l
o
np
126.29 187.05 m
47.08 77.82 l
47.08 55.58 l
47.09 27.80 l
47.08 27.79 l
47.08 16.67 l
47.09 11.12 l
o
np
126.29 158.27 m
47.08 84.69 l
47.08 78.64 l
47.09 42.34 l
47.08 36.30 l
47.08 12.10 l
47.09 12.10 l
47.08 18.14 l
o
np
126.29 165.22 m
47.08 73.87 l
47.08 63.32 l
47.09 36.94 l
47.08 36.93 l
47.08 26.39 l
47.09 10.55 l
47.08 10.55 l
o
np
126.29 170.38 m
47.08 75.78 l
47.08 70.37 l
47.09 43.30 l
47.08 32.47 l
47.08 21.65 l
o
np
126.29 190.47 m
47.08 86.32 l
47.08 53.12 l
47.09 33.20 l
47.08 19.92 l
47.08 13.28 l
47.09 13.29 l
o
np
126.29 171.38 m
47.08 110.23 l
47.08 34.45 l
47.09 13.78 l
o
np
126.29 190.17 m
47.08 55.00 l
47.08 65.99 l
47.09 38.49 l
47.08 22.00 l
47.08 16.50 l
o
np
126.29 164.72 m
47.08 62.87 l
47.08 62.86 l
47.09 45.72 l
47.08 28.57 l
47.08 22.86 l
47.09 17.15 l
47.08 17.14 l
o
np
126.29 198.69 m
47.08 70.19 l
47.08 40.95 l
47.09 40.94 l
47.08 23.40 l
47.08 11.70 l
47.09 11.70 l
o
np
173.37 249.15 m
47.08 33.47 l
47.09 33.46 l
47.08 27.89 l
o
np
126.29 244.11 m
47.08 59.87 l
47.08 53.22 l
47.09 39.92 l
47.08 33.26 l
47.08 19.96 l
47.09 26.61 l
47.08 19.96 l
o
np
126.29 166.29 m
47.08 69.29 l
47.08 62.99 l
47.09 44.10 l
47.08 25.20 l
47.08 25.20 l
47.09 12.59 l
o
np
126.29 212.44 m
47.08 56.62 l
47.08 56.63 l
47.09 35.39 l
47.08 28.31 l
47.08 14.15 l
47.09 14.16 l
o
np
126.29 174.13 m
47.08 98.55 l
47.08 49.27 l
47.09 43.12 l
47.08 24.64 l
47.08 18.48 l
47.09 12.32 l
o
np
126.29 169.16 m
47.08 68.15 l
47.08 51.12 l
47.09 45.43 l
47.08 28.40 l
47.08 28.39 l
47.09 11.36 l
o
np
126.29 181.14 m
47.08 76.04 l
47.08 40.95 l
47.09 46.79 l
47.08 23.40 l
47.08 23.40 l
o
np
126.29 155.13 m
47.08 70.72 l
47.08 65.29 l
47.09 32.65 l
47.08 21.76 l
o
np
126.29 153.17 m
47.08 85.11 l
47.08 60.80 l
47.09 48.63 l
47.08 30.40 l
47.08 18.24 l
47.09 18.24 l
47.08 18.24 l
47.08 12.16 l
47.09 12.16 l
o
np
126.29 169.15 m
47.08 93.46 l
47.08 64.26 l
47.09 46.73 l
47.08 40.89 l
47.08 23.36 l
47.09 23.37 l
47.08 17.52 l
o
np
126.29 193.64 m
47.08 54.23 l
47.08 30.12 l
47.09 30.12 l
47.08 24.10 l
47.08 30.13 l
47.09 42.17 l
47.08 24.10 l
47.08 24.10 l
47.09 18.07 l
47.08 12.05 l
o
np
126.29 177.49 m
47.08 51.90 l
47.08 51.90 l
47.09 46.71 l
47.08 36.34 l
47.08 25.95 l
47.09 15.57 l
o
np
126.29 194.45 m
47.08 47.13 l
47.08 41.23 l
47.09 35.35 l
47.08 35.34 l
47.08 35.35 l
47.09 23.56 l
47.08 23.56 l
o
np
126.29 207.88 m
47.08 65.73 l
47.08 32.86 l
47.09 52.58 l
47.08 32.86 l
47.08 26.29 l
47.09 19.72 l
47.08 26.29 l
47.08 19.71 l
47.09 13.15 l
o
np
126.29 178.69 m
47.08 64.20 l
47.08 48.15 l
47.09 48.14 l
47.08 21.40 l
47.08 16.05 l
47.09 16.05 l
47.08 16.05 l
47.08 10.70 l
o
np
126.29 158.71 m
47.08 66.69 l
47.08 72.75 l
47.09 42.44 l
47.08 36.38 l
47.08 30.31 l
47.09 18.19 l
o
np
126.29 180.93 m
47.08 84.09 l
47.08 60.06 l
47.09 42.04 l
47.08 30.04 l
47.08 18.01 l
47.09 18.02 l
47.08 12.02 l
47.08 12.01 l
o
np
126.29 184.01 m
47.08 68.54 l
47.08 61.68 l
47.09 41.12 l
47.08 34.27 l
47.08 20.56 l
47.09 13.71 l
o
np
126.29 148.10 m
47.08 80.90 l
47.08 64.73 l
47.09 32.36 l
47.08 26.97 l
47.08 10.79 l
o
np
126.29 150.58 m
47.08 53.11 l
47.08 42.48 l
47.09 37.18 l
47.08 37.18 l
47.08 42.48 l
47.09 26.56 l
o
np
126.29 160.17 m
47.08 88.85 l
47.08 65.15 l
47.09 35.54 l
47.08 29.62 l
47.08 29.62 l
47.09 23.69 l
o
np
126.29 163.12 m
47.08 68.20 l
47.08 43.41 l
47.09 62.00 l
47.08 24.80 l
47.08 18.60 l
o
np
126.29 200.02 m
47.08 76.48 l
47.08 47.07 l
47.09 41.18 l
47.08 41.18 l
47.08 17.65 l
47.09 17.65 l
47.08 17.65 l
47.08 17.65 l
47.09 17.65 l
o
np
126.29 163.90 m
47.08 59.22 l
47.08 43.07 l
47.09 37.69 l
47.08 21.54 l
o
np
126.29 190.47 m
47.08 73.22 l
47.08 36.61 l
47.09 36.62 l
47.08 30.51 l
47.08 36.61 l
47.09 30.51 l
47.08 12.20 l
o
np
126.29 169.18 m
47.08 68.16 l
47.08 51.12 l
47.09 39.76 l
47.08 22.72 l
47.08 22.72 l
47.09 22.72 l
47.08 11.36 l
47.08 11.36 l
o
np
126.29 192.15 m
47.08 58.49 l
47.08 64.98 l
47.09 38.99 l
47.08 32.50 l
47.08 38.99 l
47.09 25.99 l
47.08 13.00 l
47.08 6.50 l
47.09 6.49 l
o
np
126.29 167.36 m
47.08 87.63 l
47.08 32.86 l
47.09 43.82 l
47.08 43.81 l
47.08 27.39 l
47.09 16.43 l
o
np
126.29 205.23 m
47.08 96.21 l
47.08 75.60 l
47.09 34.36 l
47.08 20.62 l
47.08 13.74 l
47.09 13.75 l
47.08 13.74 l
47.08 13.75 l
47.09 13.74 l
47.08 6.87 l
o
np
126.29 152.07 m
47.08 84.62 l
47.08 48.35 l
47.09 48.35 l
47.08 30.22 l
47.08 18.13 l
47.09 18.14 l
o
np
126.29 183.16 m
47.08 60.69 l
47.08 48.54 l
47.09 48.55 l
47.08 24.27 l
47.08 24.28 l
47.09 12.13 l
o
np
126.29 194.47 m
47.08 71.80 l
47.08 57.44 l
47.09 35.90 l
47.08 28.72 l
47.08 21.54 l
47.09 21.54 l
47.08 21.54 l
47.08 14.36 l
47.09 14.37 l
o
np
126.29 173.68 m
47.08 75.99 l
47.08 50.67 l
47.09 56.99 l
47.08 25.33 l
47.08 19.00 l
47.09 12.66 l
47.08 12.67 l
o
np
126.29 146.19 m
47.08 78.64 l
47.08 66.54 l
47.09 54.45 l
47.08 24.20 l
47.08 30.24 l
47.09 24.20 l
47.08 36.30 l
47.08 18.15 l
47.09 12.09 l
47.08 18.15 l
47.08 12.10 l
o
np
126.29 152.44 m
47.08 66.26 l
47.08 55.22 l
47.09 55.22 l
47.08 38.65 l
47.08 16.56 l
47.09 16.57 l
o
np
126.29 204.02 m
47.08 77.62 l
47.08 58.21 l
47.09 38.81 l
47.08 25.87 l
47.08 19.40 l
47.09 25.88 l
47.08 19.40 l
47.08 12.94 l
47.09 12.93 l
47.08 12.94 l
o
np
126.29 164.77 m
47.08 60.63 l
47.08 66.69 l
47.09 48.50 l
47.08 30.31 l
47.08 24.26 l
47.09 24.25 l
o
np
126.29 203.72 m
47.08 71.70 l
47.08 47.80 l
47.09 41.83 l
47.08 23.90 l
47.08 23.90 l
47.09 17.93 l
47.08 17.93 l
o
np
126.29 210.72 m
47.08 61.51 l
47.08 36.90 l
47.09 30.75 l
47.08 30.75 l
47.08 24.60 l
47.09 30.76 l
47.08 24.60 l
47.08 24.60 l
47.09 12.30 l
o
np
126.29 186.32 m
47.08 73.88 l
47.08 73.87 l
47.09 59.10 l
47.08 36.94 l
47.08 14.77 l
47.09 22.17 l
47.08 14.77 l
47.08 14.78 l
o
np
126.29 191.07 m
47.08 69.65 l
47.08 46.44 l
47.09 40.63 l
47.08 23.22 l
47.08 29.02 l
47.09 17.41 l
o
np
126.29 194.74 m
47.08 72.94 l
47.08 39.27 l
47.09 28.06 l
47.08 33.66 l
47.08 22.44 l
47.09 16.84 l
47.08 11.22 l
o
np
126.29 158.97 m
47.08 47.25 l
47.08 47.25 l
47.09 47.26 l
47.08 26.25 l
47.08 31.50 l
47.09 26.25 l
47.08 21.00 l
o
np
126.29 186.20 m
47.08 68.56 l
47.08 47.46 l
47.09 42.19 l
47.08 21.09 l
47.08 21.10 l
47.09 10.54 l
o
np
126.29 166.82 m
47.08 79.62 l
47.08 55.12 l
47.09 42.88 l
47.08 42.87 l
47.08 24.50 l
47.09 18.37 l
47.08 18.38 l
o
np
126.29 185.85 m
47.08 73.71 l
47.08 47.39 l
47.09 36.86 l
47.08 26.33 l
47.08 31.59 l
47.09 21.06 l
o
np
126.29 147.23 m
47.08 85.18 l
47.08 60.85 l
47.09 48.67 l
47.08 30.42 l
47.08 12.17 l
o
np
126.29 134.36 m
47.08 74.23 l
47.08 53.01 l
47.09 37.12 l
47.08 31.81 l
47.08 31.81 l
47.09 21.21 l
47.08 37.11 l
47.08 15.90 l
o
np
126.29 198.47 m
47.08 80.15 l
47.08 33.39 l
47.09 46.76 l
47.08 26.71 l
47.08 26.72 l
47.09 20.04 l
47.08 13.35 l
o
np
126.29 209.66 m
47.08 65.72 l
47.08 47.80 l
47.09 29.87 l
47.08 17.93 l
47.08 11.95 l
o
np
126.29 153.32 m
47.08 79.09 l
47.08 48.68 l
47.09 42.59 l
47.08 36.50 l
47.08 18.26 l
o
np
126.29 164.12 m
47.08 68.37 l
47.08 51.28 l
47.09 51.27 l
47.08 22.79 l
47.08 34.19 l
47.09 17.09 l
o
np
126.29 222.97 m
47.08 54.06 l
47.08 42.04 l
47.09 36.04 l
47.08 36.04 l
47.08 30.03 l
47.09 18.02 l
47.08 12.01 l
o
np
126.29 149.33 m
47.08 92.32 l
47.08 51.92 l
47.09 46.16 l
47.08 23.08 l
47.08 23.08 l
47.09 11.54 l
47.08 17.31 l
o
np
126.29 167.35 m
47.08 75.99 l
47.08 57.00 l
47.09 44.32 l
47.08 38.00 l
47.08 25.33 l
47.09 12.67 l
o
np
126.29 183.32 m
47.08 69.04 l
47.08 28.76 l
47.09 46.03 l
47.08 23.01 l
47.08 28.77 l
47.09 17.26 l
o
np
126.29 193.91 m
47.08 76.41 l
47.08 49.11 l
47.09 49.12 l
47.08 27.29 l
47.08 21.83 l
47.09 16.37 l
47.08 10.91 l
o
np
126.29 190.05 m
47.08 81.94 l
47.08 68.29 l
47.09 40.97 l
47.08 27.31 l
47.08 13.66 l
o
np
126.29 189.02 m
47.08 72.76 l
47.08 72.75 l
47.09 30.31 l
47.08 36.38 l
47.08 18.19 l
47.09 12.12 l
o
np
126.29 205.69 m
47.08 67.97 l
47.08 30.89 l
47.09 43.26 l
47.08 18.54 l
47.08 18.53 l
47.09 12.36 l
o
np
126.29 159.73 m
47.08 66.86 l
47.08 72.44 l
47.09 55.72 l
47.08 33.44 l
47.08 22.28 l
47.09 16.72 l
47.08 16.72 l
47.08 16.71 l
o
np
126.29 191.32 m
47.08 77.52 l
47.08 53.67 l
47.09 41.75 l
47.08 17.89 l
47.08 17.89 l
o
np
126.29 152.08 m
47.08 79.49 l
47.08 56.78 l
47.09 45.42 l
47.08 28.39 l
o
np
126.29 187.00 m
47.08 60.08 l
47.08 66.08 l
47.09 30.04 l
47.08 24.04 l
47.08 30.03 l
47.09 18.03 l
47.08 12.01 l
o
np
126.29 222.97 m
47.08 60.07 l
47.08 54.05 l
47.09 36.04 l
47.08 30.03 l
47.08 18.02 l
47.09 24.03 l
47.08 12.01 l
o
np
126.29 171.74 m
47.08 80.51 l
47.08 51.76 l
47.09 46.01 l
47.08 34.50 l
47.08 23.01 l
47.09 11.50 l
o
np
126.29 191.88 m
47.08 82.03 l
47.08 44.18 l
47.09 44.17 l
47.08 31.55 l
47.08 25.24 l
47.09 12.62 l
47.08 12.62 l
o
np
126.29 173.68 m
47.08 71.49 l
47.08 38.49 l
47.09 38.50 l
47.08 38.49 l
47.08 22.00 l
47.09 11.00 l
o
np
126.29 184.88 m
47.08 55.04 l
47.08 44.04 l
47.09 60.55 l
47.08 33.02 l
47.08 27.53 l
47.09 27.52 l
47.08 22.02 l
47.08 22.01 l
47.09 11.01 l
o
np
126.29 246.61 m
47.08 67.12 l
47.08 40.27 l
47.09 33.56 l
47.08 20.14 l
47.08 13.42 l
47.09 13.43 l
47.08 13.42 l
o
np
126.29 159.96 m
47.08 55.79 l
47.08 50.21 l
47.09 44.63 l
47.08 44.63 l
47.08 27.89 l
47.09 33.48 l
47.08 11.15 l
o
np
126.29 171.56 m
47.08 55.91 l
47.08 50.32 l
47.09 44.72 l
47.08 39.14 l
47.08 27.95 l
47.09 16.77 l
o
np
126.29 183.37 m
47.08 65.61 l
47.08 49.20 l
47.09 27.33 l
47.08 21.87 l
47.08 16.40 l
o
np
126.29 180.54 m
47.08 73.84 l
47.08 39.76 l
47.09 28.40 l
47.08 28.40 l
47.08 22.72 l
47.09 22.72 l
47.08 11.36 l
47.08 11.36 l
o
np
126.29 213.19 m
47.08 62.12 l
47.08 62.12 l
47.09 43.49 l
47.08 37.27 l
47.08 18.64 l
47.09 18.63 l
47.08 6.22 l
47.08 6.21 l
47.09 6.21 l
o
np
126.29 160.47 m
47.08 74.85 l
47.08 57.58 l
47.09 46.06 l
47.08 34.55 l
47.08 28.79 l
47.09 23.03 l
47.08 17.28 l
47.08 23.03 l
47.09 17.27 l
47.08 11.52 l
o
np
126.29 167.23 m
47.08 58.79 l
47.08 65.34 l
47.09 45.73 l
47.08 26.13 l
47.08 26.13 l
47.09 32.67 l
47.08 19.60 l
o
np
126.29 157.57 m
47.08 78.18 l
47.08 52.13 l
47.09 31.28 l
47.08 36.48 l
47.08 20.85 l
47.09 31.28 l
47.08 20.85 l
47.08 15.64 l
o
np
126.29 171.48 m
47.08 63.18 l
47.08 74.67 l
47.09 57.43 l
47.08 40.21 l
47.08 17.23 l
47.09 17.23 l
47.08 17.23 l
47.08 17.24 l
o
np
126.29 166.65 m
47.08 91.21 l
47.08 65.14 l
47.09 26.06 l
47.08 19.54 l
47.08 26.06 l
o
np
126.29 169.74 m
47.08 78.40 l
47.08 54.27 l
47.09 54.27 l
47.08 42.22 l
47.08 18.09 l
o
np
126.29 160.69 m
47.08 63.41 l
47.08 57.65 l
47.09 51.88 l
47.08 34.58 l
47.08 28.83 l
47.09 23.05 l
47.08 17.30 l
47.08 5.76 l
o
np
126.29 203.57 m
47.08 42.87 l
47.08 55.12 l
47.09 49.00 l
47.08 36.75 l
47.08 24.50 l
47.09 18.37 l
47.08 12.25 l
o
np
220.45 309.48 m
47.09 29.22 l
47.08 29.21 l
47.08 23.38 l
47.09 17.53 l
o
np
220.45 338.02 m
47.09 35.00 l
47.08 40.83 l
47.08 23.33 l
47.09 11.67 l
o
np
173.37 281.12 m
47.08 44.30 l
47.09 37.97 l
47.08 25.32 l
o
np
126.29 173.03 m
94.16 145.19 l
47.09 50.50 l
47.08 37.88 l
47.08 25.25 l
47.09 12.63 l
47.08 12.62 l
47.08 12.63 l
o
np
126.29 152.05 m
47.08 90.84 l
47.08 56.77 l
47.09 28.38 l
o
np
126.29 188.76 m
94.16 158.16 l
47.09 39.54 l
47.08 26.36 l
47.08 19.77 l
47.09 13.18 l
o
np
126.29 202.26 m
47.08 51.37 l
47.08 32.10 l
47.09 32.10 l
47.08 32.10 l
47.08 25.69 l
o
np
173.37 240.56 m
47.08 57.47 l
47.09 40.23 l
47.08 28.74 l
47.08 28.73 l
47.09 28.74 l
47.08 17.24 l
47.08 11.50 l
o
np
126.29 185.81 m
47.08 78.04 l
47.08 65.04 l
47.09 45.52 l
47.08 39.02 l
o
np
126.29 191.75 m
47.08 71.70 l
47.08 47.80 l
47.09 35.85 l
47.08 29.88 l
47.08 17.92 l
47.09 17.93 l
o
np
126.29 209.12 m
47.08 69.83 l
47.08 69.83 l
o
np
126.29 154.34 m
47.08 97.88 l
47.08 55.06 l
47.09 55.06 l
47.08 30.59 l
47.08 18.35 l
47.09 18.35 l
o
np
220.45 307.16 m
47.09 60.08 l
47.08 24.03 l
47.08 18.02 l
o
np
126.29 171.53 m
47.08 75.21 l
47.08 56.40 l
47.09 43.87 l
47.08 25.07 l
47.08 18.81 l
o
np
220.45 357.57 m
47.09 39.95 l
47.08 33.29 l
47.08 26.64 l
o
np
126.29 232.21 m
47.08 80.88 l
47.08 43.54 l
47.09 37.33 l
47.08 31.11 l
47.08 24.88 l
47.09 18.67 l
47.08 12.44 l
47.08 12.44 l
o
np
126.29 147.45 m
141.25 173.14 l
47.08 24.04 l
47.08 19.24 l
47.09 19.24 l
47.08 14.43 l
o
np
126.29 197.95 m
141.25 165.74 l
47.08 24.55 l
47.08 24.55 l
47.09 18.42 l
47.08 18.41 l
47.08 12.28 l
o
np
267.54 320.22 m
47.08 28.67 l
47.08 17.20 l
47.09 17.20 l
47.08 17.21 l
o
np
220.45 341.71 m
47.09 38.34 l
47.08 19.17 l
47.08 12.78 l
o
np
126.29 157.39 m
47.08 55.05 l
47.08 49.55 l
47.09 49.55 l
47.08 38.54 l
47.08 38.54 l
47.09 27.52 l
47.08 22.03 l
o
np
173.37 246.49 m
94.17 95.93 l
47.08 35.97 l
47.08 23.98 l
47.09 23.98 l
47.08 17.99 l
47.08 11.99 l
47.09 11.99 l
o
np
126.29 172.86 m
47.08 88.31 l
47.08 50.47 l
47.09 50.46 l
47.08 37.85 l
47.08 18.92 l
47.09 18.92 l
o
np
173.37 269.67 m
47.08 43.56 l
47.09 24.90 l
47.08 18.67 l
o
np
126.29 190.19 m
47.08 91.41 l
47.08 54.84 l
47.09 48.76 l
o
np
126.29 178.27 m
47.08 91.53 l
47.08 61.02 l
47.09 30.51 l
47.08 30.51 l
47.08 30.51 l
47.09 30.51 l
47.08 18.30 l
47.08 12.20 l
o
np
126.29 192.86 m
47.08 50.08 l
47.08 55.65 l
47.09 27.82 l
47.08 22.26 l
47.08 22.26 l
o
np
220.45 327.26 m
47.09 35.67 l
47.08 29.71 l
47.08 23.78 l
47.09 17.83 l
o
np
126.29 175.64 m
47.08 83.10 l
47.08 63.92 l
47.09 44.75 l
47.08 25.56 l
47.08 19.18 l
47.09 19.18 l
47.08 19.17 l
47.08 12.79 l
47.09 12.78 l
o
np
126.29 179.71 m
47.08 56.91 l
o
np
126.29 154.63 m
47.08 47.48 l
47.08 41.55 l
47.09 41.55 l
47.08 41.54 l
47.08 17.81 l
o
np
126.29 202.20 m
47.08 81.10 l
47.08 40.54 l
47.09 23.17 l
47.08 17.38 l
47.08 17.38 l
47.09 5.79 l
o
np
126.29 134.24 m
47.08 92.97 l
47.08 65.63 l
47.09 49.22 l
47.08 21.88 l
47.08 16.41 l
47.09 16.40 l
o
np
173.37 228.29 m
47.08 57.30 l
47.09 40.11 l
47.08 28.65 l
47.08 40.11 l
47.09 28.65 l
47.08 11.46 l
47.08 11.46 l
47.09 11.46 l
o
np
126.29 179.20 m
47.08 60.50 l
47.08 38.50 l
47.09 27.50 l
47.08 27.50 l
47.08 16.50 l
o
np
126.29 171.57 m
47.08 66.93 l
47.08 36.50 l
47.09 54.76 l
47.08 18.25 l
47.08 18.26 l
47.09 12.17 l
o
np
126.29 159.12 m
47.08 102.93 l
47.08 34.31 l
47.09 28.59 l
47.08 17.15 l
47.08 11.44 l
o
np
126.29 161.82 m
47.08 65.70 l
47.08 35.84 l
47.09 23.89 l
o
np
126.29 155.08 m
47.08 77.34 l
47.08 41.64 l
47.09 47.59 l
47.08 29.75 l
47.08 11.90 l
o
np
126.29 177.81 m
47.08 76.95 l
47.08 35.52 l
47.09 29.60 l
47.08 29.59 l
47.08 23.68 l
47.09 29.60 l
47.08 11.84 l
o
np
126.29 151.10 m
47.08 87.71 l
47.08 49.34 l
47.09 21.93 l
o
np
126.29 195.98 m
47.08 71.58 l
47.08 49.56 l
47.09 33.04 l
47.08 22.02 l
47.08 16.52 l
47.09 11.02 l
o
np
126.29 175.52 m
47.08 57.97 l
47.08 36.89 l
47.09 31.63 l
47.08 26.35 l
47.08 21.08 l
47.09 15.81 l
47.08 15.81 l
o
np
126.29 159.12 m
47.08 43.20 l
47.08 54.00 l
47.09 27.01 l
47.08 27.00 l
o
np
126.29 190.02 m
47.08 76.81 l
47.08 30.72 l
47.09 25.61 l
47.08 15.36 l
47.08 15.36 l
o
np
126.29 205.33 m
47.08 60.16 l
47.08 42.11 l
47.09 24.06 l
47.08 24.07 l
47.08 30.07 l
47.09 24.07 l
47.08 24.06 l
47.08 12.03 l
47.09 12.03 l
47.08 12.03 l
o
np
126.29 172.73 m
47.08 67.61 l
47.08 36.41 l
47.09 31.20 l
47.08 31.20 l
47.08 20.81 l
47.09 20.80 l
47.08 15.60 l
47.08 10.40 l
o
np
126.29 230.93 m
47.08 68.10 l
47.08 30.96 l
47.09 30.96 l
47.08 18.57 l
47.08 18.57 l
47.09 12.39 l
47.08 12.38 l
o
np
126.29 190.92 m
47.08 62.21 l
47.08 33.93 l
47.09 28.28 l
47.08 16.96 l
47.08 5.66 l
o
np
126.29 175.44 m
47.08 76.10 l
47.08 58.54 l
47.09 35.12 l
47.08 35.12 l
47.08 29.27 l
47.09 17.56 l
47.08 17.56 l
47.08 11.71 l
47.09 11.71 l
47.08 11.71 l
47.08 11.70 l
o
np
126.29 147.80 m
47.08 88.77 l
47.08 61.04 l
47.09 44.38 l
47.08 38.84 l
47.08 16.65 l
47.09 16.64 l
47.08 11.10 l
o
np
126.29 166.46 m
47.08 53.09 l
47.08 42.47 l
47.09 42.48 l
47.08 26.54 l
47.08 21.24 l
47.09 10.62 l
o
np
126.29 188.71 m
47.08 56.00 l
47.08 39.20 l
47.09 44.81 l
47.08 16.80 l
47.08 16.80 l
o
np
126.29 175.33 m
47.08 95.13 l
47.08 67.94 l
47.09 27.18 l
47.08 20.38 l
47.08 27.18 l
47.09 20.38 l
47.08 13.59 l
47.08 6.80 l
o
np
126.29 195.49 m
47.08 75.01 l
47.08 40.38 l
47.09 28.85 l
47.08 17.31 l
47.08 17.31 l
47.09 11.54 l
47.08 17.31 l
o
np
126.29 163.19 m
47.08 47.01 l
47.08 36.56 l
47.09 31.34 l
47.08 20.89 l
o
np
126.29 202.68 m
47.08 61.01 l
47.08 54.92 l
47.09 30.51 l
47.08 18.31 l
47.08 24.40 l
47.09 24.41 l
47.08 18.31 l
47.08 12.20 l
o
np
126.29 177.01 m
47.08 63.69 l
47.08 37.15 l
47.09 21.23 l
47.08 21.23 l
47.08 15.93 l
47.09 10.61 l
o
np
126.29 167.91 m
47.08 81.28 l
47.08 40.64 l
47.09 23.22 l
47.08 11.61 l
47.08 11.62 l
o
np
126.29 205.99 m
47.08 64.73 l
47.08 52.97 l
47.09 35.31 l
47.08 35.31 l
47.08 11.77 l
o
np
126.29 156.35 m
47.08 54.76 l
47.08 38.33 l
47.09 54.76 l
47.08 38.33 l
47.08 16.42 l
47.09 16.43 l
o
np
126.29 191.26 m
47.08 56.64 l
47.08 39.65 l
47.09 33.98 l
47.08 28.32 l
47.08 22.66 l
47.09 16.99 l
47.08 16.99 l
47.08 11.33 l
47.09 11.33 l
47.08 11.32 l
o
np
126.29 183.85 m
47.08 92.27 l
47.08 63.44 l
47.09 28.83 l
47.08 23.07 l
47.08 11.53 l
47.09 11.54 l
47.08 11.53 l
47.08 5.77 l
o
np
126.29 157.15 m
47.08 67.92 l
47.08 45.28 l
47.09 45.28 l
47.08 28.30 l
47.08 22.65 l
47.09 16.98 l
o
np
126.29 197.85 m
47.08 58.29 l
47.08 34.98 l
47.09 23.31 l
47.08 29.14 l
47.08 34.98 l
47.09 17.48 l
o
np
126.29 171.83 m
47.08 62.14 l
47.08 31.07 l
47.09 25.89 l
47.08 25.89 l
47.08 25.89 l
o
np
126.29 158.63 m
47.08 99.58 l
47.08 31.45 l
47.09 31.45 l
47.08 15.72 l
47.08 26.21 l
o
np
126.29 232.93 m
47.08 38.32 l
47.08 25.55 l
47.09 19.16 l
47.08 19.15 l
o
np
126.29 192.35 m
47.08 55.37 l
47.08 36.92 l
47.09 24.61 l
47.08 24.61 l
47.08 24.61 l
47.09 24.61 l
47.08 12.31 l
o
np
126.29 217.40 m
47.08 61.47 l
47.08 88.79 l
47.09 34.15 l
47.08 27.32 l
47.08 20.49 l
47.09 27.31 l
47.08 13.66 l
47.08 6.83 l
o
np
126.29 171.02 m
47.08 55.76 l
47.08 66.91 l
47.09 44.61 l
47.08 44.61 l
47.08 27.88 l
47.09 11.15 l
47.08 11.15 l
47.08 11.16 l
47.09 16.72 l
47.08 16.73 l
o
np
126.29 156.30 m
47.08 77.83 l
47.08 35.92 l
47.09 29.94 l
47.08 23.95 l
47.08 11.97 l
o
np
126.29 183.98 m
47.08 60.91 l
47.08 48.73 l
47.09 12.18 l
o
np
126.29 156.77 m
47.08 68.95 l
47.08 39.40 l
47.09 29.55 l
47.08 9.85 l
o
np
126.29 157.81 m
47.08 88.27 l
47.08 33.11 l
47.09 27.59 l
47.08 22.06 l
47.08 11.04 l
47.09 11.03 l
o
np
126.29 158.71 m
47.08 55.43 l
47.08 66.52 l
47.09 60.97 l
47.08 16.63 l
47.08 22.17 l
47.09 16.63 l
47.08 16.63 l
47.08 5.55 l
o
np
126.29 205.94 m
47.08 52.96 l
47.08 58.84 l
47.09 35.30 l
47.08 23.54 l
47.08 23.53 l
47.09 17.66 l
47.08 11.76 l
47.08 11.77 l
47.09 11.77 l
o
np
126.29 267.43 m
47.08 60.54 l
47.08 37.84 l
47.09 15.14 l
47.08 22.70 l
47.08 15.14 l
47.09 15.14 l
47.08 15.13 l
47.08 7.57 l
o
np
126.29 163.71 m
47.08 90.46 l
47.08 54.27 l
47.09 24.12 l
47.08 24.12 l
47.08 24.13 l
47.09 24.12 l
47.08 12.06 l
o
np
126.29 218.01 m
47.08 88.66 l
47.08 44.33 l
47.09 25.33 l
47.08 12.66 l
47.08 12.67 l
47.09 12.66 l
47.08 6.34 l
o
np
126.29 201.15 m
47.08 59.11 l
47.08 53.20 l
47.09 29.56 l
47.08 23.64 l
47.08 23.65 l
47.09 17.73 l
47.08 11.82 l
47.08 11.82 l
o
np
126.29 199.01 m
47.08 58.58 l
47.08 58.58 l
47.09 35.14 l
47.08 29.29 l
47.08 23.43 l
47.09 17.58 l
o
np
126.29 171.07 m
47.08 50.20 l
47.08 44.62 l
47.09 33.46 l
47.08 22.31 l
47.08 22.31 l
47.09 11.15 l
o
np
126.29 180.39 m
47.08 84.96 l
47.08 39.22 l
47.09 52.29 l
47.08 32.67 l
47.08 32.68 l
47.09 19.61 l
47.08 19.61 l
47.08 13.07 l
47.09 13.07 l
o
np
126.29 213.84 m
47.08 71.19 l
47.08 35.59 l
47.09 29.66 l
47.08 17.79 l
47.08 17.80 l
47.09 17.79 l
47.08 11.87 l
o
1 0 0 srgb
1.49 setlinewidth
[] 0 setdash
np
126.29 184.07 m
47.08 61.88 l
47.08 50.51 l
47.09 41.23 l
47.08 33.65 l
47.08 27.47 l
47.09 22.43 l
47.08 18.30 l
47.08 14.94 l
47.09 12.19 l
47.08 9.95 l
47.08 8.13 l
47.09 6.63 l
47.08 5.41 l
47.08 4.42 l
o
0 0.8039 0 srgb
np
126.29 185.37 m
47.08 67.20 l
47.08 50.65 l
47.09 38.16 l
47.08 28.76 l
47.08 21.68 l
47.09 16.33 l
47.08 12.31 l
47.08 9.28 l
47.09 6.99 l
47.08 5.27 l
47.08 3.97 l
47.09 2.99 l
47.08 2.26 l
47.08 1.70 l
o
0 0 1 srgb
np
126.29 184.14 m
47.08 61.79 l
47.08 50.46 l
47.09 41.21 l
47.08 33.66 l
47.08 27.48 l
47.09 22.45 l
47.08 18.33 l
47.08 14.98 l
47.09 12.22 l
47.08 9.99 l
47.08 8.15 l
47.09 6.66 l
47.08 5.44 l
47.08 4.44 l
o
0 1 1 srgb
np
126.29 185.07 m
47.08 68.77 l
47.08 51.92 l
47.09 39.18 l
47.08 29.58 l
47.08 22.32 l
47.09 16.86 l
47.08 12.72 l
47.08 9.60 l
47.09 7.25 l
47.08 5.47 l
47.08 4.13 l
47.09 3.11 l
47.08 2.36 l
47.08 1.77 l
o
1 0 1 srgb
np
126.29 181.87 m
47.08 65.56 l
47.08 52.03 l
47.09 41.30 l
47.08 32.79 l
47.08 26.02 l
47.09 20.65 l
47.08 16.39 l
47.08 13.02 l
47.09 10.32 l
47.08 8.20 l
47.08 6.51 l
47.09 5.16 l
47.08 4.10 l
47.08 3.26 l
o
0 0 0 srgb
np
126.29 182.41 m
47.08 69.31 l
47.08 52.41 l
47.09 39.63 l
47.08 29.97 l
47.08 22.66 l
47.09 17.14 l
47.08 12.96 l
47.08 9.79 l
47.09 7.41 l
47.08 5.61 l
47.08 4.24 l
47.09 3.20 l
47.08 2.42 l
47.08 1.83 l
o
0.2000 0.2000 0.2000 srgb
1.07 setlinewidth
[] 0 setdash
1 setlinecap
10.00 setmiterlimit
93.33 73.43 725.08 493.39 r p1
18.00 18.00 823.89 577.28 cl
18.00 18.00 823.89 577.28 cl
18.00 18.00 823.89 577.28 cl
18.00 18.00 823.89 577.28 cl
18.00 18.00 823.89 577.28 cl
18.00 18.00 823.89 577.28 cl
18.00 18.00 823.89 577.28 cl
18.00 18.00 823.89 577.28 cl
18.00 18.00 823.89 577.28 cl
18.00 18.00 823.89 577.28 cl
18.00 18.00 823.89 577.28 cl
18.00 18.00 823.89 577.28 cl
18.00 18.00 823.89 577.28 cl
18.00 18.00 823.89 577.28 cl
18.00 18.00 823.89 577.28 cl
18.00 18.00 823.89 577.28 cl
/Font1 findfont 22 s
0.3020 0.3020 0.3020 srgb
88.40 130.67 (25) 1 0 t
88.40 237.47 (50) 1 0 t
88.40 344.26 (75) 1 0 t
88.40 451.05 (100) 1 0 t
88.40 557.85 (125) 1 0 t
18.00 18.00 823.89 577.28 cl
18.00 18.00 823.89 577.28 cl
0.2000 0.2000 0.2000 srgb
1.07 setlinewidth
[] 0 setdash
0 setlinecap
1 setlinejoin
10.00 setmiterlimit
np
90.59 138.57 m
2.74 0 l
o
np
90.59 245.36 m
2.74 0 l
o
np
90.59 352.16 m
2.74 0 l
o
np
90.59 458.95 m
2.74 0 l
o
np
90.59 565.75 m
2.74 0 l
o
18.00 18.00 823.89 577.28 cl
18.00 18.00 823.89 577.28 cl
18.00 18.00 823.89 577.28 cl
18.00 18.00 823.89 577.28 cl
18.00 18.00 823.89 577.28 cl
18.00 18.00 823.89 577.28 cl
18.00 18.00 823.89 577.28 cl
18.00 18.00 823.89 577.28 cl
18.00 18.00 823.89 577.28 cl
18.00 18.00 823.89 577.28 cl
0.2000 0.2000 0.2000 srgb
1.07 setlinewidth
[] 0 setdash
0 setlinecap
1 setlinejoin
10.00 setmiterlimit
np
267.54 70.69 m
0 2.74 l
o
np
455.87 70.69 m
0 2.74 l
o
np
644.20 70.69 m
0 2.74 l
o
18.00 18.00 823.89 577.28 cl
18.00 18.00 823.89 577.28 cl
/Font1 findfont 22 s
0.3020 0.3020 0.3020 srgb
267.54 52.70 (4) .5 0 t
455.87 52.70 (8) .5 0 t
644.20 52.70 (12) .5 0 t
18.00 18.00 823.89 577.28 cl
18.00 18.00 823.89 577.28 cl
18.00 18.00 823.89 577.28 cl
18.00 18.00 823.89 577.28 cl
18.00 18.00 823.89 577.28 cl
18.00 18.00 823.89 577.28 cl
/Font1 findfont 28 s
0 0 0 srgb
455.87 27.12 (Age) .5 0 t
18.00 18.00 823.89 577.28 cl
18.00 18.00 823.89 577.28 cl
/Font1 findfont 28 s
0 0 0 srgb
43.58 320.12 (Length) .5 90 t
18.00 18.00 823.89 577.28 cl
18.00 18.00 823.89 577.28 cl
18.00 18.00 823.89 577.28 cl
18.00 18.00 823.89 577.28 cl
18.00 18.00 823.89 577.28 cl
18.00 18.00 823.89 577.28 cl
18.00 18.00 823.89 577.28 cl
18.00 18.00 823.89 577.28 cl
/bg { 1 1 1 srgb } def
608.93 211.11 128.94 119.34 r p2
18.00 18.00 823.89 577.28 cl
18.00 18.00 823.89 577.28 cl
18.00 18.00 823.89 577.28 cl
18.00 18.00 823.89 577.28 cl
/bg { 1 1 1 srgb } def
614.59 303.18 43.20 17.28 r p2
18.00 18.00 823.89 577.28 cl
18.00 18.00 823.89 577.28 cl
1 0 0 srgb
1.49 setlinewidth
[] 0 setdash
0 setlinecap
1 setlinejoin
10.00 setmiterlimit
np
618.91 311.82 m
34.56 0 l
o
18.00 18.00 823.89 577.28 cl
18.00 18.00 823.89 577.28 cl
1 0 0 srgb
1.49 setlinewidth
[] 0 setdash
0 setlinecap
1 setlinejoin
10.00 setmiterlimit
np
618.91 311.82 m
34.56 0 l
o
18.00 18.00 823.89 577.28 cl
18.00 18.00 823.89 577.28 cl
1 0 0 srgb
1.49 setlinewidth
[] 0 setdash
0 setlinecap
1 setlinejoin
10.00 setmiterlimit
np
618.91 311.82 m
34.56 0 l
o
18.00 18.00 823.89 577.28 cl
18.00 18.00 823.89 577.28 cl
1 0 0 srgb
1.49 setlinewidth
[] 0 setdash
0 setlinecap
1 setlinejoin
10.00 setmiterlimit
np
618.91 311.82 m
34.56 0 l
o
18.00 18.00 823.89 577.28 cl
18.00 18.00 823.89 577.28 cl
1 0 0 srgb
1.49 setlinewidth
[] 0 setdash
0 setlinecap
1 setlinejoin
10.00 setmiterlimit
np
618.91 311.82 m
34.56 0 l
o
18.00 18.00 823.89 577.28 cl
18.00 18.00 823.89 577.28 cl
1 0 0 srgb
1.49 setlinewidth
[] 0 setdash
0 setlinecap
1 setlinejoin
10.00 setmiterlimit
np
618.91 311.82 m
34.56 0 l
o
18.00 18.00 823.89 577.28 cl
18.00 18.00 823.89 577.28 cl
/bg { 1 1 1 srgb } def
614.59 285.90 43.20 17.28 r p2
18.00 18.00 823.89 577.28 cl
18.00 18.00 823.89 577.28 cl
0 0.8039 0 srgb
1.49 setlinewidth
[] 0 setdash
0 setlinecap
1 setlinejoin
10.00 setmiterlimit
np
618.91 294.54 m
34.56 0 l
o
18.00 18.00 823.89 577.28 cl
18.00 18.00 823.89 577.28 cl
0 0.8039 0 srgb
1.49 setlinewidth
[] 0 setdash
0 setlinecap
1 setlinejoin
10.00 setmiterlimit
np
618.91 294.54 m
34.56 0 l
o
18.00 18.00 823.89 577.28 cl
18.00 18.00 823.89 577.28 cl
0 0.8039 0 srgb
1.49 setlinewidth
[] 0 setdash
0 setlinecap
1 setlinejoin
10.00 setmiterlimit
np
618.91 294.54 m
34.56 0 l
o
18.00 18.00 823.89 577.28 cl
18.00 18.00 823.89 577.28 cl
0 0.8039 0 srgb
1.49 setlinewidth
[] 0 setdash
0 setlinecap
1 setlinejoin
10.00 setmiterlimit
np
618.91 294.54 m
34.56 0 l
o
18.00 18.00 823.89 577.28 cl
18.00 18.00 823.89 577.28 cl
0 0.8039 0 srgb
1.49 setlinewidth
[] 0 setdash
0 setlinecap
1 setlinejoin
10.00 setmiterlimit
np
618.91 294.54 m
34.56 0 l
o
18.00 18.00 823.89 577.28 cl
18.00 18.00 823.89 577.28 cl
0 0.8039 0 srgb
1.49 setlinewidth
[] 0 setdash
0 setlinecap
1 setlinejoin
10.00 setmiterlimit
np
618.91 294.54 m
34.56 0 l
o
18.00 18.00 823.89 577.28 cl
18.00 18.00 823.89 577.28 cl
/bg { 1 1 1 srgb } def
614.59 268.62 43.20 17.28 r p2
18.00 18.00 823.89 577.28 cl
18.00 18.00 823.89 577.28 cl
0 0 1 srgb
1.49 setlinewidth
[] 0 setdash
0 setlinecap
1 setlinejoin
10.00 setmiterlimit
np
618.91 277.26 m
34.56 0 l
o
18.00 18.00 823.89 577.28 cl
18.00 18.00 823.89 577.28 cl
0 0 1 srgb
1.49 setlinewidth
[] 0 setdash
0 setlinecap
1 setlinejoin
10.00 setmiterlimit
np
618.91 277.26 m
34.56 0 l
o
18.00 18.00 823.89 577.28 cl
18.00 18.00 823.89 577.28 cl
0 0 1 srgb
1.49 setlinewidth
[] 0 setdash
0 setlinecap
1 setlinejoin
10.00 setmiterlimit
np
618.91 277.26 m
34.56 0 l
o
18.00 18.00 823.89 577.28 cl
18.00 18.00 823.89 577.28 cl
0 0 1 srgb
1.49 setlinewidth
[] 0 setdash
0 setlinecap
1 setlinejoin
10.00 setmiterlimit
np
618.91 277.26 m
34.56 0 l
o
18.00 18.00 823.89 577.28 cl
18.00 18.00 823.89 577.28 cl
0 0 1 srgb
1.49 setlinewidth
[] 0 setdash
0 setlinecap
1 setlinejoin
10.00 setmiterlimit
np
618.91 277.26 m
34.56 0 l
o
18.00 18.00 823.89 577.28 cl
18.00 18.00 823.89 577.28 cl
0 0 1 srgb
1.49 setlinewidth
[] 0 setdash
0 setlinecap
1 setlinejoin
10.00 setmiterlimit
np
618.91 277.26 m
34.56 0 l
o
18.00 18.00 823.89 577.28 cl
18.00 18.00 823.89 577.28 cl
/bg { 1 1 1 srgb } def
614.59 251.34 43.20 17.28 r p2
18.00 18.00 823.89 577.28 cl
18.00 18.00 823.89 577.28 cl
0 1 1 srgb
1.49 setlinewidth
[] 0 setdash
0 setlinecap
1 setlinejoin
10.00 setmiterlimit
np
618.91 259.98 m
34.56 0 l
o
18.00 18.00 823.89 577.28 cl
18.00 18.00 823.89 577.28 cl
0 1 1 srgb
1.49 setlinewidth
[] 0 setdash
0 setlinecap
1 setlinejoin
10.00 setmiterlimit
np
618.91 259.98 m
34.56 0 l
o
18.00 18.00 823.89 577.28 cl
18.00 18.00 823.89 577.28 cl
0 1 1 srgb
1.49 setlinewidth
[] 0 setdash
0 setlinecap
1 setlinejoin
10.00 setmiterlimit
np
618.91 259.98 m
34.56 0 l
o
18.00 18.00 823.89 577.28 cl
18.00 18.00 823.89 577.28 cl
0 1 1 srgb
1.49 setlinewidth
[] 0 setdash
0 setlinecap
1 setlinejoin
10.00 setmiterlimit
np
618.91 259.98 m
34.56 0 l
o
18.00 18.00 823.89 577.28 cl
18.00 18.00 823.89 577.28 cl
0 1 1 srgb
1.49 setlinewidth
[] 0 setdash
0 setlinecap
1 setlinejoin
10.00 setmiterlimit
np
618.91 259.98 m
34.56 0 l
o
18.00 18.00 823.89 577.28 cl
18.00 18.00 823.89 577.28 cl
0 1 1 srgb
1.49 setlinewidth
[] 0 setdash
0 setlinecap
1 setlinejoin
10.00 setmiterlimit
np
618.91 259.98 m
34.56 0 l
o
18.00 18.00 823.89 577.28 cl
18.00 18.00 823.89 577.28 cl
/bg { 1 1 1 srgb } def
614.59 234.06 43.20 17.28 r p2
18.00 18.00 823.89 577.28 cl
18.00 18.00 823.89 577.28 cl
1 0 1 srgb
1.49 setlinewidth
[] 0 setdash
0 setlinecap
1 setlinejoin
10.00 setmiterlimit
np
618.91 242.70 m
34.56 0 l
o
18.00 18.00 823.89 577.28 cl
18.00 18.00 823.89 577.28 cl
1 0 1 srgb
1.49 setlinewidth
[] 0 setdash
0 setlinecap
1 setlinejoin
10.00 setmiterlimit
np
618.91 242.70 m
34.56 0 l
o
18.00 18.00 823.89 577.28 cl
18.00 18.00 823.89 577.28 cl
1 0 1 srgb
1.49 setlinewidth
[] 0 setdash
0 setlinecap
1 setlinejoin
10.00 setmiterlimit
np
618.91 242.70 m
34.56 0 l
o
18.00 18.00 823.89 577.28 cl
18.00 18.00 823.89 577.28 cl
1 0 1 srgb
1.49 setlinewidth
[] 0 setdash
0 setlinecap
1 setlinejoin
10.00 setmiterlimit
np
618.91 242.70 m
34.56 0 l
o
18.00 18.00 823.89 577.28 cl
18.00 18.00 823.89 577.28 cl
1 0 1 srgb
1.49 setlinewidth
[] 0 setdash
0 setlinecap
1 setlinejoin
10.00 setmiterlimit
np
618.91 242.70 m
34.56 0 l
o
18.00 18.00 823.89 577.28 cl
18.00 18.00 823.89 577.28 cl
1 0 1 srgb
1.49 setlinewidth
[] 0 setdash
0 setlinecap
1 setlinejoin
10.00 setmiterlimit
np
618.91 242.70 m
34.56 0 l
o
18.00 18.00 823.89 577.28 cl
18.00 18.00 823.89 577.28 cl
/bg { 1 1 1 srgb } def
614.59 216.78 43.20 17.28 r p2
18.00 18.00 823.89 577.28 cl
18.00 18.00 823.89 577.28 cl
0 0 0 srgb
1.49 setlinewidth
[] 0 setdash
0 setlinecap
1 setlinejoin
10.00 setmiterlimit
np
618.91 225.42 m
34.56 0 l
o
18.00 18.00 823.89 577.28 cl
18.00 18.00 823.89 577.28 cl
0 0 0 srgb
1.49 setlinewidth
[] 0 setdash
0 setlinecap
1 setlinejoin
10.00 setmiterlimit
np
618.91 225.42 m
34.56 0 l
o
18.00 18.00 823.89 577.28 cl
18.00 18.00 823.89 577.28 cl
0 0 0 srgb
1.49 setlinewidth
[] 0 setdash
0 setlinecap
1 setlinejoin
10.00 setmiterlimit
np
618.91 225.42 m
34.56 0 l
o
18.00 18.00 823.89 577.28 cl
18.00 18.00 823.89 577.28 cl
0 0 0 srgb
1.49 setlinewidth
[] 0 setdash
0 setlinecap
1 setlinejoin
10.00 setmiterlimit
np
618.91 225.42 m
34.56 0 l
o
18.00 18.00 823.89 577.28 cl
18.00 18.00 823.89 577.28 cl
0 0 0 srgb
1.49 setlinewidth
[] 0 setdash
0 setlinecap
1 setlinejoin
10.00 setmiterlimit
np
618.91 225.42 m
34.56 0 l
o
18.00 18.00 823.89 577.28 cl
18.00 18.00 823.89 577.28 cl
0 0 0 srgb
1.49 setlinewidth
[] 0 setdash
0 setlinecap
1 setlinejoin
10.00 setmiterlimit
np
618.91 225.42 m
34.56 0 l
o
18.00 18.00 823.89 577.28 cl
18.00 18.00 823.89 577.28 cl
/Font1 findfont 20 s
0 0 0 srgb
659.95 304.64 (FFR) 0 0 t
18.00 18.00 823.89 577.28 cl
18.00 18.00 823.89 577.28 cl
/Font1 findfont 20 s
0 0 0 srgb
659.95 287.36 (FRE) 0 0 t
18.00 18.00 823.89 577.28 cl
18.00 18.00 823.89 577.28 cl
/Font1 findfont 20 s
0 0 0 srgb
659.95 270.08 (BNRE I) 0 0 t
18.00 18.00 823.89 577.28 cl
18.00 18.00 823.89 577.28 cl
/Font1 findfont 20 s
0 0 0 srgb
659.95 252.80 (BNRE II) 0 0 t
18.00 18.00 823.89 577.28 cl
18.00 18.00 823.89 577.28 cl
/Font1 findfont 20 s
0 0 0 srgb
659.95 235.52 (BTRE I) 0 0 t
18.00 18.00 823.89 577.28 cl
18.00 18.00 823.89 577.28 cl
/Font1 findfont 20 s
0 0 0 srgb
659.95 218.24 (BTRE II) 0 0 t
18.00 18.00 823.89 577.28 cl
18.00 18.00 823.89 577.28 cl
18.00 18.00 823.89 577.28 cl
18.00 18.00 823.89 577.28 cl
18.00 18.00 823.89 577.28 cl
18.00 18.00 823.89 577.28 cl
18.00 18.00 823.89 577.28 cl
18.00 18.00 823.89 577.28 cl
18.00 18.00 823.89 577.28 cl
18.00 18.00 823.89 577.28 cl
ep
%%Trailer
%%Pages: 1
%%EOF
